name,0,1,2,3,4,5,6,7,8,9,10,11,12,13,bug
org.apache.lucene.search.RangeFilter,11.0,22.0,108.0,-5.958259898006131,5.0,6.0,195.0,0.0,1.0,0.0,108.0,5.0,9.0,5.0,0
org.apache.lucene.search.MultiSearcher,11.0,22.0,108.0,-5.958259898006131,0.0,6.0,316.0,0.0,1.0,0.0,108.0,5.0,9.0,5.0,3
org.apache.lucene.search.spans.SpanNearQuery,1.0,1.0,6.0,-2.499150595396697,15.0,1.0,174.0,0.0,1.0,0.0,6.0,3.0,5.0,3.0,1
org.apache.lucene.index.FieldsReader,1.0,1.0,3.0,-1.5262349099495225,3.0,1.0,173.0,0.0,1.0,0.0,3.0,2.0,3.0,2.0,9
org.apache.lucene.search.spans.SpanQuery,1.0,1.0,6.0,-2.499150595396697,5.0,1.0,49.0,0.0,1.0,0.0,6.0,3.0,5.0,3.0,0
org.apache.lucene.queryParser.QueryParser,11.0,22.0,108.0,-2.9791299490030654,20.5,75.5,1276.0,0.0,1.0,1.0,108.0,6.0,9.25,6.0,7
org.apache.lucene.search.spans.SpanNotQuery,1.0,1.0,6.0,-1.2495752976983485,4.0,0.5,181.0,0.5,1.5,25.5,6.0,3.0,4.75,3.0,0
org.apache.lucene.store.Directory,11.0,22.0,108.0,-5.958259898006131,3.0,19.0,83.0,0.0,1.0,0.0,108.0,5.0,9.0,5.0,6
org.apache.lucene.search.spans.SpanOrQuery,1.0,1.0,6.0,-2.499150595396697,14.0,0.0,241.0,0.0,1.0,0.0,6.0,3.0,5.0,3.0,1
org.apache.lucene.document.DateField,8.0,23.5,105.5,-5.285465157767801,6.0,6.0,105.5,0.0,1.5,11.5,105.5,1.25,3.75,1.25,0
org.apache.lucene.index.SegmentMerger,1.0,1.0,3.0,-1.5262349099495225,2.0,1.0,421.0,0.0,1.0,0.0,3.0,2.0,3.0,2.0,8
org.apache.lucene.search.DisjunctionMaxScorer,1.0,1.0,2.0,-0.7642045065086203,0.0,2.0,189.0,0.0,1.0,0.0,2.0,3.0,4.0,3.0,2
org.apache.lucene.analysis.StopFilter,11.0,22.0,108.0,-5.958259898006131,0.0,48.0,115.0,0.0,1.0,0.0,108.0,5.0,9.0,5.0,0
org.apache.lucene.index.IndexWriter,9.0,26.333333333333332,122.66666666666667,-2.6427325788839005,8.25,9.75,818.5,0.5,1.6666666666666667,17.25,122.66666666666667,3.125,5.625,3.125,22
org.apache.lucene.store.RAMOutputStream,5.0,15.0,54.0,-4.612670417529472,20.0,20.0,107.0,0.0,1.0,0.0,54.0,0.0,2.0,0.0,4
org.apache.lucene.search.TopDocCollector,1.0,1.0,2.0,-0.7642045065086203,0.0,7.0,74.0,0.0,1.0,0.0,2.0,3.0,4.0,3.0,0
org.apache.lucene.queryParser.CharStream,11.0,22.0,108.0,-5.958259898006131,0.0,14.0,96.0,0.0,1.0,0.0,108.0,5.0,9.0,5.0,0
org.apache.lucene.search.FieldCacheImpl,1.0,1.0,2.0,-0.9182958340544896,22.0,16.0,402.0,0.0,1.0,0.0,2.0,15.0,17.0,15.0,2
org.apache.lucene.index.IndexModifier,11.0,22.0,108.0,-5.958259898006131,4.0,28.0,514.0,0.0,1.0,0.0,108.0,5.0,9.0,5.0,2
org.apache.lucene.search.Searchable,11.0,22.0,108.0,-5.958259898006131,3.0,23.0,127.0,0.0,1.0,0.0,108.0,5.0,9.0,5.0,2
org.apache.lucene.analysis.WordlistLoader,11.0,22.0,108.0,-5.958259898006131,0.0,29.0,104.0,0.0,1.0,0.0,108.0,5.0,9.0,5.0,0
org.apache.lucene.index.MultiReader,11.0,22.0,108.0,-5.958259898006131,1.0,40.0,422.0,0.0,1.0,0.0,108.0,5.0,9.0,5.0,9
org.apache.lucene.search.spans.SpanScorer,2.0,2.0,3.0,-1.0739271082929513,23.0,22.0,104.0,1.0,1.0,0.0,3.0,13.0,14.0,13.0,2
org.apache.lucene.index.ParallelReader,11.0,22.0,108.0,-5.958259898006131,0.0,23.0,329.0,0.0,1.0,0.0,108.0,5.0,9.0,5.0,6
org.apache.lucene.search.FilteredQuery,1.0,1.0,1.0,0.0,31.0,11.0,178.0,1.0,1.0,0.0,1.0,1.0,3.0,1.0,4
org.apache.lucene.store.Lock,11.0,22.0,108.0,-5.958259898006131,0.0,10.0,107.0,0.0,1.0,0.0,108.0,5.0,9.0,5.0,2
org.apache.lucene.search.spans.SpanFirstQuery,1.0,1.0,6.0,-2.499150595396697,9.0,0.0,136.0,0.0,1.0,0.0,6.0,3.0,5.0,3.0,0
org.apache.lucene.index.SegmentReader,11.0,22.0,109.0,-3.7422474039778266,1.5,41.5,510.0,0.0,1.5,26.5,109.0,4.25,7.5,4.25,11
org.apache.lucene.search.FieldSortedHitQueue,1.0,1.0,2.0,-0.9182958340544896,12.0,7.0,359.0,0.0,1.0,0.0,2.0,15.0,17.0,15.0,2
org.apache.lucene.search.BooleanQuery,11.0,22.0,108.0,-5.958259898006131,5.0,29.0,460.0,0.0,1.0,0.0,108.0,5.0,9.0,5.0,4
org.apache.lucene.search.ConstantScoreQuery,1.0,1.0,2.0,-0.4983521334101344,82.0,79.0,161.0,0.0,1.0,36.0,2.0,6.25,7.25,6.25,1
org.apache.lucene.search.RemoteSearchable,11.0,22.0,108.0,-5.958259898006131,5.0,30.0,115.0,0.0,1.0,0.0,108.0,5.0,9.0,5.0,2
org.apache.lucene.index.FilterIndexReader,11.0,22.0,108.0,-5.958259898006131,1.0,13.0,140.0,0.0,1.0,0.0,108.0,5.0,9.0,5.0,4
org.apache.lucene.queryParser.MultiFieldQueryParser,11.0,22.0,108.0,-5.958259898006131,5.0,202.0,271.0,0.0,1.0,0.0,108.0,5.0,9.0,5.0,1
org.apache.lucene.analysis.LengthFilter,1.0,9.0,66.0,-5.6140322906051985,1.0,1.0,47.0,0.0,1.0,0.0,66.0,0.0,2.0,0.0,0
org.apache.lucene.index.IndexReader,11.0,22.0,108.0,-5.958259898006131,0.0,80.0,742.0,0.0,1.0,0.0,108.0,5.0,9.0,5.0,11
org.apache.lucene.search.ConstantScoreRangeQuery,1.0,1.0,2.0,-0.9967042668202688,138.0,138.0,138.0,0.0,1.0,0.0,2.0,2.0,3.0,2.0,0
org.apache.lucene.analysis.TokenFilter,11.0,22.0,108.0,-5.958259898006131,0.0,4.0,41.0,0.0,1.0,0.0,108.0,5.0,9.0,5.0,0
org.apache.lucene.search.spans.SpanTermQuery,1.0,1.0,6.0,-2.499150595396697,9.0,1.0,136.0,0.0,1.0,0.0,6.0,3.0,5.0,3.0,1
org.apache.lucene.store.RAMInputStream,1.0,1.0,1.0,0.0,5.0,5.0,63.0,0.0,1.0,0.0,1.0,21.0,22.0,21.0,2
org.apache.lucene.analysis.Analyzer,11.0,22.0,108.0,-5.958259898006131,2.0,15.0,58.0,0.0,1.0,0.0,108.0,5.0,9.0,5.0,0
org.apache.lucene.search.DisjunctionSumScorer,2.0,2.0,3.0,-1.0739271082929513,1.0,1.0,239.0,1.0,1.0,0.0,3.0,13.0,14.0,13.0,1
org.apache.lucene.store.BufferedIndexOutput,5.0,15.0,54.0,-1.153167604382368,9.5,0.5,120.75,0.0,1.0,3.0,54.0,0.9166666666666666,2.916666666666667,0.9166666666666666,2
org.apache.lucene.document.Field,11.0,22.0,108.0,-5.958259898006131,14.0,130.0,510.0,0.0,1.0,0.0,108.0,5.0,9.0,5.0,1
org.apache.lucene.search.BooleanClause,11.0,22.0,108.0,-5.958259898006131,9.0,62.0,111.0,0.0,1.0,0.0,108.0,5.0,9.0,5.0,1
