name,0,1,2,3,4,bug
org.apache.camel.component.cxf.CxfComponent,0.5671641791044776,0.43283582089552236,4.0,6.0,68.18534152028516,0
org.apache.camel.component.jetty.JettyHttpComponent,0.5283505154639175,0.47164948453608246,6.0,11.0,57.21200209457852,0
org.apache.camel.language.simple.SimpleLanguage,0.37272727272727274,0.6272727272727273,3.0,7.0,108.11892478144881,1
org.apache.camel.component.file.FileProcessStrategy,0.1527777777777778,0.8472222222222222,2.0,3.0,146.99999999999997,0
org.apache.camel.component.restlet.RestletConstants,0.9473684210526315,0.05263157894736842,1.0,8.0,24.999999999999996,0
org.apache.camel.impl.DefaultLifecycleStrategy,0.26666666666666666,0.7333333333333333,3.0,3.0,121.20998077028369,2
org.apache.camel.processor.RecipientList,0.9423076923076923,0.057692307692307696,3.0,4.0,100.82222099763246,0
org.apache.camel.language.groovy.CamelGroovyMethods,0.5,0.5,1.0,1.0,32.0,0
org.apache.camel.language.simple.FileExpressionBuilder,0.733615221987315,0.266384778012685,4.0,12.0,146.56400389916394,3
org.apache.camel.component.file.remote.RemoteFileComponent,0.3978494623655914,0.6021505376344086,2.0,7.0,128.11713390487634,0
org.apache.camel.component.jmx.JMXEndpoint,0.4888888888888889,0.5111111111111111,3.0,7.0,90.9499382497541,0
org.apache.camel.component.file.remote.SftpEndpoint,0.24675324675324675,0.7532467532467533,2.0,5.0,178.9273595624771,0
org.apache.camel.model.loadbalancer.StickyLoadBalanceStrategy,0.5,0.5,1.0,2.0,164.00000000000006,1
org.apache.camel.component.bean.DefaultAnnotationExpressionFactory,0.5,0.5,1.0,1.0,194.00000000000003,0
org.apache.camel.processor.loadbalancer.StickyLoadBalancer,0.5,0.5,1.0,1.0,32.0,1
org.apache.camel.view.XmlGraphGenerator,0.5,0.5,1.0,1.0,195.99999999999991,0
org.apache.camel.impl.converter.AsyncProcessorTypeConverter,0.7,0.3,2.0,2.0,10.677078252031308,0
org.apache.camel.processor.resequencer.ResequencerEngine,0.4484848484848485,0.5515151515151515,3.0,3.0,27.35070612140185,0
org.apache.camel.processor.resequencer.Element,0.3333333333333333,0.6666666666666666,1.0,1.0,6.0,0
org.apache.camel.impl.converter.ArrayTypeConverter,0.7272727272727273,0.2727272727272727,2.0,2.0,10.677078252031308,0
org.apache.camel.component.direct.DirectEndpoint,0.5,0.5,2.0,6.0,118.03389343743606,2
org.apache.camel.component.xquery.XQuery,0.6666666666666666,0.3333333333333333,3.0,3.0,100.82222099763246,0
org.apache.camel.dataformat.xstream.JsonDataFormat,0.9776119402985075,0.022388059701492536,2.0,5.0,136.50641010589948,0
org.apache.camel.builder.NoErrorHandlerBuilder,0.5,0.5,1.0,1.0,77.00000000000001,1
org.apache.camel.component.mina.MinaPayloadHelper,0.5,0.5,2.0,3.0,252.61235124197725,0
org.apache.camel.ProducerTemplate,0.7787114845938375,0.22128851540616246,3.0,9.0,111.03161721412049,2
org.apache.camel.component.cxf.CxfSoapConsumer,0.8571428571428571,0.14285714285714285,1.0,2.0,223.00000000000003,0
org.apache.camel.processor.TryProcessor,0.5555555555555556,0.4444444444444444,2.0,2.0,58.48076606885378,8
org.apache.camel.converter.xmlbeans.XmlBeansDataFormat,0.5,0.5,1.0,1.0,77.00000000000001,0
org.apache.camel.component.file.FileProducer,0.3409090909090909,0.6590909090909091,3.0,12.0,178.45558295070657,0
org.apache.camel.model.ExpressionNode,0.5,0.5,1.0,1.0,167.99999999999997,0
org.apache.camel.model.ChoiceType,0.6451612903225806,0.3548387096774194,3.0,7.0,127.71551401837112,0
org.apache.camel.component.xquery.XQueryComponent,0.4,0.6,2.0,2.0,66.82813778641446,0
org.apache.camel.component.cxf.invoker.CxfClient,0.027149321266968326,0.9728506787330317,2.0,4.0,60.53098380168622,0
org.apache.camel.component.bean.RegistryBean,0.7777777777777778,0.2222222222222222,1.0,1.0,17.0,0
org.apache.camel.language.Constant,0.6666666666666666,0.3333333333333333,3.0,3.0,100.82222099763246,0
org.apache.camel.component.mail.MailProducer,0.5,0.5,1.0,1.0,36.0,0
org.apache.camel.component.cxf.CxfSoapComponent,0.14285714285714285,0.8571428571428571,2.0,2.0,50.109879265470205,0
org.apache.camel.dataformat.hl7.HL7Converter,0.5454545454545454,0.45454545454545453,3.0,3.0,26.031519958125926,0
org.apache.camel.model.TryType,0.53125,0.46875,3.0,4.0,127.71551401837112,0
org.apache.camel.scala.dsl.builder.RouteBuilder,0.7218543046357616,0.2781456953642384,4.0,14.0,104.91302123558049,0
org.apache.camel.component.jpa.JpaProducer,0.46153846153846156,0.5384615384615384,3.0,4.0,64.8715411671635,0
org.apache.camel.component.mail.MailConfiguration,0.625,0.375,3.0,7.0,156.16411066265647,0
org.apache.camel.component.jms.JmsTemporaryQueueEndpoint,0.0,1.0,1.0,1.0,115.99999999999999,0
org.apache.camel.spi.LanguageResolver,1.0,0.0,1.0,1.0,19.999999999999996,0
org.apache.camel.util.IntrospectionSupport,0.7768595041322314,0.2231404958677686,3.0,8.0,170.06963698401887,0
org.apache.camel.TypeConverter,0.7058823529411765,0.29411764705882354,3.0,4.0,108.11892478144881,0
org.apache.camel.impl.converter.StaticMethodTypeConverter,0.7,0.3,2.0,2.0,10.677078252031308,0
org.apache.camel.component.dataset.DataSet,0.0,1.0,1.0,1.0,118.00000000000004,0
org.apache.camel.component.atom.AtomPollingConsumer,0.5,0.5,1.0,2.0,48.00000000000001,0
org.apache.camel.bam.processor.JpaBamProcessorSupport,0.4444444444444444,0.5555555555555556,1.0,1.0,32.0,0
org.apache.camel.component.dataset.DataSetComponent,0.42857142857142855,0.5714285714285714,2.0,3.0,66.82813778641446,0
org.apache.camel.component.bean.MethodInfoCache,0.9175257731958762,0.08247422680412371,2.0,3.0,14.966629547095764,0
org.apache.camel.component.mina.MinaExchange,0.0,1.0,1.0,1.0,46.0,0
org.apache.camel.language.simple.AbstractSimpleLanguage,0.9611650485436893,0.038834951456310676,2.0,2.0,59.59865770300534,0
org.apache.camel.language.Simple,0.6666666666666666,0.3333333333333333,3.0,3.0,100.82222099763246,0
org.apache.camel.impl.DefaultComponentResolver,0.4444444444444444,0.5555555555555556,2.0,4.0,130.8051986734473,0
org.apache.camel.impl.ZipDataFormat,0.8,0.2,2.0,4.0,229.3425385749447,0
org.apache.camel.util.FactoryFinder,0.5757575757575758,0.42424242424242425,2.0,5.0,267.1890716328047,1
org.apache.camel.model.ResequencerType,0.5680272108843537,0.43197278911564624,5.0,9.0,37.199322275904144,0
org.apache.camel.component.xmpp.XmppPrivateChatProducer,0.5714285714285714,0.42857142857142855,1.0,2.0,68.00000000000001,0
org.apache.camel.model.MarshalType,0.7307692307692307,0.2692307692307692,3.0,10.0,134.5982569522149,0
org.apache.camel.model.dataformat.package-info,,,1.0,1.0,55.000000000000014,0
org.apache.camel.component.ResourceBasedEndpoint,0.6410256410256411,0.358974358974359,1.0,2.0,329.0,0
org.apache.camel.impl.DefaultPollingEndpoint,0.5,0.5,1.0,3.0,44.99999999999999,1
org.apache.camel.model.dataformat.JaxbDataFormat,0.868421052631579,0.13157894736842105,2.0,3.0,136.50641010589948,1
org.apache.camel.component.jcr.JcrProducer,0.42857142857142855,0.5714285714285714,1.0,2.0,36.0,0
org.apache.camel.component.cxf.interceptors.PayloadContentRedirectInterceptor,0.5,0.5,1.0,1.0,62.99999999999999,0
org.apache.camel.component.log.LogComponent,0.47368421052631576,0.5263157894736842,3.0,7.0,108.11892478144881,0
org.apache.camel.processor.aggregate.AggregationCollection,0.4888888888888889,0.5111111111111111,4.0,7.0,96.24852687989795,0
org.apache.camel.component.jms.JmsConfiguration,0.5572519083969466,0.44274809160305345,2.0,11.0,199.79739738044637,0
org.apache.camel.component.file.FileMessage,0.014705882352941176,0.9852941176470589,1.0,2.0,342.99999999999983,0
org.apache.camel.component.timer.TimerEndpoint,0.6,0.4,2.0,4.0,118.03389343743606,0
org.apache.camel.component.jpa.JpaComponent,0.4,0.6,1.0,2.0,44.99999999999999,0
org.apache.camel.ExchangePattern,0.9333333333333333,0.06666666666666667,2.0,5.0,89.79977728257458,0
org.apache.camel.component.cxf.CxfSoapEndpoint,0.41379310344827586,0.5862068965517241,3.0,3.0,93.83125754989793,0
org.apache.camel.component.cxf.spring.CxfEndpointBean,0.918918918918919,0.08108108108108109,2.0,5.0,60.53098380168622,0
org.apache.camel.impl.DefaultProducerTemplate,0.6903553299492385,0.3096446700507614,5.0,10.0,112.7466405743955,5
org.apache.camel.component.jmx.JMXComponent,0.375,0.625,3.0,4.0,108.11892478144881,0
org.apache.camel.impl.BinaryPredicateSupport,0.5,0.5,2.0,2.0,54.25863986500216,0
org.apache.camel.processor.aggregate.UseLatestAggregationStrategy,1.0,0.0,1.0,2.0,179.0,0
org.apache.camel.component.mock.AssertionClause,0.627906976744186,0.37209302325581395,2.0,2.0,59.59865770300534,0
org.apache.camel.model.loadbalancer.TopicLoadBalanceStrategy,0.5119047619047619,0.4880952380952381,2.0,7.0,248.6061141645554,1
org.apache.camel.processor.LoopProcessor,0.8829787234042553,0.11702127659574468,3.0,7.0,173.07715938429263,1
org.apache.camel.component.bean.ConstantBeanHolder,0.8571428571428571,0.14285714285714285,1.0,1.0,17.0,0
org.apache.camel.impl.DefaultProducer,0.5,0.5,1.0,4.0,36.0,0
org.apache.camel.builder.ProcessorBuilder,0.09090909090909091,0.9090909090909091,2.0,2.0,20.493901531919203,1
org.apache.camel.component.restlet.RestletBinding,0.896551724137931,0.10344827586206896,1.0,4.0,12.0,0
org.apache.camel.impl.MessageSupport,0.6,0.4,2.0,3.0,142.8705707974878,2
org.apache.camel.component.file.strategy.FileExpressionRenamer,0.2857142857142857,0.7142857142857143,2.0,6.0,300.34813134094907,0
org.apache.camel.model.RouteType,0.6956521739130435,0.30434782608695654,3.0,6.0,205.82664430319844,0
org.apache.camel.component.jms.CamelMessageListener,0.9184952978056427,0.08150470219435736,3.0,6.0,71.7682880211828,0
org.apache.camel.component.xmpp.XmppEndpoint,0.7386363636363636,0.26136363636363635,4.0,6.0,101.47183668396332,0
org.apache.camel.processor.Logger,0.9761904761904762,0.023809523809523808,3.0,6.0,166.16888990093986,1
org.apache.camel.component.restlet.RestletEndpoint,0.759581881533101,0.24041811846689895,2.0,7.0,94.24966843443,0
org.apache.camel.component.jhc.JhcHeaderFilterStrategy,0.5,0.5,1.0,1.0,323.9999999999999,0
org.apache.camel.component.cxf.util.Dummy,0.5,0.5,1.0,2.0,119.99999999999997,0
org.apache.camel.component.cxf.transport.spring.AbstractCamelContextBeanDefinitionParser,0.5,0.5,2.0,2.0,243.17894645713045,0
org.apache.camel.component.jpa.Consumed,0.75,0.25,2.0,2.0,94.07443861113386,0
org.apache.camel.component.jms.JmsExchange,0.7142857142857143,0.2857142857142857,2.0,2.0,107.70329614269005,0
org.apache.camel.converter.jaxp.DomConverter,0.1875,0.8125,1.0,1.0,283.0,0
org.apache.camel.component.stream.StreamComponent,0.42857142857142855,0.5714285714285714,1.0,2.0,44.99999999999999,0
org.apache.camel.processor.interceptor.TraceInterceptor,0.6941896024464832,0.3058103975535168,2.0,13.0,133.82077566656093,8
org.apache.camel.component.spring.integration.SpringIntegrationComponent,0.5,0.5,1.0,1.0,36.0,0
org.apache.camel.builder.ValueBuilder,0.5531914893617021,0.44680851063829785,3.0,9.0,178.45558295070657,1
org.apache.camel.processor.MarshalProcessor,0.5,0.5,1.0,1.0,77.00000000000001,1
org.apache.camel.component.cxf.CxfConstants,1.0,0.0,1.0,2.0,193.0,0
org.apache.camel.model.loadbalancer.LoadBalancerType,0.9047619047619048,0.09523809523809523,2.0,3.0,178.37040113202633,1
org.apache.camel.spi.HeaderFilterStrategy,0.46153846153846156,0.5384615384615384,1.0,1.0,19.999999999999996,1
org.apache.camel.component.bean.BeanProcessor,0.37735849056603776,0.6226415094339622,3.0,5.0,86.3590541008736,4
org.apache.camel.Message,0.5714285714285714,0.42857142857142855,2.0,2.0,169.81166037701882,2
org.apache.camel.model.dataformat.XStreamDataFormat,0.1557377049180328,0.8442622950819673,3.0,4.0,174.05941072490026,1
org.apache.camel.builder.ConstantProcessorBuilder,1.0,0.0,1.0,1.0,220.00000000000009,0
org.apache.camel.spring.spi.TransactionInterceptor,0.782608695652174,0.21739130434782608,3.0,3.0,174.05941072490026,0
org.apache.camel.component.jetty.JettyHttpEndpoint,0.5806451612903226,0.41935483870967744,3.0,7.0,134.0922361920662,0
org.apache.camel.component.restlet.RestletComponent,0.7891654465592972,0.2108345534407028,2.0,11.0,94.24966843443,0
org.apache.camel.impl.converter.InstanceMethodTypeConverter,0.68,0.32,3.0,3.0,159.2985963656183,0
org.apache.camel.component.atom.AtomEndpoint,0.22784810126582278,0.7721518987341772,3.0,7.0,122.01836147539159,0
org.apache.camel.processor.DelayPolicy,0.9764705882352941,0.023529411764705882,2.0,2.0,147.6177496102688,1
org.apache.camel.component.cxf.interceptors.XMLMessageInInterceptor,0.0,1.0,2.0,3.0,60.53098380168622,0
org.apache.camel.component.atom.AtomConsumerSupport,0.3333333333333333,0.6666666666666666,1.0,1.0,36.0,0
org.apache.camel.component.spring.integration.SpringIntegrationProducer,0.6387096774193548,0.36129032258064514,3.0,9.0,119.91679417177097,0
org.apache.camel.component.http.HttpComponent,0.6297709923664122,0.3702290076335878,4.0,13.0,146.56400389916394,0
org.apache.camel.bam.model.ProcessDefinition,0.6666666666666666,0.3333333333333333,3.0,3.0,141.61882829207394,0
org.apache.camel.component.bean.CamelInvocationHandler,0.6571428571428571,0.34285714285714286,2.0,3.0,103.68220676663856,1
org.apache.camel.impl.converter.EnumTypeConverter,0.7142857142857143,0.2857142857142857,2.0,2.0,10.677078252031308,0
org.apache.camel.component.direct.DirectComponent,,,1.0,1.0,4.999999999999999,0
org.apache.camel.component.mail.MailConsumer,0.5,0.5,2.0,2.0,145.7086133349706,0
org.apache.camel.model.InterceptorType,1.0,0.0,1.0,1.0,194.00000000000003,0
org.apache.camel.component.jms.JmsHeaderFilterStrategy,0.0,1.0,1.0,1.0,115.99999999999999,0
org.apache.camel.component.mock.MockComponent,0.4,0.6,1.0,2.0,44.99999999999999,0
org.apache.camel.processor.ErrorHandlerSupport,0.5666666666666667,0.43333333333333335,1.0,3.0,144.0,1
org.apache.camel.component.http.HttpHeaderFilterStrategy,0.875,0.125,2.0,4.0,289.6463360721138,0
org.apache.camel.impl.DefaultUnitOfWork,0.8181818181818182,0.18181818181818182,2.0,4.0,131.02671483327362,7
org.apache.camel.model.CatchType,0.8571428571428571,0.14285714285714285,1.0,4.0,187.00000000000003,0
org.apache.camel.component.http.HttpBinding,0.44507575757575757,0.5549242424242424,3.0,11.0,120.07106901276381,0
org.apache.camel.component.cxf.invoker.InvokingContext,0.0,1.0,1.0,1.0,15.999999999999998,0
org.apache.camel.component.jdbc.JdbcProducer,0.4084507042253521,0.5915492957746479,2.0,3.0,75.8287544405155,0
org.apache.camel.component.test.TestComponent,0.375,0.625,1.0,2.0,44.99999999999999,0
org.apache.camel.component.quartz.QuartzConsumer,0.5,0.5,1.0,1.0,36.0,0
org.apache.camel.component.cxf.invoker.PayloadMessage,0.5625,0.4375,1.0,2.0,115.00000000000001,0
org.apache.camel.model.NodeFactory,1.0,0.0,1.0,1.0,13.0,0
org.apache.camel.component.jhc.AsyncBufferingHttpServiceHandler,0.25925925925925924,0.7407407407407407,1.0,1.0,23.0,0
org.apache.camel.processor.DelayProcessorSupport,0.5,0.5,1.0,1.0,59.000000000000014,1
org.apache.camel.processor.ThreadProcessor,0.6,0.4,1.0,1.0,155.00000000000003,0
org.apache.camel.processor.MulticastProcessor,0.6257309941520468,0.3742690058479532,4.0,11.0,65.36771450224802,8
org.apache.camel.impl.DefaultCamelContext,0.8015564202334631,0.19844357976653695,6.0,19.0,82.08470450115493,18
org.apache.camel.component.bean.BeanExchange,0.0,1.0,1.0,1.0,46.0,0
org.apache.camel.osgi.CamelContextFactoryBean,0.8703703703703703,0.12962962962962962,1.0,8.0,219.00000000000003,0
org.apache.camel.model.dataformat.CsvDataFormat,0.0,1.0,1.0,1.0,11.000000000000002,1
org.apache.camel.processor.Splitter,0.7441860465116279,0.2558139534883721,4.0,7.0,104.4153255222403,5
org.apache.camel.component.jms.requestor.PersistentReplyToRequestor,0.509090909090909,0.4909090909090909,1.0,1.0,115.99999999999999,0
org.apache.camel.impl.ProxyInstantiationException,0.8793103448275862,0.1206896551724138,3.0,5.0,165.41712641775766,0
org.apache.camel.component.freemarker.FreemarkerComponent,0.9933333333333333,0.006666666666666667,1.0,3.0,329.0,0
org.apache.camel.processor.SendProcessor,0.813953488372093,0.18604651162790697,3.0,4.0,117.27177671025895,5
org.apache.camel.component.cxf.transport.CamelConduit,0.6,0.4,3.0,5.0,59.632756793154094,0
org.apache.camel.component.xmpp.RuntimeXmppException,0.6,0.4,1.0,1.0,329.0,0
org.apache.camel.processor.LoggingErrorHandler,0.75,0.25,3.0,4.0,61.19386499226039,2
org.apache.camel.builder.DeadLetterChannelBuilder,0.8658536585365854,0.13414634146341464,4.0,11.0,99.04291220540316,11
org.apache.camel.component.cxf.CxfMessage,0.10897435897435898,0.8910256410256411,3.0,4.0,66.55094368354264,0
org.apache.camel.processor.RoutingSlip,0.4,0.6,4.0,6.0,132.24526465023794,3
org.apache.camel.component.timer.TimerComponent,0.5555555555555556,0.4444444444444444,2.0,3.0,118.03389343743606,0
org.apache.camel.component.cxf.interceptors.DOMOutInterceptor,0.0,1.0,1.0,1.0,15.999999999999998,0
org.apache.camel.component.seda.SedaEndpoint,0.7926829268292683,0.2073170731707317,5.0,6.0,73.41433528023519,0
org.apache.camel.component.cxf.interceptors.AbstractMessageInInterceptor,0.14814814814814814,0.8518518518518519,2.0,3.0,60.53098380168622,0
org.apache.camel.component.xmpp.XmppBinding,0.6964285714285714,0.30357142857142855,3.0,3.0,174.19093191012192,0
org.apache.camel.component.spring.integration.converter.SpringIntegrationConverter,0.3783783783783784,0.6216216216216216,2.0,4.0,136.50641010589948,0
org.apache.camel.osgi.OsgiAnnotationTypeConverterLoader,1.0,0.0,1.0,2.0,195.99999999999991,0
org.apache.camel.Consume,0.9387755102040817,0.061224489795918366,3.0,4.0,100.82222099763246,0
org.apache.camel.model.RoutesType,0.9054054054054054,0.0945945945945946,2.0,7.0,182.08514491852438,0
org.apache.camel.component.cxf.invoker.CxfClientFactoryBean,0.0,1.0,1.0,1.0,15.999999999999998,0
org.apache.camel.impl.converter.PropertyEditorTypeConverter,0.8333333333333334,0.16666666666666666,2.0,2.0,10.677078252031308,0
org.apache.camel.component.jms.RuntimeJmsException,0.03125,0.96875,2.0,2.0,73.84443106964807,0
org.apache.camel.processor.loadbalancer.TopicLoadBalancer,0.5,0.5,2.0,2.0,248.6061141645554,1
org.apache.camel.model.SetHeaderType,0.8260869565217391,0.17391304347826086,2.0,5.0,195.79325831090316,0
org.apache.camel.component.restlet.RestletConsumer,0.9438202247191011,0.056179775280898875,1.0,4.0,12.0,0
org.apache.camel.component.jetty.CamelContinuationServlet,0.21428571428571427,0.7857142857142857,2.0,3.0,0.0,0
org.apache.camel.Property,0.75,0.25,2.0,2.0,89.79977728257458,0
org.apache.camel.language.ognl.OgnlLanguage,0.4,0.6,1.0,1.0,32.0,0
org.apache.camel.component.mina.MinaEndpoint,0.5324675324675324,0.4675324675324675,4.0,9.0,117.3319809104454,0
org.apache.camel.processor.validation.ValidatingProcessor,0.11320754716981132,0.8867924528301887,1.0,1.0,0.0,2
org.apache.camel.model.ProcessorRef,0.6153846153846154,0.38461538461538464,2.0,3.0,183.30302779823347,0
org.apache.camel.processor.loadbalancer.LoadBalancerConsumer,0.5,0.5,1.0,1.0,36.0,1
org.apache.camel.component.file.FileConsumer,0.37453183520599254,0.6254681647940075,2.0,27.0,146.99999999999997,11
org.apache.camel.component.cxf.feature.PayLoadDataFormatFeature,0.4444444444444444,0.5555555555555556,1.0,1.0,15.999999999999998,0
org.apache.camel.OutHeaders,0.75,0.25,2.0,2.0,89.79977728257458,0
org.apache.camel.component.http.HttpMethods,0.8571428571428571,0.14285714285714285,2.0,2.0,142.8705707974878,0
org.apache.camel.NoTypeConversionAvailableException,0.5,0.5,2.0,2.0,100.87616170334796,1
org.apache.camel.model.OutputType,0.42857142857142855,0.5714285714285714,2.0,2.0,183.30302779823347,1
org.apache.camel.component.ref.RefComponent,0.25,0.75,1.0,1.0,36.0,0
org.apache.camel.management.PerformanceCounter,0.42857142857142855,0.5714285714285714,1.0,1.0,19.999999999999996,0
org.apache.camel.converter.CamelConverter,0.5,0.5,1.0,1.0,32.0,0
org.apache.camel.spring.SpringCamelContext,0.5161290322580645,0.4838709677419355,4.0,5.0,132.24526465023794,0
org.apache.camel.processor.Throttler,0.6213592233009708,0.3786407766990291,2.0,4.0,33.985290935932866,1
org.apache.camel.component.cxf.util.CxfHeaderHelper,0.5714285714285714,0.42857142857142855,2.0,4.0,82.81304245105356,0
org.apache.camel.spi.ErrorHandlerWrappingStrategy,1.0,0.0,1.0,1.0,19.999999999999996,0
org.apache.camel.InvalidHeaderTypeException,0.0,1.0,1.0,1.0,27.999999999999996,0
org.apache.camel.Exchange,0.7567567567567568,0.24324324324324326,4.0,6.0,107.7265005598809,28
org.apache.camel.component.cxf.interceptors.FakeBindingOperationInfo,0.0,1.0,1.0,1.0,15.999999999999998,0
org.apache.camel.model.RedeliveryPolicyType,0.875,0.125,3.0,9.0,106.39899465761975,0
org.apache.camel.component.spring.integration.SpringIntegrationConsumer,0.5944055944055944,0.40559440559440557,3.0,7.0,119.91679417177097,0
org.apache.camel.processor.interceptor.StreamCaching,0.9913793103448276,0.008620689655172414,2.0,3.0,38.45776904605882,3
org.apache.camel.component.http.HttpExchange,0.16666666666666666,0.8333333333333334,2.0,2.0,107.70329614269005,0
org.apache.camel.component.file.FileEndpoint,0.3987603305785124,0.6012396694214877,5.0,28.0,124.31838010781469,9
org.apache.camel.model.InOnlyType,0.848314606741573,0.15168539325842698,2.0,6.0,105.19980988575976,0
org.apache.camel.model.IdempotentConsumerType,0.7671232876712328,0.2328767123287671,2.0,5.0,195.79325831090316,0
org.apache.camel.component.cxf.invoker.RawMessageInvokingContext,0.0,1.0,1.0,1.0,15.999999999999998,0
org.apache.camel.processor.interceptor.Debugger,0.5,0.5,1.0,1.0,231.99999999999997,1
org.apache.camel.processor.ChoiceProcessor,0.5,0.5,1.0,1.0,32.0,1
org.apache.camel.component.cxf.CxfConsumer,0.4808362369337979,0.519163763066202,3.0,14.0,59.632756793154094,0
org.apache.camel.component.atom.UpdatedDateFilter,0.6666666666666666,0.3333333333333333,3.0,3.0,194.20313861917344,0
org.apache.camel.builder.script.Python,0.75,0.25,2.0,2.0,94.07443861113386,0
org.apache.camel.component.stream.StreamEndpoint,0.5588235294117647,0.4411764705882353,3.0,5.0,101.92381854851921,0
org.apache.camel.EndpointInject,0.6666666666666666,0.3333333333333333,3.0,3.0,100.82222099763246,1
org.apache.camel.processor.resequencer.SequenceElementComparator,0.5,0.5,1.0,1.0,6.0,0
org.apache.camel.impl.ProcessorEndpoint,0.5,0.5,1.0,4.0,44.99999999999999,0
org.apache.camel.processor.resequencer.ExpressionResultComparator,0.5,0.5,1.0,1.0,32.0,0
org.apache.camel.impl.ScheduledPollConsumer,0.6031746031746031,0.3968253968253968,3.0,8.0,98.88876395126991,1
org.apache.camel.component.spring.integration.SpringIntegrationEndpoint,0.5,0.5,4.0,9.0,87.80600004489341,0
org.apache.camel.builder.script.ScriptBuilder,0.5,0.5,4.0,5.0,75.5673461366474,0
org.apache.camel.impl.converter.TypeConverterLoader,1.0,0.0,1.0,1.0,133.0,0
org.apache.camel.component.bean.MethodInfo,0.8391304347826087,0.1608695652173913,4.0,12.0,129.94826680619053,1
org.apache.camel.processor.ExchangePatternProcessor,1.0,0.0,1.0,2.0,166.00000000000006,2
org.apache.camel.model.BeanRef,0.9791666666666666,0.020833333333333332,2.0,2.0,195.79325831090316,0
org.apache.camel.component.cxf.interceptors.DOMInInterceptor,0.0,1.0,1.0,1.0,15.999999999999998,0
org.apache.camel.builder.script.JavaScript,0.75,0.25,2.0,2.0,94.07443861113386,0
org.apache.camel.converter.xmlbeans.XmlBeansConverter,0.5,0.5,1.0,1.0,77.00000000000001,0
org.apache.camel.component.quartz.CamelJob,0.5,0.5,1.0,1.0,329.0,0
org.apache.camel.component.jms.requestor.PersistentReplyToFutureHandler,0.0,1.0,1.0,1.0,115.99999999999999,0
org.apache.camel.component.atom.AtomComponent,0.6666666666666666,0.3333333333333333,1.0,2.0,77.00000000000001,0
org.apache.camel.component.http.HttpMessage,0.6923076923076923,0.3076923076923077,2.0,4.0,135.38833036861035,0
org.apache.camel.builder.script.BeanShell,0.04878048780487805,0.9512195121951219,2.0,2.0,73.84443106964807,0
org.apache.camel.component.cxf.CxfSoapProducer,0.75,0.25,3.0,6.0,58.27063376531826,0
org.apache.camel.processor.exceptionpolicy.ExceptionPolicyStrategy,0.5,0.5,1.0,2.0,144.0,0
org.apache.camel.component.mina.MinaConverter,0.5,0.5,1.0,1.0,37.99999999999999,0
org.apache.camel.processor.UnitOfWorkProcessor,0.96,0.04,2.0,3.0,102.05880657738454,1
org.apache.camel.model.dataformat.SerializationDataFormat,0.8333333333333334,0.16666666666666666,2.0,2.0,147.6177496102688,0
org.apache.camel.component.jms.JmsConsumer,0.25,0.75,2.0,2.0,65.99999999999997,0
org.apache.camel.component.irc.IrcConsumer,0.5,0.5,1.0,1.0,36.0,0
org.apache.camel.component.mina.TextLineDelimiter,1.0,0.0,1.0,2.0,175.00000000000006,0
org.apache.camel.processor.idempotent.jpa.JpaMessageIdRepository,0.76,0.24,1.0,1.0,171.99999999999994,0
org.apache.camel.impl.DefaultRouteContext,0.7916666666666666,0.20833333333333334,2.0,3.0,40.804411526206316,4
org.apache.camel.language.juel.JuelLanguage,0.5,0.5,2.0,2.0,66.82813778641446,0
org.apache.camel.model.DelayerType,0.7093023255813954,0.29069767441860467,3.0,9.0,144.00694410957337,0
org.apache.camel.language.juel.JuelExpression,0.5,0.5,2.0,2.0,66.82813778641446,0
org.apache.camel.model.ToType,0.25757575757575757,0.7424242424242424,3.0,8.0,117.27177671025895,0
org.apache.camel.component.file.strategy.RenameFileProcessStrategy,0.43521594684385384,0.5647840531561462,1.0,8.0,342.99999999999983,0
org.apache.camel.component.seda.SedaConsumer,0.6822429906542056,0.3177570093457944,4.0,6.0,67.93088773599118,1
org.apache.camel.util.concurrent.AtomicExchange,1.0,0.0,1.0,1.0,3.0000000000000004,0
org.apache.camel.component.file.remote.RemoteFileExchange,0.5819672131147541,0.4180327868852459,2.0,5.0,124.75976915656742,0
org.apache.camel.component.mina.MinaComponent,0.6282722513089005,0.3717277486910995,3.0,14.0,159.2985963656183,0
org.apache.camel.model.LoopType,0.9659090909090909,0.03409090909090909,3.0,5.0,126.65541990016426,0
org.apache.camel.impl.EventDrivenPollingConsumer,0.4782608695652174,0.5217391304347826,1.0,4.0,36.0,1
org.apache.camel.builder.ErrorHandlerBuilder,0.9,0.1,2.0,2.0,147.6177496102688,1
org.apache.camel.component.seda.ListPollingConsumer,0.0,1.0,1.0,1.0,27.999999999999996,0
org.apache.camel.component.irc.IrcExchange,0.5,0.5,1.0,1.0,49.99999999999999,0
org.apache.camel.impl.DelegateLifecycleStrategy,0.5,0.5,1.0,1.0,44.99999999999999,1
org.apache.camel.scala.dsl.languages.JXPath,0.6666666666666666,0.3333333333333333,3.0,3.0,100.82222099763246,0
org.apache.camel.model.language.ExpressionType,0.8,0.2,2.0,3.0,142.8705707974878,0
org.apache.camel.Predicate,0.5,0.5,2.0,2.0,66.82813778641446,0
org.apache.camel.impl.LoggingExceptionHandler,0.5,0.5,1.0,2.0,22.000000000000004,1
org.apache.camel.language.ognl.OGNL,0.75,0.25,2.0,2.0,94.07443861113386,0
org.apache.camel.processor.idempotent.jpa.MessageProcessed,0.6666666666666666,0.3333333333333333,3.0,3.0,141.61882829207394,0
org.apache.camel.model.UnmarshalType,0.8333333333333334,0.16666666666666666,3.0,8.0,134.5982569522149,0
org.apache.camel.spring.spi.TransactionErrorHandlerBuilder,0.3793103448275862,0.6206896551724138,2.0,3.0,67.46109990209172,0
org.apache.camel.builder.BuilderSupport,0.8347107438016529,0.1652892561983471,2.0,6.0,153.62291495737216,6
org.apache.camel.component.cxf.CxfProducer,0.45497076023391814,0.5450292397660819,4.0,22.0,85.83682724768218,0
org.apache.camel.component.mail.MailExchange,0.5,0.5,1.0,1.0,49.99999999999999,0
org.apache.camel.language.bean.BeanExpression,0.8076923076923077,0.19230769230769232,2.0,2.0,59.59865770300534,0
org.apache.camel.component.file.remote.RemoteFileMessage,0.2229299363057325,0.7770700636942676,1.0,3.0,283.0,0
org.apache.camel.impl.ReportingTypeConverterRegistry,0.9130434782608695,0.08695652173913043,2.0,3.0,263.99999999999994,0
org.apache.camel.impl.ServiceSupport,0.9782608695652174,0.021739130434782608,2.0,3.0,27.999999999999996,4
org.apache.camel.component.spring.integration.SpringIntegrationBinding,0.6,0.4,1.0,3.0,97.0,0
org.apache.camel.component.cxf.interceptors.XMLMessageOutInterceptor,0.0,1.0,1.0,1.0,15.999999999999998,0
org.apache.camel.component.jms.DestinationEndpoint,1.0,0.0,1.0,1.0,115.99999999999999,0
org.apache.camel.component.http.HttpPollingConsumer,0.5454545454545454,0.45454545454545453,1.0,3.0,36.0,0
org.apache.camel.component.validator.msv.MsvComponent,0.5,0.5,1.0,1.0,77.00000000000001,0
org.apache.camel.impl.ReportingTypeConverterLoader,0.5,0.5,2.0,2.0,130.38404810405302,1
org.apache.camel.component.mail.MailConverters,0.8333333333333334,0.16666666666666666,1.0,1.0,83.00000000000003,0
org.apache.camel.builder.ExpressionBuilder,0.6649659863945578,0.33503401360544216,5.0,16.0,100.74432602353359,4
org.apache.camel.component.jhc.JhcEndpoint,0.5,0.5,2.0,6.0,41.24318125460256,0
org.apache.camel.spi.ExchangeConverter,1.0,0.0,1.0,1.0,19.999999999999996,0
org.apache.camel.impl.converter.CachingInjector,1.0,0.0,1.0,1.0,133.0,0
org.apache.camel.component.http.DefaultHttpBinding,0.95260663507109,0.04739336492890995,2.0,6.0,289.6463360721138,0
org.apache.camel.language.simple.FileLanguage,0.8,0.2,2.0,7.0,120.07497657713708,4
org.apache.camel.model.FilterType,0.9230769230769231,0.07692307692307693,2.0,2.0,195.79325831090316,0
org.apache.camel.builder.PredicateSupport,0.5,0.5,1.0,1.0,32.0,0
org.apache.camel.spring.spi.BeanInjector,0.0,1.0,1.0,1.0,36.99999999999999,0
org.apache.camel.component.list.ListEndpoint,0.6363636363636364,0.36363636363636365,2.0,5.0,74.39758060582348,0
org.apache.camel.language.ExpressionEvaluationException,0.6,0.4,1.0,1.0,32.0,0
org.apache.camel.language.header.HeaderLanguage,0.9183673469387755,0.08163265306122448,1.0,2.0,32.0,0
org.apache.camel.component.jms.JmsProducer,0.5671641791044776,0.43283582089552236,4.0,6.0,102.76103125250748,0
org.apache.camel.bam.model.ActivityState,0.75,0.25,2.0,2.0,235.16802503741866,0
org.apache.camel.processor.BatchProcessor,0.5915789473684211,0.40842105263157896,2.0,10.0,107.00934538627926,8
org.apache.camel.component.seda.QueueComponent,0.0,1.0,1.0,1.0,27.999999999999996,0
org.apache.camel.component.cxf.DataFormat,0.9166666666666666,0.08333333333333333,2.0,2.0,147.6177496102688,0
org.apache.camel.component.jms.MessagePropertyAccessException,0.02631578947368421,0.9736842105263158,2.0,2.0,73.84443106964807,0
org.apache.camel.impl.DefaultLanguageResolver,0.6666666666666666,0.3333333333333333,1.0,2.0,323.9999999999999,1
org.apache.camel.converter.jaxb.FallbackTypeConverter,0.7362637362637363,0.26373626373626374,2.0,6.0,132.3480260525256,0
org.apache.camel.component.mina.MinaConsumer,0.5632183908045977,0.4367816091954023,3.0,9.0,151.04312906286572,0
org.apache.camel.component.spring.integration.adapter.config.CamelTargetAdapterParser,0.058823529411764705,0.9411764705882353,1.0,3.0,97.0,0
org.apache.camel.component.mock.MockEndpoint,0.7869822485207101,0.21301775147928995,5.0,12.0,117.40315007710156,4
org.apache.camel.impl.converter.DefaultTypeConverter,0.6167664670658682,0.38323353293413176,4.0,13.0,134.10082774695425,3
org.apache.camel.component.mail.MailComponent,0.6146788990825688,0.3853211009174312,3.0,9.0,124.4533138933014,0
org.apache.camel.model.TransformType,0.9230769230769231,0.07692307692307693,2.0,2.0,195.79325831090316,0
org.apache.camel.component.file.remote.SftpConsumer,0.26842105263157895,0.7315789473684211,1.0,10.0,295.0000000000001,0
org.apache.camel.language.LanguageExpression,0.5,0.5,1.0,2.0,248.00000000000009,0
org.apache.camel.processor.interceptor.Tracer,0.8324607329842932,0.16753926701570682,4.0,15.0,120.40615209928161,3
org.apache.camel.model.ThreadType,0.7787610619469026,0.22123893805309736,2.0,6.0,183.30302779823347,0
org.apache.camel.language.XPath,0.6666666666666666,0.3333333333333333,3.0,3.0,100.82222099763246,0
org.apache.camel.impl.StringDataFormat,0.5,0.5,1.0,1.0,77.00000000000001,0
org.apache.camel.impl.DefaultExchange,0.8,0.2,3.0,5.0,86.12924500356738,17
org.apache.camel.component.freemarker.NoCacheStorage,1.0,0.0,1.0,2.0,263.00000000000006,0
org.apache.camel.processor.idempotent.NoMessageIdException,0.5,0.5,1.0,1.0,77.00000000000001,0
org.apache.camel.util.CollectionHelper,0.9726027397260274,0.0273972602739726,1.0,3.0,217.99999999999997,1
org.apache.camel.model.dataformat.FlatpackDataFormat,0.9130434782608695,0.08695652173913043,3.0,3.0,106.22170873050622,1
org.apache.camel.component.cxf.interceptors.AbstractMessageOutInterceptor,0.25,0.75,1.0,1.0,15.999999999999998,0
org.apache.camel.component.file.remote.RemoteFileConsumer,0.4369747899159664,0.5630252100840336,3.0,13.0,168.0148796344639,0
org.apache.camel.Header,0.75,0.25,2.0,2.0,89.79977728257458,0
org.apache.camel.component.dataset.DataSetEndpoint,0.6363636363636364,0.36363636363636365,3.0,4.0,101.92381854851921,2
org.apache.camel.processor.exceptionpolicy.DefaultExceptionPolicyStrategy,0.8277310924369747,0.1722689075630252,1.0,4.0,181.00000000000006,2
org.apache.camel.osgi.OsgiResolverUtil,1.0,0.0,1.0,2.0,219.00000000000003,0
org.apache.camel.component.jdbc.JdbcEndpoint,0.39166666666666666,0.6083333333333333,3.0,8.0,173.07715938429263,0
org.apache.camel.spring.Main,0.9705882352941176,0.029411764705882353,1.0,2.0,248.00000000000009,0
org.apache.camel.builder.PredicateFactory,0.4,0.6,1.0,1.0,32.0,0
org.apache.camel.component.cxf.feature.AbstractDataFormatFeature,0.0,1.0,1.0,1.0,15.999999999999998,0
org.apache.camel.component.jms.JmsBinding,0.37333333333333335,0.6266666666666667,3.0,7.0,174.05941072490026,0
org.apache.camel.converter.jaxp.XmlConverter,0.4857142857142857,0.5142857142857142,1.0,2.0,288.00000000000006,3
org.apache.camel.model.RecipientListType,0.953125,0.046875,2.0,5.0,229.3425385749447,0
org.apache.camel.model.ConvertBodyType,0.8260869565217391,0.17391304347826086,2.0,5.0,195.79325831090316,0
org.apache.camel.util.CamelContextHelper,0.7017543859649122,0.2982456140350877,4.0,7.0,96.15327834475505,1
org.apache.camel.dataformat.tagsoup.TidyMarkupDataFormat,0.9736842105263158,0.02631578947368421,2.0,4.0,109.06420127612905,0
org.apache.camel.component.http.HttpProducer,0.6404199475065617,0.35958005249343833,4.0,21.0,148.89835305259092,0
org.apache.camel.component.ibatis.IBatisPollingConsumer,0.875,0.125,1.0,2.0,36.0,0
org.apache.camel.model.language.MethodCallExpression,0.6923076923076923,0.3076923076923077,3.0,4.0,108.11892478144881,2
org.apache.camel.component.file.remote.FtpOperationFailedException,0.6923076923076923,0.3076923076923077,1.0,1.0,48.99999999999999,0
org.apache.camel.impl.PollingConsumerSupport,0.46153846153846156,0.5384615384615384,1.0,3.0,36.0,1
org.apache.camel.processor.aggregate.DefaultAggregationCollection,0.9555555555555556,0.044444444444444446,2.0,3.0,59.59865770300534,4
org.apache.camel.model.PolicyRef,0.4444444444444444,0.5555555555555556,1.0,2.0,194.00000000000003,0
org.apache.camel.builder.xml.XsltBuilder,0.4444444444444444,0.5555555555555556,2.0,2.0,147.6177496102688,0
org.apache.camel.model.ThrottlerType,0.8205128205128205,0.1794871794871795,2.0,5.0,191.09160107131873,0
org.apache.camel.component.file.strategy.FileRenamer,0.14285714285714285,0.8571428571428571,1.0,3.0,342.99999999999983,0
org.apache.camel.component.cxf.invoker.AbstractInvokingContext,0.0,1.0,1.0,1.0,15.999999999999998,0
org.apache.camel.management.CamelNamingStrategy,0.5111111111111111,0.4888888888888889,2.0,5.0,40.804411526206316,2
org.apache.camel.component.rmi.RmiEndpoint,0.6530612244897959,0.3469387755102041,4.0,8.0,130.57493831176066,0
org.apache.camel.bam.processor.BamProcessorSupport,0.5238095238095238,0.47619047619047616,4.0,4.0,132.24526465023794,0
org.apache.camel.component.xquery.XQueryBuilder,0.9565217391304348,0.043478260869565216,2.0,2.0,142.8705707974878,0
org.apache.camel.language.xpath.XPathLanguage,0.5042016806722689,0.4957983193277311,1.0,1.0,61.00000000000001,0
org.apache.camel.component.jdbc.JdbcComponent,0.8032786885245902,0.19672131147540983,2.0,5.0,82.53484112785337,0
org.apache.camel.component.cxf.converter.CxfConverter,0.9035087719298246,0.09649122807017543,3.0,7.0,77.60196083896302,0
org.apache.camel.Produce,0.8947368421052632,0.10526315789473684,3.0,6.0,100.82222099763246,0
org.apache.camel.language.ognl.RootObject,1.0,0.0,1.0,1.0,70.00000000000003,0
org.apache.camel.component.quartz.QuartzComponent,0.5,0.5,3.0,6.0,124.4533138933014,0
org.apache.camel.processor.HandleFaultProcessor,0.5,0.5,1.0,1.0,6.0,2
org.apache.camel.processor.DelegateAsyncProcessor,0.5,0.5,1.0,2.0,93.00000000000003,1
org.apache.camel.component.jms.JmsTemporaryTopicEndpoint,0.0,1.0,1.0,1.0,115.99999999999999,0
org.apache.camel.model.ProcessorType,0.6237157534246576,0.3762842465753425,6.0,48.0,93.89431316387838,1
org.apache.camel.impl.DefaultScheduledPollConsumer,0.5,0.5,1.0,5.0,44.99999999999999,1
org.apache.camel.model.language.GroovyExpression,0.5714285714285714,0.42857142857142855,2.0,2.0,54.25863986500216,0
org.apache.camel.processor.ThroughputLogger,0.6666666666666666,0.3333333333333333,3.0,6.0,17.608845415981033,0
org.apache.camel.processor.FilterProcessor,0.5,0.5,2.0,2.0,66.82813778641446,2
org.apache.camel.processor.exceptionpolicy.ExceptionPolicyKey,1.0,0.0,1.0,2.0,144.0,0
org.apache.camel.processor.interceptor.DelayInterceptor,1.0,0.0,2.0,2.0,62.449979983983965,0
org.apache.camel.spi.TypeConverterAware,1.0,0.0,1.0,1.0,19.999999999999996,0
org.apache.camel.builder.xml.Namespaces,0.4,0.6,2.0,3.0,142.20759473389592,0
org.apache.camel.component.jms.JmsIOConverter,0.4,0.6,3.0,4.0,174.05941072490026,0
org.apache.camel.component.file.strategy.DefaultFileRenamer,0.07766990291262135,0.9223300970873787,1.0,4.0,342.99999999999983,0
org.apache.camel.language.bean.BeanLanguage,0.8513513513513513,0.14864864864864866,3.0,6.0,126.84485156487305,0
org.apache.camel.processor.resequencer.Timeout,0.32142857142857145,0.6785714285714286,1.0,1.0,6.0,0
org.apache.camel.converter.HasAnnotation,0.75,0.25,2.0,2.0,89.79977728257458,0
org.apache.camel.component.file.remote.FtpProducer,0.28512396694214875,0.7148760330578512,2.0,5.0,105.74970449131287,0
org.apache.camel.processor.Aggregator,0.34328358208955223,0.6567164179104478,4.0,7.0,101.33993714430363,1
org.apache.camel.processor.TransformProcessor,0.5,0.5,1.0,4.0,98.99999999999999,2
org.apache.camel.spi.Language,0.8235294117647058,0.17647058823529413,2.0,2.0,59.59865770300534,0
org.apache.camel.impl.ScheduledPollEndpoint,0.9024390243902439,0.0975609756097561,3.0,4.0,130.91675460184774,0
org.apache.camel.component.cxf.MessageInvoker,0.0,1.0,1.0,1.0,15.999999999999998,0
org.apache.camel.management.InstrumentationLifecycleStrategy,0.44,0.56,3.0,4.0,121.20998077028369,7
org.apache.camel.language.NamespacePrefix,0.75,0.25,2.0,2.0,89.79977728257458,0
org.apache.camel.component.file.strategy.NoOpFileProcessStrategy,0.027777777777777776,0.9722222222222222,2.0,3.0,146.99999999999997,0
org.apache.camel.spi.LifecycleStrategy,0.8125,0.1875,2.0,2.0,74.39758060582348,0
org.apache.camel.language.IllegalSyntaxException,0.8333333333333334,0.16666666666666666,1.0,1.0,15.0,0
org.apache.camel.model.LoggingLevel,0.7142857142857143,0.2857142857142857,1.0,2.0,22.000000000000004,0
org.apache.camel.component.jcr.JcrEndpoint,0.42857142857142855,0.5714285714285714,1.0,3.0,44.99999999999999,0
org.apache.camel.component.cxf.CxfEndpoint,0.7183098591549296,0.28169014084507044,5.0,18.0,73.99766681558648,0
org.apache.camel.impl.converter.TypeConverterRegistry,0.9047619047619048,0.09523809523809523,1.0,1.0,133.0,0
org.apache.camel.component.mail.MailBinding,0.721030042918455,0.27896995708154504,4.0,4.0,70.1768071319443,0
org.apache.camel.component.http.HttpClientConfigurer,0.6,0.4,1.0,2.0,319.99999999999994,0
org.apache.camel.processor.Resequencer,0.47058823529411764,0.5294117647058824,3.0,4.0,44.70089700532339,2
org.apache.camel.component.cxf.CamelInvoker,0.06896551724137931,0.9310344827586207,3.0,5.0,64.72355971401736,0
org.apache.camel.component.cxf.interceptors.SoapMessageInInterceptor,0.4444444444444444,0.5555555555555556,2.0,3.0,60.53098380168622,0
org.apache.camel.Producer,0.5,0.5,1.0,2.0,36.0,0
org.apache.camel.model.RoutingSlipType,0.5833333333333334,0.4166666666666667,2.0,4.0,245.70714275331915,0
org.apache.camel.view.NodeData,0.4852941176470588,0.5147058823529411,3.0,5.0,174.05941072490026,0
org.apache.camel.management.ManagedEndpoint,0.6666666666666666,0.3333333333333333,1.0,2.0,44.99999999999999,0
org.apache.camel.model.MulticastType,0.751219512195122,0.24878048780487805,2.0,9.0,195.79325831090316,0
org.apache.camel.component.irc.IrcEndpoint,0.52,0.48,3.0,4.0,62.6268357622459,0
org.apache.camel.component.restlet.converter.RestletConverter,1.0,0.0,1.0,4.0,23.0,0
org.apache.camel.component.event.EventEndpoint,0.5217391304347826,0.4782608695652174,4.0,9.0,132.24526465023794,0
org.apache.camel.converter.ObjectConverter,0.44,0.56,1.0,3.0,77.00000000000001,1
org.apache.camel.language.jxpath.JXPathLanguage,0.4,0.6,1.0,1.0,32.0,0
org.apache.camel.component.ibatis.IBatisProducer,0.5641025641025641,0.4358974358974359,2.0,4.0,69.39020103732221,0
org.apache.camel.builder.Builder,0.6785714285714286,0.32142857142857145,3.0,6.0,111.03161721412049,3
org.apache.camel.processor.interceptor.StreamCachingInterceptor,0.6710526315789473,0.32894736842105265,3.0,9.0,67.68066826126207,5
org.apache.camel.component.spring.integration.SpringIntegrationExchange,0.68,0.32,1.0,1.0,49.99999999999999,0
org.apache.camel.model.dataformat.ArtixDSDataFormat,0.5,0.5,1.0,1.0,77.00000000000001,0
org.apache.camel.component.http.HttpConverter,1.0,0.0,1.0,2.0,254.99999999999991,0
org.apache.camel.component.event.EventComponent,0.5,0.5,2.0,2.0,66.82813778641446,0
org.apache.camel.processor.resequencer.ElementComparator,0.5,0.5,1.0,1.0,6.0,0
org.apache.camel.component.cxf.interceptors.SoapMessageOutInterceptor,0.042735042735042736,0.9572649572649573,2.0,3.0,60.53098380168622,0
org.apache.camel.language.juel.EL,0.75,0.25,2.0,2.0,94.07443861113386,0
org.apache.camel.processor.loadbalancer.LoadBalancer,0.6666666666666666,0.3333333333333333,1.0,2.0,164.00000000000006,0
org.apache.camel.spring.remoting.CamelProxyFactoryBean,0.8,0.2,1.0,1.0,6.0,0
org.apache.camel.InOut,0.9285714285714286,0.07142857142857142,3.0,5.0,100.82222099763246,0
org.apache.camel.processor.interceptor.Delayer,0.4444444444444444,0.5555555555555556,3.0,3.0,127.82913807311313,2
org.apache.camel.component.test.TestEndpoint,0.5,0.5,1.0,1.0,77.00000000000001,0
org.apache.camel.model.ProceedType,0.0,1.0,1.0,1.0,149.99999999999997,1
org.apache.camel.converter.jaxp.StringSource,0.7222222222222222,0.2777777777777778,1.0,6.0,302.0,0
org.apache.camel.model.SendType,0.937984496124031,0.06201550387596899,2.0,6.0,105.19980988575976,0
org.apache.camel.CamelContext,0.7557603686635944,0.24423963133640553,5.0,12.0,110.96260451474706,10
org.apache.camel.component.http.HttpEndpoint,0.7,0.3,3.0,10.0,122.01836147539159,0
org.apache.camel.processor.DeadLetterChannel,0.6872964169381107,0.3127035830618892,5.0,27.0,88.99063792818947,11
org.apache.camel.processor.resequencer.SequenceSender,0.1941747572815534,0.8058252427184466,2.0,2.0,22.13594362117866,0
org.apache.camel.language.Bean,0.6666666666666666,0.3333333333333333,3.0,3.0,100.82222099763246,0
org.apache.camel.ResolveEndpointFailedException,0.5,0.5,1.0,1.0,208.99999999999997,1
org.apache.camel.model.ThrowFaultType,0.8333333333333334,0.16666666666666666,2.0,2.0,183.30302779823347,0
org.apache.camel.dataformat.hl7.HL7DataFormat,0.9318181818181818,0.06818181818181818,3.0,3.0,106.22170873050622,0
org.apache.camel.model.ExceptionType,0.8246445497630331,0.17535545023696683,4.0,29.0,108.41642001423864,0
org.apache.camel.bam.model.ProcessInstance,1.0,0.0,1.0,1.0,238.00000000000009,0
org.apache.camel.osgi.CamelNamespaceHandler,0.6470588235294118,0.35294117647058826,4.0,8.0,141.06347147592163,0
org.apache.camel.builder.ExpressionClause,0.5603112840466926,0.4396887159533074,2.0,5.0,147.6177496102688,1
org.apache.camel.component.file.strategy.FileProcessStrategyFactory,0.647887323943662,0.352112676056338,1.0,7.0,342.99999999999983,4
org.apache.camel.component.file.remote.SftpUtils,0.0,1.0,1.0,1.0,211.00000000000003,0
org.apache.camel.processor.loadbalancer.QueueLoadBalancer,1.0,0.0,1.0,2.0,164.00000000000006,0
org.apache.camel.component.cxf.spring.CxfEndpointBeanDefinitionParser,0.8715596330275229,0.12844036697247707,1.0,9.0,240.99999999999994,0
org.apache.camel.component.jms.JmsQueueEndpoint,0.5,0.5,2.0,2.0,46.61544808322665,0
org.apache.camel.component.irc.IrcProducer,0.5,0.5,1.0,1.0,36.0,0
org.apache.camel.component.jms.JmsComponent,0.6707317073170732,0.32926829268292684,3.0,9.0,174.19093191012192,0
org.apache.camel.model.RouteBuilderRef,0.5,0.5,1.0,1.0,194.00000000000003,0
org.apache.camel.component.restlet.MethodBasedRouter,1.0,0.0,1.0,4.0,7.999999999999998,0
org.apache.camel.component.ibatis.IBatisComponent,0.7254901960784313,0.27450980392156865,3.0,3.0,102.62299730084253,0
org.apache.camel.converter.stream.StreamCacheConverter,0.8020833333333334,0.19791666666666666,2.0,4.0,24.103941586387904,4
org.apache.camel.component.file.remote.RemoteFileProducer,0.5333333333333333,0.4666666666666667,3.0,10.0,168.0148796344639,0
org.apache.camel.impl.DefaultConsumer,0.5384615384615384,0.46153846153846156,1.0,3.0,36.0,1
org.apache.camel.component.xmpp.XmppComponent,0.3673469387755102,0.6326530612244898,2.0,3.0,143.96874660842192,0
org.apache.camel.spi.Provider,1.0,0.0,1.0,1.0,19.999999999999996,0
org.apache.camel.component.bean.BeanComponent,0.4,0.6,1.0,1.0,121.00000000000003,0
org.apache.camel.view.ModelFileGenerator,0.8125,0.1875,1.0,1.0,17.999999999999996,1
org.apache.camel.component.spring.integration.SpringIntegrationMessage,0.3541666666666667,0.6458333333333334,1.0,4.0,97.0,0
org.apache.camel.processor.resequencer.DefaultExchangeComparator,0.4375,0.5625,2.0,2.0,142.8705707974878,0
org.apache.camel.util.MessageHelper,1.0,0.0,2.0,3.0,67.30527468185535,4
org.apache.camel.processor.interceptor.TraceFormatter,0.47,0.53,4.0,12.0,119.09493715262352,0
org.apache.camel.model.InterceptorRef,0.3333333333333333,0.6666666666666666,1.0,1.0,194.00000000000003,0
org.apache.camel.language.constant.ConstantLanguage,0.42857142857142855,0.5714285714285714,1.0,1.0,32.0,0
org.apache.camel.CamelTemplate,0.0,1.0,1.0,1.0,27.999999999999996,0
org.apache.camel.component.cxf.interceptors.RawMessageContentRedirectInterceptor,0.6666666666666666,0.3333333333333333,2.0,2.0,60.53098380168622,0
org.apache.camel.converter.IOConverter,0.7647058823529411,0.23529411764705882,3.0,8.0,177.32335796049222,3
org.apache.camel.component.jpa.JpaConsumer,0.5,0.5,1.0,1.0,36.0,0
org.apache.camel.component.file.strategy.DeleteFileProcessStrategy,0.06451612903225806,0.9354838709677419,1.0,4.0,342.99999999999983,0
org.apache.camel.model.language.SimpleExpression,0.5,0.5,1.0,1.0,77.00000000000001,0
org.apache.camel.Consumer,0.5,0.5,1.0,1.0,36.0,0
org.apache.camel.spi.RouteContext,0.9230769230769231,0.07692307692307693,3.0,3.0,58.944024282741005,1
org.apache.camel.component.jms.JmsPollingConsumer,0.25,0.75,2.0,2.0,65.99999999999997,0
org.apache.camel.view.RouteDotGenerator,0.8444444444444444,0.15555555555555556,2.0,4.0,180.37738217415185,0
org.apache.camel.component.cxf.feature.MessageInvokerInterceptor,0.0,1.0,1.0,1.0,15.999999999999998,0
org.apache.camel.util.jndi.JndiContext,0.5,0.5,1.0,1.0,194.00000000000003,0
org.apache.camel.builder.script.Groovy,0.75,0.25,2.0,2.0,94.07443861113386,0
org.apache.camel.component.jhc.JhcProducer,0.2727272727272727,0.7272727272727273,2.0,4.0,41.80908992073375,0
org.apache.camel.processor.validation.DefaultValidationErrorHandler,0.0,1.0,1.0,1.0,0.0,1
org.apache.camel.bam.model.ActivityDefinition,0.6666666666666666,0.3333333333333333,3.0,3.0,141.61882829207394,0
org.apache.camel.impl.ExpressionSupport,0.6923076923076923,0.3076923076923077,2.0,2.0,142.8705707974878,0
org.apache.camel.model.SplitterType,0.7868217054263565,0.2131782945736434,5.0,12.0,66.52959457835699,0
org.apache.camel.component.file.remote.FtpEndpoint,0.08,0.92,2.0,3.0,145.7086133349706,0
org.apache.camel.impl.DefaultMessage,0.75,0.25,1.0,1.0,6.0,5
org.apache.camel.spring.CamelBeanPostProcessor,0.6408839779005525,0.35911602209944754,4.0,9.0,130.50098931886973,0
org.apache.camel.processor.RedeliveryPolicy,0.7169811320754716,0.2830188679245283,3.0,10.0,174.05941072490026,2
org.apache.camel.component.cxf.feature.MessageDataFormatFeature,0.6363636363636364,0.36363636363636365,1.0,1.0,15.999999999999998,0
org.apache.camel.component.stream.StreamConsumer,0.7528089887640449,0.24719101123595505,2.0,5.0,142.8705707974878,0
org.apache.camel.builder.DataFormatClause,0.9067796610169492,0.09322033898305085,3.0,12.0,174.05941072490026,1
org.apache.camel.component.rmi.RmiProducer,0.3333333333333333,0.6666666666666666,1.0,1.0,36.0,0
org.apache.camel.model.RemovePropertyType,0.9487179487179487,0.05128205128205128,2.0,4.0,106.075444849409,0
org.apache.camel.model.InterceptType,0.7391304347826086,0.2608695652173913,2.0,4.0,183.30302779823347,1
org.apache.camel.component.file.remote.RemoteFileEndpoint,0.5171717171717172,0.48282828282828283,4.0,15.0,127.08710339323545,0
org.apache.camel.spring.spi.SpringConverters,0.5,0.5,1.0,1.0,77.00000000000001,0
org.apache.camel.component.jms.ConsumerType,0.5,0.5,1.0,1.0,113.00000000000003,0
org.apache.camel.component.file.remote.FtpConsumer,0.34151785714285715,0.6584821428571429,1.0,10.0,336.99999999999994,0
org.apache.camel.component.quartz.QuartzExchange,0.0,1.0,1.0,1.0,46.0,0
org.apache.camel.converter.CollectionConverter,0.967741935483871,0.03225806451612903,2.0,3.0,33.985290935932866,0
org.apache.camel.processor.resequencer.Sequence,0.5,0.5,1.0,1.0,6.0,0
org.apache.camel.impl.EventDrivenConsumerRoute,0.4444444444444444,0.5555555555555556,2.0,4.0,66.82813778641446,0
org.apache.camel.component.restlet.RestletProducer,1.0,0.0,1.0,2.0,6.0,0
org.apache.camel.util.ExchangeHelper,0.8962264150943396,0.10377358490566038,4.0,7.0,146.56400389916394,13
org.apache.camel.impl.ProducerTemplateProcessor,0.9245283018867925,0.07547169811320754,3.0,6.0,71.7682880211828,0
org.apache.camel.NoSuchEndpointException,0.6666666666666666,0.3333333333333333,2.0,2.0,81.9023809177731,1
org.apache.camel.component.jms.MessagePropertyNamesAccessException,0.03125,0.96875,2.0,2.0,73.84443106964807,0
org.apache.camel.component.direct.DirectProducer,0.5,0.5,2.0,3.0,74.39758060582348,0
org.apache.camel.Pattern,0.9393939393939394,0.06060606060606061,3.0,5.0,100.82222099763246,0
org.apache.camel.processor.StreamResequencer,0.6497326203208557,0.3502673796791444,4.0,7.0,15.746479231304981,2
org.apache.camel.component.sql.SqlEndpoint,0.5813953488372093,0.4186046511627907,1.0,2.0,323.9999999999999,0
org.apache.camel.component.vm.VmComponent,0.5,0.5,1.0,1.0,77.00000000000001,0
org.apache.camel.component.jms.QueueBrowseStrategy,1.0,0.0,1.0,1.0,115.99999999999999,0
org.apache.camel.component.seda.SedaComponent,0.6,0.4,4.0,4.0,53.413466679410526,0
org.apache.camel.component.cxf.invoker.InvokingContextFactory,0.0,1.0,1.0,1.0,15.999999999999998,0
org.apache.camel.component.jms.JmsEndpoint,0.8903436988543372,0.10965630114566285,5.0,9.0,122.00691703572875,0
org.apache.camel.component.atom.AtomProducer,0.0,1.0,1.0,1.0,44.99999999999999,0
org.apache.camel.processor.UnmarshalProcessor,0.4,0.6,2.0,2.0,147.6177496102688,1
org.apache.camel.component.cxf.CxfSoapBinding,0.18032786885245902,0.819672131147541,4.0,4.0,61.857909113747304,0
org.apache.camel.model.SetPropertyType,0.9795918367346939,0.02040816326530612,3.0,4.0,137.6263081795785,0
org.apache.camel.impl.DefaultEndpoint,0.5471698113207547,0.4528301886792453,4.0,8.0,82.51271306412157,5
org.apache.camel.Converter,0.6666666666666666,0.3333333333333333,3.0,3.0,100.82222099763246,0
org.apache.camel.component.http.BasicAuthenticationHttpClientConfigurer,0.975609756097561,0.024390243902439025,2.0,5.0,283.97182958878165,0
org.apache.camel.impl.ProducerCache,0.5166666666666667,0.48333333333333334,3.0,5.0,77.047589628926,7
org.apache.camel.util.MainSupport,0.9382716049382716,0.06172839506172839,3.0,6.0,145.8511023427901,0
org.apache.camel.component.cxf.util.WSDLSoapServiceFactoryBean,1.0,0.0,1.0,1.0,85.99999999999997,0
org.apache.camel.Properties,0.75,0.25,2.0,2.0,89.79977728257458,0
org.apache.camel.util.ExpressionComparator,0.5,0.5,1.0,1.0,32.0,0
org.apache.camel.component.spring.integration.adapter.AbstractCamelAdapter,0.25,0.75,1.0,3.0,97.0,0
org.apache.camel.Headers,0.75,0.25,2.0,2.0,89.79977728257458,0
org.apache.camel.model.dataformat.DataFormatsType,0.8888888888888888,0.1111111111111111,2.0,13.0,121.23118410706049,0
org.apache.camel.component.rmi.RmiConsumer,0.5294117647058824,0.47058823529411764,2.0,4.0,143.96874660842192,0
org.apache.camel.component.mina.MinaPayloadHolder,0.7129629629629629,0.28703703703703703,2.0,4.0,200.84073292039142,0
org.apache.camel.builder.sql.SQL,0.75,0.25,2.0,2.0,94.07443861113386,0
org.apache.camel.component.jms.DestinationTransformProcessor,0.07142857142857142,0.9285714285714286,2.0,3.0,72.3878442834154,0
org.apache.camel.component.spring.integration.adapter.CamelTargetAdapter,0.6857142857142857,0.3142857142857143,3.0,7.0,83.41946649781853,0
org.apache.camel.component.spring.integration.adapter.CamelSourceAdapter,0.4127659574468085,0.5872340425531914,1.0,3.0,97.0,0
org.apache.camel.language.LanguageAnnotation,0.75,0.25,2.0,2.0,89.79977728257458,0
org.apache.camel.osgi.OsgiFactoryFinder,0.958139534883721,0.04186046511627907,1.0,5.0,211.99999999999997,0
org.apache.camel.model.language.JXPathExpression,0.5,0.5,1.0,1.0,32.0,0
org.apache.camel.component.file.FileExchange,0.3516483516483517,0.6483516483516484,2.0,6.0,137.34991809244008,0
org.apache.camel.builder.xml.MessageVariableResolver,0.0,1.0,1.0,1.0,61.00000000000001,0
org.apache.camel.spi.InstrumentationAgent,0.5555555555555556,0.4444444444444444,1.0,1.0,19.999999999999996,0
org.apache.camel.component.ResourceBasedComponent,0.3333333333333333,0.6666666666666666,2.0,2.0,143.96874660842192,0
org.apache.camel.component.irc.IrcComponent,0.375,0.625,3.0,3.0,108.11892478144881,0
org.apache.camel.component.log.LogFormatter,0.6612903225806451,0.3387096774193548,2.0,5.0,38.4707681233427,1
org.apache.camel.model.WhenType,0.5,0.5,1.0,1.0,101.00000000000003,0
org.apache.camel.Routes,1.0,0.0,1.0,1.0,62.00000000000001,1
org.apache.camel.component.validator.ValidatorComponent,0.4,0.6,2.0,2.0,66.82813778641446,0
org.apache.camel.component.velocity.VelocityComponent,0.7,0.3,1.0,2.0,329.0,0
org.apache.camel.model.FromType,0.4444444444444444,0.5555555555555556,2.0,2.0,101.92153844992721,0
org.apache.camel.component.quartz.QuartzEndpoint,0.6264367816091954,0.3735632183908046,4.0,9.0,101.47183668396332,0
org.apache.camel.osgi.OsgiComponentResolver,0.02564102564102564,0.9743589743589743,1.0,2.0,195.99999999999991,0
org.apache.camel.builder.PredicateBuilder,0.5492957746478874,0.4507042253521127,3.0,6.0,179.14660855917313,0
org.apache.camel.builder.xml.XPathBuilder,0.546875,0.453125,4.0,5.0,151.18143208155058,1
org.apache.camel.management.ManagedRoute,0.5,0.5,1.0,1.0,44.99999999999999,0
org.apache.camel.util.ObjectHelper,0.7430167597765364,0.2569832402234637,5.0,14.0,100.31703445983618,4
org.apache.camel.model.language.BeanShellExpression,0.5,0.5,2.0,4.0,56.99122739510001,0
org.apache.camel.component.http.HttpConsumer,0.3333333333333333,0.6666666666666666,1.0,2.0,44.99999999999999,0
org.apache.camel.model.language.OgnlExpression,0.5,0.5,2.0,2.0,59.59865770300534,0
org.apache.camel.impl.CamelPostProcessorHelper,0.5652173913043478,0.43478260869565216,3.0,5.0,194.20313861917344,0
org.apache.camel.impl.DefaultHeaderFilterStrategy,0.28846153846153844,0.7115384615384616,4.0,6.0,135.32792713123132,2
org.apache.camel.model.OtherwiseType,0.8888888888888888,0.1111111111111111,1.0,1.0,231.99999999999997,0
org.apache.camel.model.InOutType,0.8448275862068966,0.15517241379310345,2.0,4.0,89.79977728257458,0
org.apache.camel.component.jhc.JhcComponent,0.14814814814814814,0.8518518518518519,2.0,4.0,41.24318125460256,0
org.apache.camel.component.jcr.JcrComponent,0.4,0.6,1.0,2.0,44.99999999999999,0
org.apache.camel.component.stream.StreamProducer,0.5666666666666667,0.43333333333333335,1.0,2.0,258.0,0
org.apache.camel.component.jhc.JhcExchange,0.0,1.0,1.0,1.0,46.0,0
org.apache.camel.component.uface.UFaceBrowser,0.5,0.5,1.0,1.0,44.99999999999999,0
org.apache.camel.spi.ComponentResolver,0.42857142857142855,0.5714285714285714,2.0,2.0,105.24732775705047,0
org.apache.camel.processor.interceptor.ExchangeFormatter,1.0,0.0,1.0,1.0,59.000000000000014,0
org.apache.camel.processor.idempotent.IdempotentConsumer,0.5,0.5,3.0,4.0,127.82913807311313,2
org.apache.camel.component.jhc.JhcConsumer,0.3333333333333333,0.6666666666666666,1.0,2.0,36.0,0
org.apache.camel.impl.DefaultComponent,0.8134328358208955,0.1865671641791045,3.0,11.0,103.93203152623911,3
org.apache.camel.impl.converter.ToStringTypeConverter,0.75,0.25,2.0,2.0,10.677078252031308,0
org.apache.camel.model.RouteContainer,1.0,0.0,1.0,1.0,194.00000000000003,0
org.apache.camel.model.SetExchangePatternType,1.0,0.0,1.0,2.0,179.0,0
org.apache.camel.component.rmi.RmiComponent,0.3333333333333333,0.6666666666666666,1.0,2.0,44.99999999999999,0
org.apache.camel.spi.BrowsableEndpoint,0.5714285714285714,0.42857142857142855,2.0,2.0,74.39758060582348,0
org.apache.camel.component.cxf.transport.CamelDestination,0.5833333333333334,0.4166666666666667,2.0,4.0,111.6870628139177,0
org.apache.camel.component.file.strategy.FileProcessStrategySupport,0.3102189781021898,0.6897810218978102,3.0,9.0,178.45558295070657,0
org.apache.camel.builder.script.PHP,0.75,0.25,2.0,2.0,94.07443861113386,0
org.apache.camel.builder.LoggingErrorHandlerBuilder,0.6486486486486487,0.35135135135135137,3.0,4.0,61.19386499226039,1
org.apache.camel.component.jpa.JpaEndpoint,0.65,0.35,2.0,7.0,143.96874660842192,0
org.apache.camel.view.GraphGeneratorSupport,0.5,0.5,1.0,1.0,77.00000000000001,0
org.apache.camel.model.SetOutHeaderType,0.8571428571428571,0.14285714285714285,2.0,4.0,195.79325831090316,0
org.apache.camel.processor.resequencer.TimeoutHandler,0.5,0.5,1.0,1.0,6.0,0
org.apache.camel.InOnly,0.9454545454545454,0.05454545454545454,3.0,4.0,100.82222099763246,0
org.apache.camel.management.InstrumentationProcessor,1.0,0.0,2.0,3.0,102.05880657738454,2
org.apache.camel.component.jms.EndpointMessageListener,0.6285714285714286,0.37142857142857144,4.0,5.0,130.50098931886973,0
org.apache.camel.component.freemarker.FreemarkerEndpoint,0.9957264957264957,0.004273504273504274,1.0,3.0,329.0,0
org.apache.camel.impl.converter.AnnotationTypeConverterLoader,0.6473029045643154,0.35269709543568467,3.0,13.0,168.0148796344639,1
org.apache.camel.component.timer.TimerConsumer,0.7894736842105263,0.21052631578947367,2.0,5.0,65.99999999999997,0
org.apache.camel.component.http.HttpOperationFailedException,0.7486033519553073,0.25139664804469275,2.0,11.0,180.37738217415185,0
org.apache.camel.model.OptionalIdentifiedType,0.56,0.44,1.0,3.0,147.99999999999994,0
org.apache.camel.component.bean.MethodInvocation,0.5,0.5,1.0,1.0,95.99999999999999,0
org.apache.camel.model.config.StreamResequencerConfig,0.5,0.5,2.0,2.0,17.888543819998315,0
org.apache.camel.component.ibatis.IBatisEndpoint,0.8364779874213837,0.16352201257861634,3.0,4.0,102.62299730084253,0
org.apache.camel.spi.Synchronization,0.5714285714285714,0.42857142857142855,1.0,2.0,72.0,2
org.apache.camel.util.UuidGenerator,0.6666666666666666,0.3333333333333333,1.0,1.0,273.0,1
org.apache.camel.util.ResolverUtil,0.3170731707317073,0.6829268292682927,2.0,3.0,263.99999999999994,2
org.apache.camel.component.irc.IrcConfiguration,0.5,0.5,1.0,1.0,55.000000000000014,0
org.apache.camel.component.atom.AtomEntryPollingConsumer,0.4675324675324675,0.5324675324675324,1.0,3.0,56.00000000000002,0
org.apache.camel.component.file.remote.SftpProducer,0.21608040201005024,0.7839195979899497,1.0,3.0,211.00000000000003,0
org.apache.camel.Component,0.5,0.5,2.0,2.0,66.82813778641446,0
org.apache.camel.component.file.FileComponent,0.5429864253393665,0.45701357466063347,3.0,18.0,127.58448840703566,4
org.apache.camel.component.mail.MailMessage,0.2413793103448276,0.7586206896551724,1.0,1.0,0.0,0
org.apache.camel.component.cxf.invoker.PayloadInvokingContext,0.14814814814814814,0.8518518518518519,2.0,3.0,60.53098380168622,0
org.apache.camel.Route,0.5384615384615384,0.46153846153846156,2.0,3.0,66.82813778641446,0
org.apache.camel.bam.processor.JpaBamProcessor,0.5,0.5,2.0,2.0,66.82813778641446,0
org.apache.camel.component.sql.SqlComponent,0.7948717948717948,0.20512820512820512,1.0,3.0,323.9999999999999,0
org.apache.camel.util.ExpressionHelper,0.058823529411764705,0.9411764705882353,2.0,4.0,148.2801402750888,0
org.apache.camel.MessageDriven,0.6666666666666666,0.3333333333333333,3.0,3.0,100.82222099763246,0
org.apache.camel.bam.processor.NoCorrelationKeyException,0.5,0.5,1.0,1.0,77.00000000000001,0
org.apache.camel.component.file.remote.RemoteFileConverter,0.22340425531914893,0.776595744680851,1.0,3.0,288.00000000000006,0
org.apache.camel.component.hl7.HL7MLLPCodec,0.7605633802816901,0.23943661971830985,2.0,3.0,38.34057902536163,0
org.apache.camel.converter.stream.StreamCache,0.7272727272727273,0.2727272727272727,2.0,3.0,224.37468662930763,0
org.apache.camel.component.mail.MailEndpoint,0.640625,0.359375,4.0,10.0,101.47183668396332,0
org.apache.camel.component.file.remote.FtpUtils,0.22093023255813954,0.7790697674418605,1.0,6.0,211.00000000000003,0
org.apache.camel.component.cxf.CxfHeaderFilterStrategy,1.0,0.0,1.0,1.0,15.999999999999998,0
org.apache.camel.dataformat.xstream.AbstractXStreamWrapper,0.995,0.005,2.0,5.0,136.50641010589948,0
org.apache.camel.processor.aggregate.PredicateAggregationCollection,0.42857142857142855,0.5714285714285714,2.0,2.0,59.59865770300534,0
org.apache.camel.component.mina.TextLineCodecFactory,1.0,0.0,1.0,2.0,175.00000000000006,0
org.apache.camel.component.bean.BeanInfo,0.8,0.2,4.0,5.0,70.4515306932558,4
org.apache.camel.component.cxf.util.CxfEndpointUtils,0.4195121951219512,0.5804878048780487,4.0,10.0,91.09724128217735,0
org.apache.camel.component.event.EventConsumer,0.5,0.5,2.0,2.0,66.82813778641446,0
org.apache.camel.component.validator.jing.JingComponent,0.3333333333333333,0.6666666666666666,1.0,1.0,44.99999999999999,0
org.apache.camel.processor.idempotent.MemoryMessageIdRepository,0.0,1.0,1.0,1.0,171.99999999999994,0
org.apache.camel.component.velocity.VelocityEndpoint,0.8,0.2,2.0,4.0,174.9199817059217,0
org.apache.camel.component.xquery.XQueryLanguage,0.5,0.5,1.0,1.0,32.0,0
org.apache.camel.model.RemoveHeaderType,0.9487179487179487,0.05128205128205128,2.0,4.0,106.075444849409,0
org.apache.camel.component.cxf.CxfBinding,0.421875,0.578125,4.0,8.0,84.1644822409997,0
org.apache.camel.model.AggregatorType,0.7182044887780549,0.2817955112219451,4.0,18.0,130.05608965621386,0
org.apache.camel.component.cxf.CxfExchange,0.14285714285714285,0.8571428571428571,3.0,5.0,65.38314148039447,0
org.apache.camel.component.dataset.DataSetConsumer,0.5,0.5,2.0,2.0,65.99999999999997,3
org.apache.camel.Endpoint,0.6,0.4,3.0,7.0,108.11892478144881,1
org.apache.camel.component.mina.MinaProducer,0.7727272727272727,0.22727272727272727,2.0,8.0,252.61235124197725,0
org.apache.camel.processor.Pipeline,0.7777777777777778,0.2222222222222222,1.0,2.0,29.000000000000004,6
org.apache.camel.component.jms.JmsMessage,0.5454545454545454,0.45454545454545453,2.0,3.0,127.87493890516616,0
org.apache.camel.model.dataformat.DataFormatType,1.0,0.0,1.0,1.0,1.0,1
org.apache.camel.converter.jaxp.BytesSource,1.0,0.0,1.0,2.0,223.99999999999994,1
org.apache.camel.component.cxf.interceptors.FaultOutInterceptor,0.09090909090909091,0.9090909090909091,2.0,2.0,60.53098380168622,0
org.apache.camel.component.bean.ProxyHelper,0.6666666666666666,0.3333333333333333,2.0,4.0,34.20526275297413,0
org.apache.camel.component.atom.EntryFilter,0.38461538461538464,0.6153846153846154,1.0,1.0,48.00000000000001,0
org.apache.camel.model.LoadBalanceType,0.7664233576642335,0.23357664233576642,3.0,9.0,176.50488848955516,0
org.apache.camel.component.sql.SqlProducer,0.6153846153846154,0.38461538461538464,3.0,6.0,57.63374035936116,0
org.apache.camel.PollingConsumer,0.5238095238095238,0.47619047619047616,3.0,4.0,108.11892478144881,0
org.apache.camel.Processor,0.5,0.5,1.0,1.0,77.00000000000001,0
org.apache.camel.model.SetBodyType,0.9230769230769231,0.07692307692307693,2.0,2.0,195.79325831090316,0
org.apache.camel.component.file.remote.RemoteFileConfiguration,0.5272108843537415,0.47278911564625853,2.0,13.0,153.62291495737216,0
org.apache.camel.component.jhc.JhcServerEngine,0.375,0.625,2.0,2.0,49.06118628814434,0
org.apache.camel.util.URISupport,0.35294117647058826,0.6470588235294118,2.0,2.0,62.92058486695749,1
org.apache.camel.builder.script.Ruby,1.0,0.0,1.0,1.0,43.0,0
org.apache.camel.component.restlet.DefaultRestletBinding,0.8116308470290771,0.18836915297092288,1.0,13.0,27.0,0
org.apache.camel.builder.sql.SqlBuilder,0.6086956521739131,0.391304347826087,2.0,2.0,142.8705707974878,0
org.apache.camel.component.quartz.StatefulCamelJob,0.8145695364238411,0.18543046357615894,3.0,6.0,124.4533138933014,0
org.apache.camel.component.xslt.XsltComponent,0.4,0.6,2.0,2.0,66.82813778641446,0
org.apache.camel.osgi.Activator,0.9166666666666666,0.08333333333333333,1.0,8.0,211.99999999999997,0
org.apache.camel.Body,0.75,0.25,2.0,2.0,89.79977728257458,0
org.apache.camel.Expression,0.7142857142857143,0.2857142857142857,3.0,3.0,122.01836147539159,0
org.apache.camel.converter.NIOConverter,0.6829268292682927,0.3170731707317073,3.0,6.0,177.32335796049222,0
org.apache.camel.component.jms.MessageJMSPropertyAccessException,0.03125,0.96875,2.0,2.0,73.84443106964807,0
org.apache.camel.component.jhc.BufferingHttpServiceHandler,0.4166666666666667,0.5833333333333334,1.0,1.0,23.0,0
org.apache.camel.component.jmx.JMXExchange,0.0,1.0,1.0,1.0,46.0,0
org.apache.camel.util.concurrent.CountingLatch,0.8913043478260869,0.10869565217391304,3.0,3.0,27.3774158123218,1
