name,0,1,2,3,4,bug
org.apache.poi.poifs.storage.HeaderBlockReader,0.7727272727272727,0.22727272727272727,3.0,3.0,23.692845021567678,1
org.apache.poi.hssf.record.formula.RefVPtg,1.0,0.0,1.0,1.0,15.0,0
org.apache.poi.hssf.usermodel.HSSFChildAnchor,0.5,0.5,2.0,2.0,0.0,1
org.apache.poi.hssf.record.LeftMarginRecord,0.3620689655172414,0.6379310344827587,3.0,4.0,0.0,1
org.apache.poi.hssf.record.formula.SubtractPtg,0.391304347826087,0.6086956521739131,3.0,3.0,0.0,0
org.apache.poi.poifs.filesystem.POIFSDocument,0.5454545454545454,0.45454545454545453,1.0,1.0,0.0,1
org.apache.poi.hssf.record.formula.ExpPtg,0.6229508196721312,0.3770491803278688,3.0,4.0,0.0,1
org.apache.poi.ddf.EscherProperties,0.5454545454545454,0.45454545454545453,1.0,1.0,0.0,2
org.apache.poi.ddf.EscherComplexProperty,0.5454545454545454,0.45454545454545453,1.0,1.0,0.0,1
org.apache.poi.hssf.record.formula.RefNPtg,0.6994219653179191,0.30057803468208094,2.0,2.0,10.583005244258361,0
org.apache.poi.util.POILogger,0.5,0.5,2.0,2.0,0.0,1
org.apache.poi.ddf.EscherRGBProperty,0.5384615384615384,0.46153846153846156,2.0,2.0,0.0,1
org.apache.poi.hssf.util.HSSFColor,0.5,0.5,2.0,2.0,0.0,0
org.apache.poi.util.IOUtils,0.5454545454545454,0.45454545454545453,1.0,1.0,0.0,3
org.apache.poi.poifs.storage.RawDataBlock,0.5454545454545454,0.45454545454545453,1.0,1.0,0.0,1
org.apache.poi.ddf.EscherSpRecord,0.5454545454545454,0.45454545454545453,1.0,1.0,0.0,1
org.apache.poi.hpsf.CustomProperties,0.9867724867724867,0.013227513227513227,2.0,2.0,0.0,0
org.apache.poi.hssf.record.IterationRecord,0.3142857142857143,0.6857142857142857,2.0,3.0,0.0,1
org.apache.poi.poifs.storage.PropertyBlock,0.5454545454545454,0.45454545454545453,1.0,1.0,0.0,1
org.apache.poi.hssf.record.RecordInputStream,0.9626436781609196,0.03735632183908046,2.0,6.0,0.0,6
org.apache.poi.hssf.record.formula.AreaNAPtg,0.6994219653179191,0.30057803468208094,2.0,2.0,10.583005244258361,0
org.apache.poi.hpsf.HPSFRuntimeException,0.5,0.5,2.0,2.0,0.0,0
org.apache.poi.hssf.record.VerticalPageBreakRecord,0.3333333333333333,0.6666666666666666,2.0,3.0,0.0,1
org.apache.poi.hpsf.wellknown.SectionIDMap,0.5777777777777777,0.4222222222222222,2.0,2.0,0.0,1
org.apache.poi.hssf.record.SeriesLabelsRecord,0.32727272727272727,0.6727272727272727,2.0,4.0,0.0,1
org.apache.poi.hssf.eventusermodel.HSSFUserException,0.5,0.5,2.0,2.0,0.0,0
org.apache.poi.hssf.eventusermodel.HSSFRequest,0.52,0.48,3.0,3.0,0.0,0
org.apache.poi.hssf.dev.BiffViewer,0.42231075697211157,0.5776892430278885,4.0,8.0,20.638743769502355,2
org.apache.poi.hssf.record.formula.ConcatPtg,0.38461538461538464,0.6153846153846154,3.0,4.0,0.0,0
org.apache.poi.hssf.record.DataFormatRecord,0.3137254901960784,0.6862745098039216,2.0,4.0,0.0,1
org.apache.poi.poifs.storage.RawDataBlockList,0.5454545454545454,0.45454545454545453,1.0,1.0,0.0,0
org.apache.poi.hssf.usermodel.HSSFCell,0.5293233082706766,0.4706766917293233,6.0,10.0,12.554465891125956,14
org.apache.poi.hssf.eventmodel.ModelFactory,0.5,0.5,2.0,2.0,0.0,1
org.apache.poi.poifs.storage.BlockAllocationTableWriter,0.5454545454545454,0.45454545454545453,1.0,1.0,0.0,1
org.apache.poi.hssf.util.RangeAddress,0.5,0.5,2.0,2.0,0.0,1
org.apache.poi.poifs.dev.POIFSViewer,0.5454545454545454,0.45454545454545453,1.0,1.0,0.0,0
org.apache.poi.util.StringUtil,0.5,0.5,2.0,2.0,0.0,1
org.apache.poi.hssf.record.LineFormatRecord,0.3392857142857143,0.6607142857142857,2.0,4.0,0.0,1
org.apache.poi.hssf.record.BlankRecord,0.3333333333333333,0.6666666666666666,2.0,3.0,0.0,1
org.apache.poi.hssf.record.DrawingRecordForBiffViewer,0.4,0.6,3.0,3.0,0.0,0
org.apache.poi.ddf.EscherDgRecord,0.5454545454545454,0.45454545454545453,1.0,1.0,0.0,1
org.apache.poi.hssf.record.formula.NotEqualPtg,0.5151515151515151,0.48484848484848486,3.0,3.0,0.0,1
org.apache.poi.hssf.eventmodel.ERFListener,0.5,0.5,2.0,2.0,0.0,0
org.apache.poi.hssf.record.SupBookRecord,0.3333333333333333,0.6666666666666666,2.0,3.0,0.0,2
org.apache.poi.hssf.record.TopMarginRecord,0.328,0.672,3.0,4.0,0.0,1
org.apache.poi.hssf.record.formula.BoolPtg,0.35714285714285715,0.6428571428571429,3.0,4.0,0.0,0
org.apache.poi.hssf.model.AbstractShape,0.6296296296296297,0.37037037037037035,3.0,4.0,18.643395035723156,0
org.apache.poi.hssf.record.DSFRecord,0.3142857142857143,0.6857142857142857,2.0,3.0,0.0,1
org.apache.poi.hssf.record.ExtSSTRecord,0.3076923076923077,0.6923076923076923,3.0,3.0,0.0,2
org.apache.poi.hssf.record.formula.MissingArgPtg,0.5,0.5,4.0,4.0,0.0,0
org.apache.poi.util.BitFieldFactory,0.5454545454545454,0.45454545454545453,1.0,1.0,0.0,1
org.apache.poi.hpsf.NoFormatIDException,0.5,0.5,2.0,2.0,0.0,0
org.apache.poi.hssf.record.BoolErrRecord,0.3695652173913043,0.6304347826086957,3.0,4.0,0.0,2
org.apache.poi.hssf.record.FrameRecord,0.30612244897959184,0.6938775510204082,2.0,4.0,0.0,1
org.apache.poi.poifs.eventfilesystem.POIFSReader,0.5454545454545454,0.45454545454545453,1.0,1.0,0.0,1
org.apache.poi.hssf.record.GridsetRecord,0.3142857142857143,0.6857142857142857,2.0,3.0,0.0,1
org.apache.poi.poifs.storage.HeaderBlockConstants,0.5454545454545454,0.45454545454545453,1.0,1.0,0.0,1
org.apache.poi.hssf.record.formula.FuncPtg,0.52,0.48,3.0,3.0,0.0,0
org.apache.poi.hssf.dev.FormulaViewer,0.34782608695652173,0.6521739130434783,3.0,3.0,0.0,0
org.apache.poi.hssf.usermodel.HSSFName,0.6285714285714286,0.37142857142857144,4.0,4.0,0.0,5
org.apache.poi.hssf.record.SSTSerializer,0.1932367149758454,0.8067632850241546,2.0,4.0,0.0,0
org.apache.poi.hssf.record.formula.AreaAPtg,0.7011494252873564,0.2988505747126437,2.0,2.0,10.583005244258361,0
org.apache.poi.hssf.model.ConvertAnchor,0.7931034482758621,0.20689655172413793,2.0,3.0,0.0,2
org.apache.poi.util.ArrayUtil,0.95,0.05,3.0,3.0,0.0,0
org.apache.poi.hssf.model.LineShape,0.5294117647058824,0.47058823529411764,2.0,2.0,0.0,1
org.apache.poi.hssf.record.IndexRecord,0.3898305084745763,0.6101694915254238,3.0,5.0,0.0,1
org.apache.poi.hpsf.WritingNotSupportedException,0.5,0.5,2.0,2.0,0.0,0
org.apache.poi.hssf.record.WindowTwoRecord,0.41333333333333333,0.5866666666666667,2.0,4.0,0.0,1
org.apache.poi.poifs.storage.BlockAllocationTableReader,0.5,0.5,2.0,2.0,0.0,4
org.apache.poi.hpsf.UnexpectedPropertySetTypeException,0.5,0.5,2.0,2.0,0.0,0
org.apache.poi.util.BinaryTree,0.5454545454545454,0.45454545454545453,1.0,1.0,0.0,1
org.apache.poi.poifs.eventfilesystem.POIFSReaderRegistry,0.5454545454545454,0.45454545454545453,1.0,1.0,0.0,0
org.apache.poi.util.LongField,0.5454545454545454,0.45454545454545453,1.0,1.0,0.0,0
org.apache.poi.hssf.record.FontBasisRecord,0.3137254901960784,0.6862745098039216,2.0,3.0,0.0,1
org.apache.poi.hssf.record.SheetPropertiesRecord,0.32727272727272727,0.6727272727272727,2.0,4.0,0.0,1
org.apache.poi.hssf.record.formula.RefAPtg,0.695906432748538,0.30409356725146197,2.0,2.0,10.583005244258361,0
org.apache.poi.hssf.record.formula.AreaNPtg,0.6994219653179191,0.30057803468208094,2.0,2.0,10.583005244258361,0
org.apache.poi.hssf.record.formula.RefNAPtg,0.6976744186046512,0.3023255813953488,2.0,2.0,10.583005244258361,0
org.apache.poi.hssf.record.RecordProcessor,0.06363636363636363,0.9363636363636364,2.0,3.0,0.0,0
org.apache.poi.hpsf.UnsupportedVariantTypeException,0.5333333333333333,0.4666666666666667,3.0,3.0,0.0,0
org.apache.poi.hssf.record.BeginRecord,0.30303030303030304,0.696969696969697,2.0,3.0,0.0,1
org.apache.poi.ddf.EscherClientDataRecord,0.5384615384615384,0.46153846153846156,2.0,2.0,0.0,1
org.apache.poi.hssf.record.LabelRecord,0.36486486486486486,0.6351351351351351,3.0,4.0,0.0,1
org.apache.poi.hssf.record.SeriesTextRecord,0.30612244897959184,0.6938775510204082,2.0,3.0,0.0,1
org.apache.poi.hssf.record.formula.MemFuncPtg,0.5,0.5,3.0,3.0,0.0,1
org.apache.poi.hssf.record.formula.AreaPtg,0.5833333333333334,0.4166666666666667,4.0,6.0,0.0,1
org.apache.poi.hssf.record.CustomField,0.5,0.5,3.0,3.0,0.0,1
org.apache.poi.hssf.usermodel.HSSFErrorConstants,0.5,0.5,2.0,2.0,0.0,0
org.apache.poi.hpsf.VariantSupport,0.7714285714285715,0.22857142857142856,2.0,3.0,0.0,1
org.apache.poi.poifs.filesystem.DirectoryEntry,0.5454545454545454,0.45454545454545453,1.0,1.0,0.0,0
org.apache.poi.hssf.usermodel.HSSFCellStyle,0.746268656716418,0.2537313432835821,3.0,4.0,0.0,2
org.apache.poi.hssf.record.ChartFormatRecord,0.3695652173913043,0.6304347826086957,2.0,4.0,0.0,1
org.apache.poi.poifs.filesystem.DocumentNode,0.5454545454545454,0.45454545454545453,1.0,1.0,0.0,0
org.apache.poi.hpsf.PropertySetFactory,0.8870967741935484,0.11290322580645161,2.0,2.0,0.0,0
org.apache.poi.hssf.record.CellValueRecordInterface,0.5454545454545454,0.45454545454545453,1.0,1.0,0.0,0
org.apache.poi.hssf.util.PaneInformation,0.502283105022831,0.4977168949771689,1.0,2.0,0.0,0
org.apache.poi.hssf.record.formula.DeletedRef3DPtg,0.8771929824561403,0.12280701754385964,3.0,3.0,0.0,0
org.apache.poi.hssf.record.formula.UnionPtg,0.5,0.5,3.0,3.0,0.0,0
org.apache.poi.poifs.storage.SmallBlockTableWriter,0.5454545454545454,0.45454545454545453,1.0,1.0,0.0,1
org.apache.poi.hssf.record.formula.AttrPtg,0.43478260869565216,0.5652173913043478,3.0,5.0,0.0,1
org.apache.poi.hpsf.Thumbnail,0.20689655172413793,0.7931034482758621,2.0,3.0,0.0,1
org.apache.poi.hssf.model.PolygonShape,0.5,0.5,3.0,3.0,0.0,1
org.apache.poi.hssf.record.DeltaRecord,0.3142857142857143,0.6857142857142857,2.0,3.0,0.0,1
org.apache.poi.hssf.record.LinkedDataRecord,0.32075471698113206,0.6792452830188679,2.0,4.0,0.0,1
org.apache.poi.hpsf.MarkUnsupportedException,0.5,0.5,2.0,2.0,0.0,0
org.apache.poi.util.ShortField,0.5454545454545454,0.45454545454545453,1.0,1.0,0.0,0
org.apache.poi.hssf.record.SSTRecordSizeCalculator,0.2289156626506024,0.7710843373493976,2.0,3.0,0.0,0
org.apache.poi.hssf.record.UnitsRecord,0.2857142857142857,0.7142857142857143,2.0,3.0,0.0,1
org.apache.poi.util.DrawingDump,0.6538461538461539,0.34615384615384615,2.0,2.0,0.0,0
org.apache.poi.hssf.record.formula.DividePtg,0.38461538461538464,0.6153846153846154,3.0,4.0,0.0,0
org.apache.poi.hssf.record.formula.GreaterThanPtg,0.5454545454545454,0.45454545454545453,4.0,4.0,0.0,1
org.apache.poi.hpsf.HPSFException,0.5,0.5,2.0,2.0,0.0,0
org.apache.poi.hssf.model.Model,0.5294117647058824,0.47058823529411764,2.0,2.0,0.0,0
org.apache.poi.hssf.eventusermodel.AbortableHSSFListener,0.5,0.5,3.0,3.0,0.0,1
org.apache.poi.hssf.record.ExternSheetSubRecord,0.3611111111111111,0.6388888888888888,2.0,3.0,0.0,1
org.apache.poi.hssf.record.SelectionRecord,0.6341463414634146,0.36585365853658536,2.0,4.0,0.0,2
org.apache.poi.util.DoubleList2d,1.0,0.0,1.0,1.0,0.0,0
org.apache.poi.hpsf.Variant,0.5,0.5,2.0,2.0,0.0,0
org.apache.poi.hssf.record.RowRecord,0.4625,0.5375,2.0,6.0,0.0,2
org.apache.poi.hssf.record.CalcCountRecord,0.3142857142857143,0.6857142857142857,2.0,3.0,0.0,1
org.apache.poi.hssf.record.SeriesChartGroupIndexRecord,0.27906976744186046,0.7209302325581395,2.0,3.0,0.0,1
org.apache.poi.hssf.record.DimensionsRecord,0.3488372093023256,0.6511627906976745,2.0,3.0,0.0,1
org.apache.poi.hpsf.MutablePropertySet,0.828125,0.171875,2.0,3.0,0.0,1
org.apache.poi.hssf.record.formula.UnaryPlusPtg,0.5263157894736842,0.47368421052631576,3.0,3.0,0.0,0
org.apache.poi.hssf.record.RecordFactory,0.4675324675324675,0.5324675324675324,5.0,11.0,19.853468526414012,13
org.apache.poi.poifs.filesystem.BATManaged,0.5454545454545454,0.45454545454545453,1.0,1.0,0.0,0
org.apache.poi.poifs.filesystem.DocumentEntry,0.5454545454545454,0.45454545454545453,1.0,1.0,0.0,0
org.apache.poi.hssf.record.aggregates.ValueRecordsAggregate,0.30987202925045704,0.6901279707495429,3.0,8.0,0.0,4
org.apache.poi.hssf.record.HorizontalPageBreakRecord,0.32,0.68,2.0,2.0,0.0,1
org.apache.poi.poifs.storage.BigBlock,0.5454545454545454,0.45454545454545453,1.0,1.0,0.0,0
org.apache.poi.hssf.record.CommonObjectDataSubRecord,0.3387096774193548,0.6612903225806451,2.0,4.0,0.0,2
org.apache.poi.poifs.storage.BlockWritable,0.5454545454545454,0.45454545454545453,1.0,1.0,0.0,0
org.apache.poi.hssf.record.EOFRecord,0.30303030303030304,0.696969696969697,2.0,3.0,0.0,1
org.apache.poi.hssf.record.formula.EqualPtg,0.375,0.625,3.0,3.0,0.0,0
org.apache.poi.util.IntegerField,0.5454545454545454,0.45454545454545453,1.0,1.0,0.0,0
org.apache.poi.hssf.record.ObjRecord,0.5733333333333334,0.4266666666666667,4.0,5.0,20.70215079529961,2
org.apache.poi.hssf.record.CountryRecord,0.32432432432432434,0.6756756756756757,2.0,3.0,0.0,1
org.apache.poi.hssf.record.formula.Ptg,0.5738636363636364,0.42613636363636365,5.0,8.0,0.0,1
org.apache.poi.hssf.record.formula.AddPtg,0.47368421052631576,0.5263157894736842,3.0,4.0,0.0,0
org.apache.poi.hssf.record.NameRecord,0.3167420814479638,0.6832579185520362,4.0,7.0,0.0,8
org.apache.poi.poifs.dev.POIFSViewable,0.5454545454545454,0.45454545454545453,1.0,1.0,0.0,0
org.apache.poi.poifs.property.Property,0.75,0.25,2.0,2.0,0.0,1
org.apache.poi.ddf.EscherShapePathProperty,0.5454545454545454,0.45454545454545453,1.0,1.0,0.0,1
org.apache.poi.util.TempFile,0.9264705882352942,0.07352941176470588,2.0,2.0,0.0,1
org.apache.poi.hssf.dev.EFBiffViewer,0.4,0.6,3.0,3.0,0.0,0
org.apache.poi.hssf.record.WriteAccessRecord,0.43333333333333335,0.5666666666666667,2.0,3.0,0.0,2
org.apache.poi.hssf.record.PrecisionRecord,0.3142857142857143,0.6857142857142857,2.0,3.0,0.0,1
org.apache.poi.hssf.usermodel.HSSFShapeGroup,0.5,0.5,2.0,2.0,0.0,0
org.apache.poi.hssf.record.CodepageRecord,0.3488372093023256,0.6511627906976745,4.0,5.0,0.0,1
org.apache.poi.hssf.record.formula.MemAreaPtg,0.9541284403669725,0.045871559633027525,2.0,2.0,0.0,2
org.apache.poi.ddf.EscherSplitMenuColorsRecord,0.5454545454545454,0.45454545454545453,1.0,1.0,0.0,1
org.apache.poi.util.HexRead,0.5454545454545454,0.45454545454545453,1.0,1.0,0.0,0
org.apache.poi.hssf.record.ValueRangeRecord,0.37142857142857144,0.6285714285714286,2.0,4.0,0.0,1
org.apache.poi.ddf.EscherRecord,0.5454545454545454,0.45454545454545453,1.0,1.0,0.0,2
org.apache.poi.hssf.usermodel.HSSFRow,0.32972972972972975,0.6702702702702703,4.0,4.0,0.0,4
org.apache.poi.hssf.record.ObjectLinkRecord,0.30434782608695654,0.6956521739130435,2.0,3.0,0.0,1
org.apache.poi.hssf.record.formula.NamePtg,0.39285714285714285,0.6071428571428571,3.0,3.0,0.0,0
org.apache.poi.hpsf.IllegalVariantTypeException,0.5454545454545454,0.45454545454545453,1.0,1.0,0.0,0
org.apache.poi.poifs.eventfilesystem.POIFSReaderListener,0.5454545454545454,0.45454545454545453,1.0,1.0,0.0,0
org.apache.poi.hssf.record.ChartRecord,0.30612244897959184,0.6938775510204082,2.0,3.0,0.0,1
org.apache.poi.hssf.model.TextboxShape,0.5333333333333333,0.4666666666666667,2.0,2.0,0.0,2
org.apache.poi.hssf.usermodel.HSSFPatriarch,0.8333333333333334,0.16666666666666666,3.0,4.0,18.643395035723156,1
org.apache.poi.poifs.property.DirectoryProperty,0.8181818181818182,0.18181818181818182,2.0,2.0,0.0,1
org.apache.poi.hssf.record.NoteStructureSubRecord,1.0,0.0,1.0,1.0,81.00000000000003,1
org.apache.poi.hssf.record.FontRecord,0.3972602739726027,0.6027397260273972,2.0,5.0,0.0,2
org.apache.poi.hssf.record.LabelSSTRecord,0.35,0.65,2.0,3.0,0.0,1
org.apache.poi.util.BitField,0.5454545454545454,0.45454545454545453,1.0,1.0,0.0,0
org.apache.poi.util.BlockingInputStream,0.5454545454545454,0.45454545454545453,1.0,1.0,0.0,0
org.apache.poi.hssf.record.DBCellRecord,0.4,0.6,3.0,5.0,0.0,1
org.apache.poi.hssf.record.DatRecord,0.3137254901960784,0.6862745098039216,2.0,4.0,0.0,1
org.apache.poi.poifs.property.PropertyConstants,0.5454545454545454,0.45454545454545453,1.0,1.0,0.0,0
org.apache.poi.hpsf.MissingSectionException,0.9425287356321839,0.05747126436781609,2.0,2.0,0.0,0
org.apache.poi.hpsf.Util,0.5454545454545454,0.45454545454545453,1.0,1.0,0.0,1
org.apache.poi.hssf.record.formula.LessThanPtg,0.5416666666666666,0.4583333333333333,4.0,4.0,0.0,1
org.apache.poi.util.NullLogger,0.5454545454545454,0.45454545454545453,1.0,1.0,0.0,1
org.apache.poi.hpsf.NoPropertySetStreamException,0.5454545454545454,0.45454545454545453,1.0,1.0,0.0,0
org.apache.poi.hssf.record.formula.IntersectionPtg,0.9468085106382979,0.05319148936170213,2.0,2.0,0.0,0
org.apache.poi.hssf.usermodel.HSSFClientAnchor,0.75,0.25,2.0,3.0,0.0,2
org.apache.poi.hssf.record.formula.ControlPtg,0.5294117647058824,0.47058823529411764,2.0,2.0,0.0,0
org.apache.poi.hssf.record.PlotGrowthRecord,0.29545454545454547,0.7045454545454546,2.0,3.0,0.0,1
org.apache.poi.hpsf.IllegalPropertySetDataException,0.5,0.5,2.0,2.0,0.0,0
org.apache.poi.poifs.property.RootProperty,0.5454545454545454,0.45454545454545453,1.0,1.0,0.0,1
org.apache.poi.hssf.record.aggregates.ColumnInfoRecordsAggregate,0.9681978798586572,0.03180212014134275,4.0,6.0,0.0,0
org.apache.poi.poifs.storage.SmallDocumentBlockList,0.5454545454545454,0.45454545454545453,1.0,1.0,0.0,0
org.apache.poi.hssf.record.DrawingGroupRecord,0.88,0.12,3.0,4.0,0.0,1
org.apache.poi.hssf.record.aggregates.FormulaRecordAggregate,0.15873015873015872,0.8412698412698413,4.0,5.0,0.0,5
org.apache.poi.poifs.filesystem.DocumentInputStream,0.5454545454545454,0.45454545454545453,1.0,1.0,0.0,0
org.apache.poi.hssf.record.formula.MemErrPtg,0.30158730158730157,0.6984126984126984,3.0,4.0,0.0,0
org.apache.poi.hssf.eventmodel.EventRecordFactory,0.3010752688172043,0.6989247311827957,4.0,8.0,20.638743769502355,1
org.apache.poi.hssf.usermodel.HSSFFont,0.5142857142857142,0.4857142857142857,4.0,4.0,0.0,1
org.apache.poi.hssf.record.RecalcIdRecord,0.325,0.675,2.0,3.0,0.0,1
org.apache.poi.hssf.record.formula.DeletedArea3DPtg,0.8793103448275862,0.1206896551724138,3.0,3.0,0.0,0
org.apache.poi.hssf.usermodel.HSSFDateUtil,0.775,0.225,2.0,2.0,0.0,3
org.apache.poi.hssf.record.PrintHeadersRecord,0.3142857142857143,0.6857142857142857,2.0,3.0,0.0,1
org.apache.poi.hssf.usermodel.HSSFPolygon,0.5,0.5,2.0,2.0,0.0,0
org.apache.poi.hssf.record.formula.FuncVarPtg,0.52,0.48,3.0,3.0,0.0,0
org.apache.poi.hssf.record.formula.AreaErrPtg,0.6618181818181819,0.3381818181818182,2.0,3.0,0.0,0
org.apache.poi.hssf.record.DrawingSelectionRecord,0.4,0.6,3.0,3.0,0.0,0
org.apache.poi.hssf.usermodel.HSSFFooter,0.5437352245862884,0.4562647754137116,4.0,4.0,0.0,1
org.apache.poi.hssf.usermodel.DummyGraphics2d,0.5263157894736842,0.47368421052631576,3.0,3.0,0.0,0
org.apache.poi.ddf.EscherProperty,0.5384615384615384,0.46153846153846156,2.0,2.0,0.0,1
org.apache.poi.hssf.record.GutsRecord,0.34146341463414637,0.6585365853658537,2.0,3.0,0.0,1
org.apache.poi.hssf.util.Region,0.5217391304347826,0.4782608695652174,3.0,3.0,0.0,0
org.apache.poi.hssf.record.formula.AreaNVPtg,0.7011494252873564,0.2988505747126437,2.0,2.0,10.583005244258361,0
org.apache.poi.hssf.usermodel.HSSFWorkbook,0.735494880546075,0.2645051194539249,8.0,14.0,15.481103812283548,14
org.apache.poi.hssf.record.WindowOneRecord,0.4126984126984127,0.5873015873015873,2.0,4.0,0.0,1
org.apache.poi.hssf.record.ColumnInfoRecord,0.38,0.62,2.0,3.0,0.0,1
org.apache.poi.poifs.storage.HeaderBlockWriter,0.5454545454545454,0.45454545454545453,1.0,1.0,0.0,0
org.apache.poi.hssf.record.formula.IntPtg,0.4782608695652174,0.5217391304347826,3.0,4.0,0.0,1
org.apache.poi.hssf.util.SheetReferences,0.46153846153846156,0.5384615384615384,2.0,2.0,0.0,0
org.apache.poi.hssf.record.FormulaRecord,0.348993288590604,0.6510067114093959,3.0,8.0,0.0,4
org.apache.poi.util.ByteField,0.5454545454545454,0.45454545454545453,1.0,1.0,0.0,0
org.apache.poi.hssf.usermodel.EscherGraphics2d,0.6176470588235294,0.38235294117647056,2.0,3.0,0.0,1
org.apache.poi.hssf.record.PasswordRecord,0.3142857142857143,0.6857142857142857,2.0,3.0,0.0,1
org.apache.poi.hssf.record.NumberFormatIndexRecord,0.27906976744186046,0.7209302325581395,2.0,3.0,0.0,1
org.apache.poi.hssf.record.SSTRecordHeader,0.6666666666666666,0.3333333333333333,2.0,2.0,0.0,0
org.apache.poi.poifs.storage.BlockList,0.5454545454545454,0.45454545454545453,1.0,1.0,0.0,1
org.apache.poi.hssf.record.Record,0.9105960264900662,0.08940397350993377,5.0,8.0,15.883018679153052,3
org.apache.poi.hssf.record.AxisRecord,0.3137254901960784,0.6862745098039216,2.0,3.0,0.0,1
org.apache.poi.hssf.record.ExtSSTInfoSubRecord,0.41379310344827586,0.5862068965517241,3.0,3.0,0.0,0
org.apache.poi.hssf.record.InterfaceHdrRecord,0.3142857142857143,0.6857142857142857,2.0,3.0,0.0,1
org.apache.poi.poifs.property.Child,0.5454545454545454,0.45454545454545453,1.0,1.0,0.0,0
org.apache.poi.hssf.dev.HSSF,0.6333333333333333,0.36666666666666664,3.0,3.0,0.0,2
org.apache.poi.hssf.record.RecordFormatException,0.7368421052631579,0.2631578947368421,2.0,2.0,0.0,0
org.apache.poi.hpsf.MutableProperty,0.5454545454545454,0.45454545454545453,1.0,1.0,0.0,0
org.apache.poi.hssf.record.InterfaceEndRecord,0.30303030303030304,0.696969696969697,2.0,3.0,0.0,1
org.apache.poi.ddf.EscherDggRecord,0.5909090909090909,0.4090909090909091,2.0,2.0,0.0,2
org.apache.poi.poifs.filesystem.POIFSDocumentPath,0.5,0.5,3.0,3.0,0.0,0
org.apache.poi.hssf.record.aggregates.RowRecordsAggregate,0.6172344689378757,0.38276553106212424,4.0,6.0,8.181246978470094,5
org.apache.poi.hssf.record.ContinueRecord,0.10576923076923077,0.8942307692307693,2.0,3.0,0.0,2
org.apache.poi.hssf.record.formula.StringPtg,0.4864864864864865,0.5135135135135135,3.0,5.0,0.0,0
org.apache.poi.ddf.UnknownEscherRecord,0.5454545454545454,0.45454545454545453,1.0,1.0,0.0,1
org.apache.poi.ddf.EscherPropertyMetaData,0.5454545454545454,0.45454545454545453,1.0,1.0,0.0,1
org.apache.poi.hssf.record.RefModeRecord,0.3142857142857143,0.6857142857142857,2.0,3.0,0.0,1
org.apache.poi.hssf.record.formula.ArrayPtg,0.980544747081712,0.019455252918287938,2.0,2.0,0.0,1
org.apache.poi.hssf.record.FormatRecord,0.36666666666666664,0.6333333333333333,4.0,5.0,0.0,1
org.apache.poi.hssf.record.SaveRecalcRecord,0.3142857142857143,0.6857142857142857,2.0,3.0,0.0,1
org.apache.poi.poifs.filesystem.Entry,0.5454545454545454,0.45454545454545453,1.0,1.0,0.0,0
org.apache.poi.hssf.record.SSTDeserializer,0.034482758620689655,0.9655172413793104,3.0,3.0,0.0,0
org.apache.poi.ddf.EscherArrayProperty,0.7435897435897436,0.2564102564102564,4.0,4.0,15.187206849628927,1
org.apache.poi.hpsf.ReadingNotSupportedException,0.5,0.5,2.0,2.0,0.0,0
org.apache.poi.hssf.record.BottomMarginRecord,0.45555555555555555,0.5444444444444444,3.0,4.0,0.0,1
org.apache.poi.hssf.record.MergeCellsRecord,0.37333333333333335,0.6266666666666667,3.0,3.0,0.0,1
org.apache.poi.hssf.record.WindowProtectRecord,0.3142857142857143,0.6857142857142857,2.0,3.0,0.0,1
org.apache.poi.hssf.model.SimpleFilledShape,0.5,0.5,2.0,2.0,0.0,2
org.apache.poi.ddf.EscherDump,0.5454545454545454,0.45454545454545453,1.0,1.0,0.0,1
org.apache.poi.hssf.record.WriteProtectRecord,0.5025906735751295,0.49740932642487046,1.0,2.0,0.0,1
org.apache.poi.poifs.storage.SmallDocumentBlock,0.5454545454545454,0.45454545454545453,1.0,1.0,0.0,1
org.apache.poi.hssf.record.AbstractEscherHolderRecord,0.6802030456852792,0.3197969543147208,3.0,4.0,0.0,6
org.apache.poi.ddf.EscherBitmapBlip,1.0,0.0,2.0,3.0,0.0,2
org.apache.poi.hssf.record.ExternSheetRecord,0.48214285714285715,0.5178571428571429,3.0,4.0,0.0,2
org.apache.poi.util.HexDump,0.7,0.3,2.0,3.0,0.0,2
org.apache.poi.hssf.record.DrawingRecord,0.3877551020408163,0.6122448979591837,3.0,4.0,0.0,2
org.apache.poi.hssf.record.MulBlankRecord,0.29508196721311475,0.7049180327868853,2.0,3.0,0.0,4
org.apache.poi.hssf.usermodel.StaticFontMetrics,0.5,0.5,2.0,2.0,0.0,2
org.apache.poi.ddf.EscherClientAnchorRecord,0.5384615384615384,0.46153846153846156,2.0,2.0,0.0,1
org.apache.poi.hssf.usermodel.HSSFComment,0.9764705882352941,0.023529411764705882,2.0,2.0,0.0,2
org.apache.poi.hssf.record.RKRecord,0.3333333333333333,0.6666666666666666,2.0,3.0,0.0,1
org.apache.poi.hssf.record.EndSubRecord,0.2558139534883721,0.7441860465116279,2.0,3.0,0.0,1
org.apache.poi.hssf.record.formula.AbstractFunctionPtg,0.5,0.5,4.0,4.0,0.0,1
org.apache.poi.ddf.EscherTextboxRecord,0.5454545454545454,0.45454545454545453,1.0,1.0,0.0,1
org.apache.poi.hssf.model.DrawingManager2,0.981549815498155,0.01845018450184502,2.0,3.0,0.0,0
org.apache.poi.hssf.record.formula.MultiplyPtg,0.3333333333333333,0.6666666666666666,3.0,5.0,0.0,0
org.apache.poi.hssf.usermodel.FontDetails,0.5,0.5,2.0,2.0,0.0,2
org.apache.poi.hssf.record.MulRKRecord,0.3157894736842105,0.6842105263157895,2.0,3.0,0.0,2
org.apache.poi.poifs.filesystem.OfficeXmlFileException,1.0,0.0,1.0,1.0,95.0,0
org.apache.poi.ddf.EscherOptRecord,0.5454545454545454,0.45454545454545453,1.0,1.0,0.0,1
org.apache.poi.hssf.record.AxisLineFormatRecord,0.27906976744186046,0.7209302325581395,2.0,3.0,0.0,1
org.apache.poi.hssf.record.PageBreakRecord,0.5094339622641509,0.49056603773584906,3.0,3.0,0.0,1
org.apache.poi.hpsf.Constants,0.9473684210526315,0.05263157894736842,2.0,6.0,0.0,0
org.apache.poi.poifs.storage.DocumentBlock,0.5454545454545454,0.45454545454545453,1.0,1.0,0.0,0
org.apache.poi.ddf.EscherPropertyFactory,0.4482758620689655,0.5517241379310345,2.0,2.0,0.0,1
org.apache.poi.hssf.record.formula.RefErrorPtg,0.9514563106796117,0.04854368932038835,2.0,2.0,0.0,1
org.apache.poi.hssf.record.formula.PowerPtg,0.391304347826087,0.6086956521739131,3.0,3.0,0.0,0
org.apache.poi.poifs.dev.POIFSViewEngine,0.5454545454545454,0.45454545454545453,1.0,1.0,0.0,0
org.apache.poi.hssf.record.RightMarginRecord,0.3235294117647059,0.6764705882352942,3.0,4.0,0.0,0
org.apache.poi.hssf.record.SSTRecord,0.20245398773006135,0.7975460122699386,2.0,3.0,0.0,3
org.apache.poi.poifs.property.DocumentProperty,0.5454545454545454,0.45454545454545453,1.0,1.0,0.0,0
org.apache.poi.hssf.usermodel.HSSFPrintSetup,0.5125553914327917,0.4874446085672083,2.0,2.0,0.0,0
org.apache.poi.util.SystemOutLogger,0.5454545454545454,0.45454545454545453,1.0,1.0,0.0,2
org.apache.poi.poifs.filesystem.DocumentOutputStream,0.5454545454545454,0.45454545454545453,1.0,1.0,0.0,1
org.apache.poi.poifs.storage.BATBlock,0.5454545454545454,0.45454545454545453,1.0,1.0,0.0,1
org.apache.poi.ddf.EscherBSERecord,0.7837837837837838,0.21621621621621623,2.0,2.0,0.0,2
org.apache.poi.ddf.EscherBlipWMFRecord,0.9887892376681614,0.011210762331838564,2.0,2.0,0.0,1
org.apache.poi.util.LittleEndianConsts,0.5454545454545454,0.45454545454545453,1.0,1.0,0.0,0
org.apache.poi.hssf.record.MMSRecord,0.32432432432432434,0.6756756756756757,2.0,3.0,0.0,1
org.apache.poi.hssf.record.HeaderRecord,0.5732484076433121,0.4267515923566879,3.0,5.0,0.0,2
org.apache.poi.hssf.record.StringRecord,0.3787878787878788,0.6212121212121212,3.0,4.0,0.0,3
org.apache.poi.hssf.record.formula.RefNVPtg,0.6923076923076923,0.3076923076923077,2.0,2.0,10.583005244258361,0
org.apache.poi.hssf.record.formula.OperationPtg,0.36363636363636365,0.6363636363636364,2.0,2.0,0.0,0
org.apache.poi.hssf.eventusermodel.HSSFEventFactory,0.3220338983050847,0.6779661016949152,4.0,5.0,0.0,4
org.apache.poi.hssf.record.EndRecord,0.3125,0.6875,2.0,3.0,0.0,1
org.apache.poi.hssf.model.WorkbookRecordList,0.4666666666666667,0.5333333333333333,3.0,3.0,0.0,1
org.apache.poi.hssf.record.BOFRecord,0.39436619718309857,0.6056338028169014,4.0,5.0,0.0,3
org.apache.poi.hssf.record.PrintSetupRecord,0.4225352112676056,0.5774647887323944,2.0,4.0,0.0,1
org.apache.poi.hssf.usermodel.HSSFPicture,1.0,0.0,2.0,3.0,0.0,3
org.apache.poi.hssf.record.SeriesToChartGroupRecord,0.27906976744186046,0.7209302325581395,2.0,3.0,0.0,1
org.apache.poi.hssf.record.CalcModeRecord,0.3142857142857143,0.6857142857142857,2.0,3.0,0.0,1
org.apache.poi.hssf.record.PrintGridlinesRecord,0.3055555555555556,0.6944444444444444,2.0,3.0,0.0,1
org.apache.poi.poifs.property.Parent,0.5454545454545454,0.45454545454545453,1.0,1.0,0.0,0
org.apache.poi.poifs.eventfilesystem.POIFSReaderEvent,0.5454545454545454,0.45454545454545453,1.0,1.0,0.0,0
org.apache.poi.hpsf.MutableSection,0.7857142857142857,0.21428571428571427,2.0,5.0,0.0,0
org.apache.poi.hssf.record.FooterRecord,0.5806451612903226,0.41935483870967744,3.0,5.0,0.0,2
org.apache.poi.util.IntList2d,1.0,0.0,1.0,1.0,0.0,0
org.apache.poi.hssf.usermodel.HSSFPalette,0.5409836065573771,0.45901639344262296,3.0,3.0,0.0,1
org.apache.poi.poifs.property.PropertyTable,0.5454545454545454,0.45454545454545453,1.0,1.0,0.0,2
org.apache.poi.hssf.record.BookBoolRecord,0.3333333333333333,0.6666666666666666,4.0,5.0,0.0,1
org.apache.poi.hssf.record.SCLRecord,0.28888888888888886,0.7111111111111111,2.0,3.0,0.0,1
org.apache.poi.hssf.record.NumberRecord,0.34146341463414637,0.6585365853658537,2.0,3.0,0.0,1
org.apache.poi.ddf.DefaultEscherRecordFactory,0.7391304347826086,0.2608695652173913,2.0,2.0,0.0,2
org.apache.poi.ddf.NullEscherSerializationListener,0.5454545454545454,0.45454545454545453,1.0,1.0,0.0,1
org.apache.poi.hssf.record.PlotAreaRecord,0.2619047619047619,0.7380952380952381,2.0,3.0,0.0,1
org.apache.poi.hpsf.CustomProperty,0.9626865671641791,0.03731343283582089,2.0,2.0,0.0,0
org.apache.poi.ddf.EscherSpgrRecord,0.5454545454545454,0.45454545454545453,1.0,1.0,0.0,1
org.apache.poi.hssf.record.AxisParentRecord,0.3137254901960784,0.6862745098039216,2.0,3.0,0.0,1
org.apache.poi.hssf.record.DateWindow1904Record,0.3055555555555556,0.6944444444444444,2.0,3.0,0.0,1
org.apache.poi.hssf.record.RefreshAllRecord,0.3142857142857143,0.6857142857142857,2.0,3.0,0.0,1
org.apache.poi.hssf.record.LinkedDataFormulaField,0.2978723404255319,0.7021276595744681,2.0,3.0,0.0,0
org.apache.poi.hssf.util.CellReference,0.5,0.5,2.0,2.0,0.0,1
org.apache.poi.hssf.usermodel.HSSFRichTextString,0.7070063694267515,0.2929936305732484,3.0,3.0,0.0,4
org.apache.poi.hpsf.TypeWriter,0.7910447761194029,0.208955223880597,2.0,3.0,0.0,0
org.apache.poi.hssf.record.UnicodeString,0.8343057176196033,0.16569428238039674,3.0,5.0,0.0,3
org.apache.poi.hssf.record.formula.NumberPtg,0.5238095238095238,0.47619047619047616,3.0,3.0,0.0,1
org.apache.poi.hssf.record.formula.AreaVPtg,0.7028571428571428,0.29714285714285715,2.0,2.0,10.583005244258361,0
org.apache.poi.hssf.record.formula.ArrayPtgV,0.9431818181818182,0.056818181818181816,2.0,2.0,0.0,0
org.apache.poi.poifs.common.POIFSConstants,0.5454545454545454,0.45454545454545453,1.0,1.0,0.0,0
org.apache.poi.hssf.record.FilePassRecord,0.662613981762918,0.3373860182370821,2.0,3.0,0.0,2
org.apache.poi.hpsf.DocumentSummaryInformation,0.8865979381443299,0.1134020618556701,2.0,3.0,0.0,0
org.apache.poi.hssf.record.formula.ArrayPtgA,0.9397590361445783,0.060240963855421686,2.0,2.0,0.0,0
org.apache.poi.hpsf.Section,0.631578947368421,0.3684210526315789,2.0,2.0,0.0,2
org.apache.poi.hssf.record.BoundSheetRecord,0.39655172413793105,0.603448275862069,4.0,5.0,0.0,2
org.apache.poi.hssf.record.formula.ErrPtg,0.9504950495049505,0.04950495049504951,2.0,2.0,0.0,0
org.apache.poi.ddf.EscherSimpleProperty,0.5833333333333334,0.4166666666666667,2.0,2.0,0.0,1
org.apache.poi.poifs.filesystem.POIFSWriterEvent,0.5454545454545454,0.45454545454545453,1.0,1.0,0.0,0
org.apache.poi.hssf.record.GroupMarkerSubRecord,0.2777777777777778,0.7222222222222222,2.0,2.0,0.0,1
org.apache.poi.util.POILogFactory,0.42857142857142855,0.5714285714285714,2.0,2.0,0.0,0
org.apache.poi.hssf.record.ExtendedFormatRecord,0.43333333333333335,0.5666666666666667,4.0,6.0,0.0,1
org.apache.poi.hssf.record.formula.GreaterEqualPtg,0.3924050632911392,0.6075949367088608,3.0,3.0,0.0,1
org.apache.poi.hpsf.NoSingleSectionException,0.5,0.5,2.0,2.0,0.0,0
org.apache.poi.hssf.usermodel.HSSFSimpleShape,0.6071428571428571,0.39285714285714285,3.0,5.0,18.643395035723156,0
org.apache.poi.hssf.usermodel.HSSFShape,0.5,0.5,2.0,2.0,0.0,1
org.apache.poi.hpsf.PropertySet,0.64,0.36,2.0,3.0,0.0,0
org.apache.poi.hssf.record.PaneRecord,0.32,0.68,2.0,3.0,0.0,1
org.apache.poi.util.List2d,1.0,0.0,1.0,1.0,0.0,0
org.apache.poi.hssf.usermodel.HSSFTextbox,0.5,0.5,2.0,2.0,0.0,1
org.apache.poi.hssf.model.Sheet,0.5961227786752827,0.40387722132471726,7.0,19.0,8.376699442210061,16
org.apache.poi.hssf.record.ProtectionRev4Record,0.3055555555555556,0.6944444444444444,2.0,3.0,0.0,1
org.apache.poi.hssf.record.TickRecord,0.46938775510204084,0.5306122448979592,2.0,4.0,0.0,1
org.apache.poi.hssf.record.StyleRecord,0.39215686274509803,0.6078431372549019,2.0,4.0,0.0,2
org.apache.poi.hssf.record.formula.Area3DPtg,0.5,0.5,4.0,6.0,0.0,1
org.apache.poi.hssf.record.WSBoolRecord,0.41379310344827586,0.5862068965517241,2.0,5.0,0.0,1
org.apache.poi.hssf.record.NoteRecord,1.0,0.0,1.0,1.0,81.00000000000003,5
org.apache.poi.hssf.record.LegendRecord,0.3582089552238806,0.6417910447761194,2.0,4.0,0.0,1
org.apache.poi.hssf.record.DefaultDataLabelTextPropertiesRecord,0.27906976744186046,0.7209302325581395,2.0,3.0,0.0,1
org.apache.poi.hssf.record.SeriesListRecord,0.27906976744186046,0.7209302325581395,2.0,3.0,0.0,1
org.apache.poi.ddf.EscherRecordFactory,0.5454545454545454,0.45454545454545453,1.0,1.0,0.0,1
org.apache.poi.poifs.filesystem.POIFSFileSystem,0.5454545454545454,0.45454545454545453,1.0,1.0,0.0,3
org.apache.poi.poifs.filesystem.DirectoryNode,0.5454545454545454,0.45454545454545453,1.0,1.0,0.0,0
org.apache.poi.dev.RecordGenerator,0.7662337662337663,0.23376623376623376,2.0,2.0,0.0,0
org.apache.poi.hpsf.ClassID,0.75,0.25,2.0,3.0,0.0,0
org.apache.poi.poifs.filesystem.POIFSWriterListener,0.5454545454545454,0.45454545454545453,1.0,1.0,0.0,0
org.apache.poi.hssf.record.CategorySeriesAxisRecord,0.32727272727272727,0.6727272727272727,2.0,4.0,0.0,1
org.apache.poi.poifs.filesystem.DocumentDescriptor,0.5454545454545454,0.45454545454545453,1.0,1.0,0.0,0
org.apache.poi.hssf.record.FontIndexRecord,0.27906976744186046,0.7209302325581395,2.0,3.0,0.0,1
org.apache.poi.hssf.record.formula.LessEqualPtg,0.3142857142857143,0.6857142857142857,3.0,3.0,0.0,1
org.apache.poi.hssf.record.formula.PercentPtg,0.9532710280373832,0.04672897196261682,2.0,2.0,0.0,0
org.apache.poi.hssf.usermodel.HSSFPictureData,1.0,0.0,1.0,1.0,6.0,2
org.apache.poi.util.CommonsLogger,0.5454545454545454,0.45454545454545453,1.0,1.0,0.0,0
org.apache.poi.hssf.record.TextObjectBaseRecord,0.36764705882352944,0.6323529411764706,2.0,4.0,0.0,1
org.apache.poi.hssf.usermodel.EscherGraphics,0.5909090909090909,0.4090909090909091,3.0,4.0,0.0,1
org.apache.poi.hssf.eventmodel.ModelFactoryListener,0.5,0.5,2.0,2.0,0.0,0
org.apache.poi.poifs.storage.ListManagedBlock,0.5454545454545454,0.45454545454545453,1.0,1.0,0.0,0
org.apache.poi.hssf.record.UnknownRecord,0.5238095238095238,0.47619047619047616,3.0,5.0,0.0,9
org.apache.poi.ddf.EscherSerializationListener,0.5454545454545454,0.45454545454545453,1.0,1.0,0.0,1
org.apache.poi.hssf.record.AxisUsedRecord,0.27906976744186046,0.7209302325581395,2.0,3.0,0.0,1
org.apache.poi.hpsf.SummaryInformation,1.0,0.0,1.0,1.0,53.00000000000001,1
org.apache.poi.hssf.record.PasswordRev4Record,0.3142857142857143,0.6857142857142857,2.0,3.0,0.0,1
org.apache.poi.ddf.EscherBoolProperty,0.5333333333333333,0.4666666666666667,2.0,2.0,0.0,1
org.apache.poi.util.DoubleList,0.5454545454545454,0.45454545454545453,1.0,1.0,0.0,0
org.apache.poi.hssf.record.VCenterRecord,0.3142857142857143,0.6857142857142857,2.0,3.0,0.0,1
org.apache.poi.hssf.util.RKUtil,0.46153846153846156,0.5384615384615384,2.0,2.0,0.0,1
org.apache.poi.ddf.EscherContainerRecord,0.5454545454545454,0.45454545454545453,1.0,1.0,0.0,3
org.apache.poi.hssf.usermodel.HSSFHeader,0.4166666666666667,0.5833333333333334,2.0,2.0,0.0,1
org.apache.poi.hssf.record.formula.Ref3DPtg,0.5161290322580645,0.4838709677419355,3.0,4.0,0.0,0
org.apache.poi.hssf.record.SeriesIndexRecord,0.27906976744186046,0.7209302325581395,2.0,3.0,0.0,1
org.apache.poi.hssf.record.TextRecord,0.3978494623655914,0.6021505376344086,2.0,4.0,0.0,1
org.apache.poi.hssf.model.PictureShape,0.9647887323943662,0.035211267605633804,2.0,2.0,0.0,1
org.apache.poi.hssf.record.AreaFormatRecord,0.3392857142857143,0.6607142857142857,2.0,4.0,0.0,1
org.apache.poi.hssf.record.UseSelFSRecord,0.3142857142857143,0.6857142857142857,2.0,3.0,0.0,1
org.apache.poi.hssf.model.Workbook,0.6652719665271967,0.33472803347280333,5.0,10.0,0.0,9
org.apache.poi.hpsf.SpecialPropertySet,0.943127962085308,0.05687203791469194,2.0,2.0,0.0,0
org.apache.poi.hssf.record.DefaultColWidthRecord,0.3055555555555556,0.6944444444444444,2.0,3.0,0.0,1
org.apache.poi.hssf.usermodel.HSSFSheet,0.5862831858407079,0.413716814159292,7.0,9.0,7.58697491323592,19
org.apache.poi.hssf.eventusermodel.HSSFListener,0.5,0.5,3.0,3.0,0.0,0
org.apache.poi.hssf.record.PaletteRecord,0.45454545454545453,0.5454545454545454,4.0,5.0,0.0,1
org.apache.poi.hssf.record.SharedFormulaRecord,0.6925373134328359,0.3074626865671642,3.0,6.0,0.0,5
org.apache.poi.hssf.usermodel.HSSFDataFormat,0.5,0.5,2.0,2.0,0.0,0
org.apache.poi.util.LittleEndian,0.725,0.275,2.0,2.0,0.0,1
org.apache.poi.hssf.record.formula.UnknownPtg,0.375,0.625,3.0,3.0,0.0,0
org.apache.poi.hssf.record.Margin,0.4117647058823529,0.5882352941176471,2.0,2.0,0.0,0
org.apache.poi.hssf.record.FnGroupCountRecord,0.3142857142857143,0.6857142857142857,2.0,3.0,0.0,1
org.apache.poi.hssf.record.formula.UnaryMinusPtg,0.5263157894736842,0.47368421052631576,3.0,3.0,0.0,0
org.apache.poi.ddf.EscherChildAnchorRecord,0.5454545454545454,0.45454545454545453,1.0,1.0,0.0,1
org.apache.poi.hssf.util.AreaReference,0.5,0.5,2.0,2.0,0.0,1
org.apache.poi.hssf.record.BarRecord,0.32727272727272727,0.6727272727272727,2.0,4.0,0.0,1
org.apache.poi.hssf.record.BackupRecord,0.3142857142857143,0.6857142857142857,2.0,3.0,0.0,1
org.apache.poi.hssf.usermodel.HSSFShapeContainer,0.5,0.5,2.0,2.0,0.0,0
org.apache.poi.hssf.model.FormulaParser,0.7647058823529411,0.23529411764705882,4.0,6.0,0.0,3
org.apache.poi.hssf.record.AreaRecord,0.3125,0.6875,2.0,4.0,0.0,1
org.apache.poi.hssf.record.SeriesRecord,0.3269230769230769,0.6730769230769231,2.0,3.0,0.0,1
org.apache.poi.hssf.model.CommentShape,1.0,0.0,1.0,1.0,81.00000000000003,2
org.apache.poi.poifs.property.PropertyFactory,0.5454545454545454,0.45454545454545453,1.0,1.0,0.0,0
org.apache.poi.hssf.record.formula.NameXPtg,0.4,0.6,3.0,3.0,0.0,0
org.apache.poi.util.IntMapper,0.9523809523809523,0.047619047619047616,2.0,2.0,0.0,1
org.apache.poi.hssf.usermodel.HSSFAnchor,0.5,0.5,2.0,2.0,0.0,0
org.apache.poi.hssf.model.DrawingManager,0.047619047619047616,0.9523809523809523,2.0,3.0,0.0,0
org.apache.poi.util.ShortList,0.5454545454545454,0.45454545454545453,1.0,1.0,0.0,1
org.apache.poi.hssf.record.formula.ParenthesisPtg,0.5238095238095238,0.47619047619047616,4.0,4.0,0.0,0
org.apache.poi.poifs.storage.SmallBlockTableReader,0.5454545454545454,0.45454545454545453,1.0,1.0,0.0,2
org.apache.poi.hssf.record.HCenterRecord,0.3142857142857143,0.6857142857142857,2.0,3.0,0.0,1
org.apache.poi.hssf.record.TextObjectRecord,0.46875,0.53125,3.0,5.0,0.0,3
org.apache.poi.util.IntList,0.5454545454545454,0.45454545454545453,1.0,1.0,0.0,1
org.apache.poi.hssf.record.EscherAggregate,0.7543859649122807,0.24561403508771928,3.0,4.0,18.643395035723156,4
org.apache.poi.ddf.EscherBlipRecord,0.08071135430916553,0.9192886456908345,3.0,3.0,0.0,3
org.apache.poi.hssf.record.HideObjRecord,0.3142857142857143,0.6857142857142857,2.0,3.0,0.0,1
org.apache.poi.hssf.record.DefaultRowHeightRecord,0.3157894736842105,0.6842105263157895,2.0,3.0,0.0,1
org.apache.poi.poifs.filesystem.EntryNode,0.4,0.6,2.0,2.0,0.0,0
org.apache.poi.hssf.record.formula.RangePtg,0.9468085106382979,0.05319148936170213,2.0,2.0,0.0,0
org.apache.poi.util.FixedField,0.5454545454545454,0.45454545454545453,1.0,1.0,0.0,0
org.apache.poi.hssf.record.ProtectRecord,0.3142857142857143,0.6857142857142857,2.0,3.0,0.0,1
org.apache.poi.hssf.record.SubRecord,0.6065573770491803,0.39344262295081966,4.0,4.0,20.638743769502355,2
org.apache.poi.hssf.record.AxisOptionsRecord,0.37333333333333335,0.6266666666666667,2.0,4.0,0.0,1
org.apache.poi.poifs.storage.BlockListImpl,0.5454545454545454,0.45454545454545453,1.0,1.0,0.0,3
org.apache.poi.hpsf.wellknown.PropertyIDMap,0.7887323943661971,0.2112676056338028,2.0,3.0,0.0,0
org.apache.poi.hssf.record.formula.ReferencePtg,0.42424242424242425,0.5757575757575758,3.0,4.0,0.0,1
org.apache.poi.hssf.record.TabIdRecord,0.3157894736842105,0.6842105263157895,2.0,3.0,0.0,1
org.apache.poi.hpsf.VariantTypeException,0.5454545454545454,0.45454545454545453,1.0,1.0,0.0,0
