name,0,1,2,3,4,bug
org.apache.xalan.xsltc.compiler.FilterExpr,0.34459459459459457,0.6554054054054054,2.0,3.0,29.120439557122072,1
org.apache.xpath.operations.Operation,0.04180064308681672,0.9581993569131833,2.0,2.0,41.665333311999305,1
org.apache.xalan.xsltc.runtime.BasisLibrary,0.6724137931034483,0.3275862068965517,4.0,6.0,15.45955717155684,3
org.apache.xpath.objects.XString,0.0,1.0,1.0,1.0,68.00000000000001,3
org.apache.xalan.xsltc.StripFilter,0.22972972972972974,0.7702702702702703,1.0,1.0,53.00000000000001,0
org.apache.xml.serializer.Serializer,0.203125,0.796875,1.0,1.0,62.00000000000001,1
org.apache.xalan.xsltc.compiler.util.ErrorMessages_cs,0.834319526627219,0.16568047337278108,2.0,2.0,28.195744359743372,1
org.apache.xml.utils.XMLStringFactoryDefault,0.203125,0.796875,1.0,1.0,62.00000000000001,0
org.apache.xml.dtm.ref.ChunkedIntArray,0.203125,0.796875,1.0,1.0,53.00000000000001,0
org.apache.xalan.transformer.XalanProperties,0.1037037037037037,0.8962962962962963,2.0,3.0,38.52272056851645,0
org.apache.xml.serializer.ElemDesc,0.23880597014925373,0.7611940298507462,1.0,2.0,62.00000000000001,1
org.apache.xalan.xsltc.runtime.Operators,0.22972972972972974,0.7702702702702703,1.0,1.0,53.00000000000001,1
org.apache.xpath.objects.XMLStringFactoryImpl,0.06896551724137931,0.9310344827586207,2.0,3.0,41.665333311999305,1
org.apache.xalan.trace.TraceListenerEx2,0.22058823529411764,0.7794117647058824,1.0,3.0,53.00000000000001,0
org.apache.xalan.xsltc.cmdline.SecuritySupport,1.0,0.0,1.0,1.0,6.0,0
org.apache.xalan.xsltc.dom.AnyNodeCounter,0.22972972972972974,0.7702702702702703,1.0,1.0,53.00000000000001,1
org.apache.xalan.trace.ExtensionEvent,0.7,0.3,2.0,2.0,14.560219778561036,0
org.apache.xalan.xsltc.compiler.util.RtMethodGenerator,0.20833333333333334,0.7916666666666666,1.0,1.0,53.00000000000001,0
org.apache.xalan.xsltc.compiler.util.ObjectType,0.27,0.73,5.0,7.0,14.778854730846728,0
org.apache.xpath.WhitespaceStrippingElementMatcher,0.08974358974358974,0.9102564102564102,2.0,2.0,41.665333311999305,0
org.apache.xalan.xsltc.compiler.BinOpExpr,0.3522727272727273,0.6477272727272727,1.0,3.0,53.00000000000001,0
org.apache.xalan.xsltc.compiler.UnaryOpExpr,0.22972972972972974,0.7702702702702703,1.0,1.0,53.00000000000001,0
org.apache.xpath.functions.Function,0.05714285714285714,0.9428571428571428,2.0,3.0,41.665333311999305,1
org.apache.xalan.xsltc.cmdline.ObjectFactory,1.0,0.0,1.0,1.0,6.0,0
org.apache.xml.utils.PrefixResolver,0.21212121212121213,0.7878787878787878,1.0,2.0,62.00000000000001,0
org.apache.xalan.xsltc.compiler.DecimalFormatting,0.3888888888888889,0.6111111111111112,2.0,3.0,43.63484845854285,1
org.apache.xalan.extensions.ExtensionHandlerJavaPackage,0.10057471264367816,0.8994252873563219,3.0,4.0,17.5441064292772,3
org.apache.xalan.xsltc.dom.AbsoluteIterator,0.20833333333333334,0.7916666666666666,1.0,1.0,53.00000000000001,0
org.apache.xml.utils.XMLStringFactory,0.203125,0.796875,1.0,1.0,62.00000000000001,0
org.apache.xalan.xsltc.compiler.NamespaceUriCall,0.2222222222222222,0.7777777777777778,1.0,1.0,53.00000000000001,0
org.apache.xalan.templates.ElemComment,0.05533596837944664,0.9446640316205533,2.0,3.0,38.52272056851645,2
org.apache.xalan.xsltc.compiler.Sort,0.354978354978355,0.645021645021645,3.0,4.0,26.70272898738243,2
org.apache.xpath.res.XPATHErrorResources,0.5286274509803922,0.47137254901960784,3.0,6.0,27.515473385643215,6
org.apache.xalan.templates.ElemElement,0.03502626970227671,0.9649737302977233,3.0,5.0,19.674738937834913,2
org.apache.xpath.axes.MatchPatternIterator,0.030303030303030304,0.9696969696969697,2.0,2.0,41.665333311999305,2
org.apache.xpath.axes.HasPositionalPredChecker,0.05803571428571429,0.9419642857142857,2.0,2.0,41.665333311999305,0
org.apache.xalan.xsltc.compiler.util.BooleanType,0.24,0.76,2.0,2.0,29.120439557122072,0
org.apache.xalan.xsltc.compiler.util.NodeCounterGenerator,0.20833333333333334,0.7916666666666666,1.0,1.0,53.00000000000001,0
org.apache.xalan.xsltc.runtime.Constants,0.5461538461538461,0.45384615384615384,5.0,7.0,17.283448209051592,0
org.apache.xpath.functions.WrongNumberArgsException,0.09722222222222222,0.9027777777777778,2.0,3.0,41.665333311999305,0
org.apache.xalan.xsltc.runtime.output.TransletOutputHandlerFactory,0.2222222222222222,0.7777777777777778,1.0,1.0,53.00000000000001,0
org.apache.xalan.xsltc.compiler.TopLevelElement,0.19402985074626866,0.8059701492537313,1.0,1.0,53.00000000000001,0
org.apache.xml.utils.synthetic.TestDriver,0.22058823529411764,0.7794117647058824,1.0,2.0,62.00000000000001,0
org.apache.xalan.xsltc.compiler.XslAttribute,0.6352459016393442,0.36475409836065575,3.0,4.0,30.56699418689837,1
org.apache.xalan.templates.ElemExtensionCall,0.053691275167785234,0.9463087248322147,3.0,6.0,18.10636610513507,3
org.apache.xml.utils.res.XResources_zh_TW,0.2564102564102564,0.7435897435897436,2.0,5.0,27.27636339397172,1
org.apache.xalan.processor.ProcessorLRE,0.03076923076923077,0.9692307692307692,2.0,3.0,36.74234614174768,3
org.apache.xpath.axes.FilterExprIterator,0.043343653250773995,0.9566563467492261,2.0,2.0,41.665333311999305,1
org.apache.xalan.processor.ProcessorStylesheetDoc,0.10606060606060606,0.8939393939393939,2.0,3.0,36.74234614174768,0
org.apache.xpath.res.XPATHMessages,0.0,1.0,1.0,1.0,7.999999999999998,1
org.apache.xalan.templates.ElemTemplateElement,0.08434909800097513,0.9156509019990249,4.0,9.0,17.387095733418473,1
org.apache.xalan.xsltc.compiler.Expression,0.03765690376569038,0.9623430962343096,3.0,6.0,27.515473385643215,0
org.apache.xml.utils.IntStack,0.21212121212121213,0.7878787878787878,1.0,2.0,62.00000000000001,0
org.apache.xalan.xsltc.compiler.LastCall,0.22972972972972974,0.7702702702702703,1.0,1.0,53.00000000000001,0
org.apache.xalan.client.XSLTProcessorApplet,0.22058823529411764,0.7794117647058824,1.0,3.0,49.99999999999999,1
org.apache.xml.dtm.ref.CoroutineManager,0.21212121212121213,0.7878787878787878,1.0,2.0,53.00000000000001,1
org.apache.xalan.xslt.Process,0.2638888888888889,0.7361111111111112,6.0,12.0,11.20854927474381,2
org.apache.xml.serializer.ExtendedLexicalHandler,0.20634920634920634,0.7936507936507936,1.0,1.0,62.00000000000001,0
org.apache.xpath.functions.FuncStringLength,0.0945945945945946,0.9054054054054054,2.0,3.0,41.665333311999305,0
org.apache.xalan.xsltc.dom.NodeSortRecord,0.44528301886792454,0.5547169811320755,7.0,8.0,13.04790966395465,0
org.apache.xalan.xsltc.compiler.LiteralAttribute,0.6052631578947368,0.39473684210526316,2.0,2.0,28.195744359743372,0
org.apache.xalan.processor.ProcessorOutputElem,0.040372670807453416,0.9596273291925466,2.0,2.0,36.74234614174768,0
org.apache.xml.utils.IntVector,0.21212121212121213,0.7878787878787878,1.0,2.0,62.00000000000001,1
org.apache.xalan.xsltc.compiler.UnionPathExpr,0.22972972972972974,0.7702702702702703,1.0,1.0,53.00000000000001,1
org.apache.xalan.templates.TemplateSubPatternAssociation,0.03735632183908046,0.9626436781609196,2.0,2.0,38.52272056851645,0
org.apache.xalan.xsltc.compiler.Attribute,0.22972972972972974,0.7702702702702703,1.0,1.0,53.00000000000001,0
org.apache.xalan.xsltc.runtime.ErrorMessages_ca,0.834319526627219,0.16568047337278108,2.0,2.0,28.195744359743372,1
org.apache.xml.utils.XMLString,0.203125,0.796875,1.0,1.0,62.00000000000001,1
org.apache.xalan.res.XSLTErrorResources_ca,0.9802248933695231,0.019775106630476928,2.0,2.0,28.195744359743372,1
org.apache.xml.utils.NodeConsumer,0.203125,0.796875,1.0,1.0,62.00000000000001,0
org.apache.xml.dtm.ref.CoroutineParser,0.24,0.76,2.0,2.0,21.84032966784156,0
org.apache.xalan.xsltc.compiler.Otherwise,0.22972972972972974,0.7702702702702703,1.0,1.0,53.00000000000001,0
org.apache.xalan.xsltc.compiler.Variable,0.2727272727272727,0.7272727272727273,2.0,3.0,43.63484845854285,0
org.apache.xpath.XPathVisitable,0.09154929577464789,0.9084507042253521,2.0,2.0,41.665333311999305,0
org.apache.xpath.res.XPATHErrorResources_hu,0.4932336182336182,0.5067663817663818,3.0,4.0,29.640145187339392,2
org.apache.xpath.functions.FuncCount,0.08484848484848485,0.9151515151515152,2.0,3.0,41.665333311999305,0
org.apache.xalan.xsltc.runtime.StringValueHandler,0.23684210526315788,0.7631578947368421,1.0,1.0,53.00000000000001,0
org.apache.xalan.res.XSLTErrorResources_cs,0.9802248933695231,0.019775106630476928,2.0,2.0,28.195744359743372,1
org.apache.xml.utils.CharKey,0.22058823529411764,0.7794117647058824,1.0,2.0,62.00000000000001,1
org.apache.xalan.lib.ExsltDatetime,0.013125512715340444,0.9868744872846595,2.0,4.0,36.74234614174768,2
org.apache.xalan.xsltc.compiler.util.Type,0.23684210526315788,0.7631578947368421,1.0,1.0,53.00000000000001,0
org.apache.xalan.templates.ElemTextLiteral,0.041916167664670656,0.9580838323353293,2.0,3.0,38.52272056851645,2
org.apache.xalan.xsltc.dom.DOMBuilder,0.5254777070063694,0.4745222929936306,2.0,8.0,27.27636339397172,0
org.apache.xalan.xsltc.dom.MatchingIterator,0.20833333333333334,0.7916666666666666,1.0,1.0,53.00000000000001,0
org.apache.xalan.xsltc.compiler.util.TestGenerator,0.23684210526315788,0.7631578947368421,1.0,1.0,53.00000000000001,0
org.apache.xalan.processor.ProcessorInclude,0.04071246819338423,0.9592875318066157,3.0,5.0,23.811015779523,1
org.apache.xml.utils.WrongParserException,0.21212121212121213,0.7878787878787878,1.0,2.0,62.00000000000001,0
org.apache.xalan.lib.ExsltCommon,0.07547169811320754,0.9245283018867925,2.0,4.0,36.74234614174768,1
org.apache.xpath.res.XPATHErrorResources_it,0.6863130320890635,0.3136869679109365,4.0,7.0,23.643161919356334,2
org.apache.xalan.xsltc.compiler.ParentLocationPath,0.22972972972972974,0.7702702702702703,1.0,1.0,53.00000000000001,2
org.apache.xalan.xsltc.compiler.AbsolutePathPattern,0.22972972972972974,0.7702702702702703,1.0,1.0,53.00000000000001,0
org.apache.xml.serializer.SerializerTraceWriter,0.2153846153846154,0.7846153846153846,1.0,1.0,62.00000000000001,0
org.apache.xalan.serialize.DOMSerializer,0.203125,0.796875,1.0,1.0,62.00000000000001,0
org.apache.xalan.xsltc.dom.MultiDOM,0.3877551020408163,0.6122448979591837,3.0,5.0,28.13034466328843,1
org.apache.xpath.operations.Number,0.25609756097560976,0.7439024390243902,2.0,3.0,43.63484845854285,0
org.apache.xml.serializer.SerializerFactory,0.2972972972972973,0.7027027027027027,4.0,7.0,14.488418416598511,2
org.apache.xpath.res.XPATHErrorResources_ko,0.6964909828044177,0.30350901719558226,4.0,7.0,23.643161919356334,2
org.apache.xpath.axes.FilterExprIteratorSimple,0.030805687203791468,0.9691943127962085,2.0,2.0,41.665333311999305,1
org.apache.xalan.templates.FuncDocument,0.04560810810810811,0.9543918918918919,3.0,7.0,26.113898734959683,0
org.apache.xpath.objects.XStringForFSB,0.011926605504587157,0.9880733944954129,2.0,2.0,41.665333311999305,2
org.apache.xpath.functions.FuncRound,0.09395973154362416,0.9060402684563759,2.0,3.0,41.665333311999305,0
org.apache.xalan.extensions.MethodResolver,0.011882998171846435,0.9881170018281535,2.0,2.0,36.74234614174768,1
org.apache.xml.utils.RawCharacterHandler,0.21212121212121213,0.7878787878787878,1.0,2.0,62.00000000000001,0
org.apache.xalan.lib.sql.XConnection,0.01783166904422254,0.9821683309557775,2.0,2.0,18.165902124584957,2
org.apache.xml.res.XMLErrorResources_cs,0.916256157635468,0.08374384236453201,2.0,2.0,30.495901363953806,1
org.apache.xalan.xsltc.compiler.Instruction,0.22972972972972974,0.7702702702702703,1.0,1.0,53.00000000000001,0
org.apache.xalan.processor.ProcessorText,0.07065217391304347,0.9293478260869565,2.0,2.0,36.74234614174768,1
org.apache.xalan.transformer.NodeSorter,0.022123893805309734,0.9778761061946902,2.0,3.0,38.52272056851645,0
org.apache.xalan.xsltc.compiler.util.ErrorMessages,0.6153846153846154,0.38461538461538464,3.0,5.0,25.781201377318773,3
org.apache.xpath.res.XPATHErrorResources_ca,0.4932336182336182,0.5067663817663818,3.0,4.0,29.640145187339392,2
org.apache.xalan.xsltc.compiler.Comment,0.4810126582278481,0.5189873417721519,2.0,2.0,38.52272056851645,0
org.apache.xalan.xsltc.trax.SmartTransformerFactoryImpl,0.23577235772357724,0.7642276422764228,4.0,6.0,14.488418416598511,1
org.apache.xalan.xsltc.compiler.Fallback,0.2222222222222222,0.7777777777777778,1.0,1.0,53.00000000000001,0
org.apache.xalan.templates.XUnresolvedVariableSimple,0.0,1.0,1.0,1.0,7.999999999999998,0
org.apache.xml.res.XMLErrorResources_ca,0.916256157635468,0.08374384236453201,2.0,2.0,30.495901363953806,1
org.apache.xml.utils.ThreadControllerWrapper,0.21212121212121213,0.7878787878787878,1.0,1.0,62.00000000000001,2
org.apache.xpath.res.XPATHErrorResources_zh_CN,0.6976351351351351,0.30236486486486486,4.0,7.0,23.643161919356334,2
org.apache.xml.res.XMLErrorResources_zh_CN,0.4158730158730159,0.5841269841269842,2.0,2.0,30.495901363953806,1
org.apache.xalan.xsltc.compiler.PositionCall,0.26744186046511625,0.7325581395348837,2.0,2.0,29.120439557122072,0
org.apache.xpath.axes.ContextNodeList,0.058823529411764705,0.9411764705882353,2.0,3.0,41.665333311999305,0
org.apache.xalan.templates.ElemVariablePsuedo,0.07692307692307693,0.9230769230769231,2.0,2.0,38.52272056851645,1
org.apache.xpath.res.XPATHErrorResources_de,0.6974576271186441,0.30254237288135594,4.0,7.0,23.643161919356334,2
org.apache.xalan.templates.XSLTVisitor,0.05701754385964912,0.9429824561403509,2.0,2.0,38.52272056851645,1
org.apache.xalan.extensions.ExtensionHandlerJava,0.06930693069306931,0.9306930693069307,2.0,3.0,36.74234614174768,0
org.apache.xalan.xsltc.compiler.DocumentCall,0.39855072463768115,0.6014492753623188,3.0,3.0,28.742064602612757,0
org.apache.xalan.xsltc.compiler.CurrentCall,0.22972972972972974,0.7702702702702703,1.0,1.0,53.00000000000001,0
org.apache.xml.dtm.Axis,0.23684210526315788,0.7631578947368421,1.0,1.0,53.00000000000001,1
org.apache.xalan.xsltc.compiler.CeilingCall,0.22972972972972974,0.7702702702702703,1.0,1.0,53.00000000000001,0
org.apache.xalan.xsltc.runtime.CallFunction,1.0,0.0,1.0,1.0,6.0,0
org.apache.xpath.compiler.SecuritySupport12,1.0,0.0,2.0,4.0,8.48528137423857,1
org.apache.xml.dtm.ref.IncrementalSAXSource_Filter,0.203125,0.796875,1.0,1.0,53.00000000000001,0
org.apache.xalan.templates.ElemOtherwise,0.08860759493670886,0.9113924050632911,2.0,3.0,38.52272056851645,0
org.apache.xalan.trace.TracerEvent,0.22058823529411764,0.7794117647058824,1.0,3.0,53.00000000000001,1
org.apache.xpath.domapi.XPathExpressionImpl,0.04878048780487805,0.9512195121951219,2.0,3.0,41.665333311999305,1
org.apache.xalan.processor.ProcessorKey,0.050980392156862744,0.9490196078431372,2.0,2.0,36.74234614174768,0
org.apache.xalan.trace.TraceListenerEx,0.22058823529411764,0.7794117647058824,1.0,3.0,53.00000000000001,0
org.apache.xml.res.XMLErrorResources_en,0.21212121212121213,0.7878787878787878,1.0,2.0,62.00000000000001,0
org.apache.xalan.xsltc.runtime.ErrorMessages_fr,0.834319526627219,0.16568047337278108,2.0,2.0,28.195744359743372,1
org.apache.xpath.objects.XRTreeFragSelectWrapper,0.05343511450381679,0.9465648854961832,2.0,2.0,41.665333311999305,0
org.apache.xpath.functions.FuncPosition,0.059574468085106386,0.9404255319148936,2.0,3.0,41.665333311999305,0
org.apache.xalan.transformer.KeyRefIterator,0.054945054945054944,0.945054945054945,2.0,3.0,38.52272056851645,1
org.apache.xml.dtm.DTM,0.30666666666666664,0.6933333333333334,2.0,3.0,28.195744359743372,1
org.apache.xalan.processor.ProcessorPreserveSpace,0.07344632768361582,0.9265536723163842,2.0,2.0,36.74234614174768,0
org.apache.xalan.xsltc.cmdline.getopt.IllegalArgumentException,0.19402985074626866,0.8059701492537313,1.0,1.0,53.00000000000001,0
org.apache.xpath.operations.Plus,0.0783132530120482,0.9216867469879518,2.0,2.0,41.665333311999305,0
org.apache.xalan.xsltc.runtime.output.OutputBuffer,0.2222222222222222,0.7777777777777778,1.0,1.0,53.00000000000001,0
org.apache.xalan.xsltc.util.IntegerArray,0.2222222222222222,0.7777777777777778,1.0,1.0,53.00000000000001,0
org.apache.xalan.templates.ElemCopy,0.056,0.944,2.0,3.0,38.52272056851645,2
org.apache.xml.res.XMLErrorResources_es,0.46979038224414305,0.530209617755857,2.0,2.0,30.495901363953806,1
org.apache.xalan.extensions.ExtensionHandler,0.08333333333333333,0.9166666666666666,5.0,8.0,16.52906889971813,1
org.apache.xml.utils.synthetic.Class,0.21212121212121213,0.7878787878787878,1.0,2.0,62.00000000000001,0
org.apache.xml.dtm.ref.NodeLocator,0.20634920634920634,0.7936507936507936,1.0,1.0,53.00000000000001,0
org.apache.xalan.xsltc.dom.AdaptiveResultTreeImpl,0.25,0.75,2.0,3.0,38.52272056851645,0
org.apache.xml.dtm.DTMFilter,0.203125,0.796875,1.0,1.0,53.00000000000001,0
org.apache.xml.utils.StringToStringTableVector,0.21212121212121213,0.7878787878787878,1.0,2.0,62.00000000000001,0
org.apache.xalan.extensions.ExtensionHandlerExsltFunction,0.09762532981530343,0.9023746701846965,2.0,3.0,36.74234614174768,1
org.apache.xml.dtm.ref.IncrementalSAXSource_Xerces,0.3058823529411765,0.6941176470588235,4.0,6.0,14.488418416598511,1
org.apache.xalan.transformer.NodeSortKey,0.06060606060606061,0.9393939393939394,2.0,3.0,38.52272056851645,0
org.apache.xpath.res.XPATHErrorResources_sk,0.4932336182336182,0.5067663817663818,3.0,4.0,29.640145187339392,2
org.apache.xalan.xsltc.runtime.ErrorMessages_de,0.834319526627219,0.16568047337278108,2.0,2.0,28.195744359743372,1
org.apache.xalan.xsltc.compiler.ParameterRef,0.3826086956521739,0.6173913043478261,2.0,3.0,29.120439557122072,0
org.apache.xalan.xsltc.compiler.util.MultiHashtable,0.22972972972972974,0.7702702702702703,1.0,1.0,53.00000000000001,0
org.apache.xpath.functions.FuncExtFunctionAvailable,0.07329842931937172,0.9267015706806283,2.0,3.0,41.665333311999305,1
org.apache.xpath.res.XPATHErrorResources_fr,0.6968421052631579,0.3031578947368421,4.0,7.0,23.643161919356334,2
org.apache.xalan.xsltc.compiler.TransletOutput,0.2222222222222222,0.7777777777777778,1.0,1.0,53.00000000000001,1
org.apache.xalan.lib.Extensions,0.09060402684563758,0.9093959731543624,5.0,9.0,16.52906889971813,1
org.apache.xml.serializer.ToHTMLStream,0.5294797687861271,0.4705202312138728,2.0,24.0,16.248076809271918,5
org.apache.xalan.templates.AVTPartXPath,0.05555555555555555,0.9444444444444444,2.0,3.0,38.52272056851645,1
org.apache.xalan.transformer.TransformerImpl,0.038135593220338986,0.961864406779661,5.0,10.0,17.92530862592611,6
org.apache.xpath.operations.UnaryOperation,0.04961832061068702,0.950381679389313,2.0,2.0,41.665333311999305,1
org.apache.xalan.xsltc.compiler.StepPattern,0.012131715771230503,0.9878682842287695,2.0,3.0,41.665333311999305,2
org.apache.xpath.objects.XObject,0.0,1.0,1.0,1.0,68.00000000000001,1
org.apache.xalan.transformer.TransformSnapshot,0.1037037037037037,0.8962962962962963,2.0,2.0,38.52272056851645,0
org.apache.xml.utils.SystemIDResolver,0.21212121212121213,0.7878787878787878,1.0,2.0,62.00000000000001,0
org.apache.xpath.functions.FunctionDef1Arg,0.05223880597014925,0.9477611940298507,2.0,3.0,41.665333311999305,0
org.apache.xalan.xsltc.compiler.util.NamedMethodGenerator,0.20833333333333334,0.7916666666666666,1.0,1.0,53.00000000000001,1
org.apache.xalan.res.XSLTErrorResources_zh_CN,0.8723514211886305,0.1276485788113695,3.0,5.0,21.208801376967465,1
org.apache.xpath.axes.DescendantIterator,0.030800821355236138,0.9691991786447639,2.0,4.0,41.665333311999305,1
org.apache.xalan.xsltc.compiler.Stylesheet,0.0,1.0,1.0,1.0,68.00000000000001,0
org.apache.xalan.templates.XMLNSDecl,0.06989247311827956,0.9301075268817204,2.0,2.0,38.52272056851645,0
org.apache.xalan.xsltc.dom.LoadDocument,0.2623574144486692,0.7376425855513308,4.0,5.0,21.156407200595247,0
org.apache.xpath.functions.FuncSystemProperty,0.0784313725490196,0.9215686274509803,4.0,8.0,19.241984484272834,2
org.apache.xalan.xsltc.compiler.AttributeValue,0.22972972972972974,0.7702702702702703,1.0,1.0,53.00000000000001,0
org.apache.xalan.xsltc.cmdline.Compile,0.2,0.8,1.0,1.0,62.00000000000001,1
org.apache.xalan.xsltc.dom.FilteredStepIterator,0.21621621621621623,0.7837837837837838,1.0,1.0,53.00000000000001,0
org.apache.xalan.transformer.XSLInfiniteLoopException,0.09271523178807947,0.9072847682119205,2.0,3.0,38.52272056851645,0
org.apache.xalan.templates.NamespaceAlias,0.22972972972972974,0.7702702702702703,1.0,1.0,53.00000000000001,0
org.apache.xalan.xsltc.compiler.ContainsCall,0.23684210526315788,0.7631578947368421,1.0,1.0,53.00000000000001,0
org.apache.xml.res.XMLErrorResources_it,0.42067553735926305,0.579324462640737,2.0,2.0,30.495901363953806,1
org.apache.xalan.xsltc.dom.CollatorFactoryBase,0.2222222222222222,0.7777777777777778,1.0,1.0,53.00000000000001,0
org.apache.xml.res.XMLErrorResources_ja,0.38996929375639716,0.6100307062436029,2.0,2.0,30.495901363953806,1
org.apache.xml.serializer.SerializerTrace,0.203125,0.796875,1.0,1.0,62.00000000000001,0
org.apache.xalan.templates.ElemLiteralResult,0.15514018691588785,0.8448598130841122,3.0,7.0,18.10636610513507,3
org.apache.xalan.processor.XSLTElementDef,0.013978494623655914,0.986021505376344,2.0,2.0,36.74234614174768,0
org.apache.xalan.xsltc.compiler.Pattern,0.22972972972972974,0.7702702702702703,1.0,1.0,53.00000000000001,1
org.apache.xalan.xsltc.compiler.ArgumentList,0.22972972972972974,0.7702702702702703,1.0,1.0,53.00000000000001,0
org.apache.xml.res.XMLErrorResources_de,0.47022332506203474,0.5297766749379652,2.0,2.0,30.495901363953806,1
org.apache.xalan.xsltc.compiler.StringCall,0.23684210526315788,0.7631578947368421,2.0,2.0,29.120439557122072,0
org.apache.xalan.xsltc.compiler.Template,0.5247933884297521,0.47520661157024796,4.0,5.0,25.999772413944005,1
org.apache.xml.utils.res.XResources_sv,0.8720379146919431,0.12796208530805686,2.0,5.0,27.27636339397172,1
org.apache.xml.utils.UnImplNode,0.28888888888888886,0.7111111111111111,2.0,5.0,27.27636339397172,1
org.apache.xpath.functions.FuncNamespace,0.0782122905027933,0.9217877094972067,2.0,3.0,41.665333311999305,0
org.apache.xml.serializer.TransformStateSetter,0.203125,0.796875,1.0,1.0,62.00000000000001,1
org.apache.xpath.compiler.FunctionTable,0.03359173126614987,0.9664082687338501,2.0,2.0,41.665333311999305,2
org.apache.xalan.processor.ProcessorGlobalVariableDecl,0.07386363636363637,0.9261363636363636,2.0,2.0,36.74234614174768,0
org.apache.xalan.xsltc.compiler.WithParam,0.48,0.52,3.0,3.0,23.343306394334245,1
org.apache.xpath.axes.WalkerFactory,0.007743933918430563,0.9922560660815695,2.0,3.0,41.665333311999305,2
org.apache.xpath.axes.SubContextList,0.09090909090909091,0.9090909090909091,2.0,3.0,41.665333311999305,0
org.apache.xml.dtm.ref.DTMChildIterNodeList,0.203125,0.796875,1.0,1.0,53.00000000000001,1
org.apache.xalan.templates.ElemNumber,0.006137658921525646,0.9938623410784744,2.0,3.0,38.52272056851645,4
org.apache.xpath.compiler.OpCodes,0.0705596107055961,0.9294403892944039,2.0,3.0,41.665333311999305,0
org.apache.xalan.xsltc.compiler.ApplyTemplates,0.3076923076923077,0.6923076923076923,3.0,5.0,31.23170128711883,1
org.apache.xml.dtm.ref.DTMSafeStringPool,0.203125,0.796875,1.0,1.0,53.00000000000001,0
org.apache.xpath.compiler.XPathParser,0.01050080775444265,0.9894991922455574,3.0,6.0,27.515473385643215,4
org.apache.xml.utils.NameSpace,0.21212121212121213,0.7878787878787878,1.0,2.0,62.00000000000001,0
org.apache.xpath.operations.Bool,0.07784431137724551,0.9221556886227545,2.0,2.0,41.665333311999305,0
org.apache.xalan.xsltc.compiler.ConcatCall,0.22972972972972974,0.7702702702702703,1.0,1.0,53.00000000000001,0
org.apache.xalan.lib.Redirect,0.024253731343283583,0.9757462686567164,2.0,2.0,36.74234614174768,0
org.apache.xalan.res.XSLTErrorResources_pl,0.9802248933695231,0.019775106630476928,2.0,2.0,28.195744359743372,1
org.apache.xalan.xsltc.compiler.Whitespace,0.2222222222222222,0.7777777777777778,1.0,1.0,53.00000000000001,0
org.apache.xalan.transformer.ClonerToResultTree,0.044585987261146494,0.9554140127388535,2.0,3.0,38.52272056851645,0
org.apache.xml.utils.PrefixResolverDefault,0.21212121212121213,0.7878787878787878,1.0,2.0,62.00000000000001,1
org.apache.xalan.lib.ExsltStrings,0.10583941605839416,0.8941605839416058,2.0,4.0,36.74234614174768,0
org.apache.xalan.xsltc.compiler.SourceLoader,0.2222222222222222,0.7777777777777778,1.0,1.0,53.00000000000001,0
org.apache.xml.utils.SuballocatedByteVector,0.21212121212121213,0.7878787878787878,1.0,2.0,62.00000000000001,1
org.apache.xpath.operations.Lte,0.08783783783783784,0.9121621621621622,2.0,2.0,41.665333311999305,0
org.apache.xalan.xsltc.compiler.LocationPathPattern,0.23684210526315788,0.7631578947368421,1.0,1.0,53.00000000000001,1
org.apache.xalan.templates.ElemTemplate,0.026717557251908396,0.9732824427480916,2.0,3.0,38.52272056851645,2
org.apache.xml.utils.ObjectPool,0.2318840579710145,0.7681159420289855,2.0,3.0,23.62202362203543,0
org.apache.xalan.lib.NodeInfo,0.037463976945244955,0.962536023054755,2.0,2.0,36.74234614174768,1
org.apache.xml.serializer.ToUnknownStream,0.4375,0.5625,1.0,5.0,62.00000000000001,3
org.apache.xalan.xsltc.compiler.util.ResultTreeType,0.4,0.6,2.0,3.0,38.52272056851645,1
org.apache.xalan.xsltc.dom.SingleNodeCounter,0.22972972972972974,0.7702702702702703,1.0,1.0,53.00000000000001,2
org.apache.xalan.xsltc.compiler.IdKeyPattern,0.22972972972972974,0.7702702702702703,1.0,1.0,53.00000000000001,0
org.apache.xpath.CachedXPathAPI,0.030373831775700934,0.969626168224299,2.0,2.0,41.665333311999305,2
org.apache.xalan.extensions.ExtensionHandlerGeneral,0.0946843853820598,0.9053156146179402,5.0,8.0,16.52906889971813,1
org.apache.xalan.templates.ElemExtensionScript,0.06862745098039216,0.9313725490196079,2.0,3.0,38.52272056851645,0
org.apache.xpath.axes.WalkingIterator,0.03821656050955414,0.9617834394904459,2.0,3.0,41.665333311999305,1
org.apache.xalan.xsltc.compiler.util.ErrorMessages_hu,0.834319526627219,0.16568047337278108,2.0,2.0,28.195744359743372,1
org.apache.xpath.functions.FuncQname,0.08536585365853659,0.9146341463414634,2.0,3.0,41.665333311999305,0
org.apache.xalan.lib.sql.SQLQueryParser,0.02909090909090909,0.9709090909090909,3.0,3.0,15.939878537739165,0
org.apache.xalan.xsltc.DOM,0.25316455696202533,0.7468354430379747,3.0,4.0,28.13034466328843,0
org.apache.xalan.xsltc.compiler.RelativeLocationPath,0.22972972972972974,0.7702702702702703,1.0,1.0,53.00000000000001,0
org.apache.xml.utils.StylesheetPIHandler,0.203125,0.796875,1.0,1.0,62.00000000000001,1
org.apache.xalan.res.XSLTErrorResources_ru,0.9802248933695231,0.019775106630476928,2.0,2.0,28.195744359743372,1
org.apache.xpath.axes.NodeSequence,0.01871657754010695,0.9812834224598931,2.0,3.0,41.665333311999305,2
org.apache.xalan.xsltc.runtime.ErrorMessages_pt_BR,0.834319526627219,0.16568047337278108,2.0,2.0,28.195744359743372,1
org.apache.xalan.res.XSLTErrorResources_sk,0.9802248933695231,0.019775106630476928,2.0,2.0,28.195744359743372,1
org.apache.xalan.xsltc.trax.DOM2TO,0.2222222222222222,0.7777777777777778,1.0,1.0,53.00000000000001,0
org.apache.xalan.xsltc.compiler.util.ErrorMessages_no,0.2222222222222222,0.7777777777777778,1.0,1.0,53.00000000000001,1
org.apache.xml.utils.res.XResources_el,0.21212121212121213,0.7878787878787878,1.0,2.0,62.00000000000001,1
org.apache.xalan.xsltc.compiler.VariableRefBase,0.22972972972972974,0.7702702702702703,1.0,1.0,53.00000000000001,0
org.apache.xalan.templates.ElemCallTemplate,0.029350104821802937,0.9706498951781971,2.0,3.0,38.52272056851645,2
org.w3c.dom.xpath.XPathException,0.033816425120772944,0.966183574879227,2.0,3.0,41.665333311999305,2
org.apache.xml.utils.synthetic.SynthesisException,0.21212121212121213,0.7878787878787878,1.0,2.0,62.00000000000001,0
org.apache.xalan.xsltc.dom.Filter,0.22972972972972974,0.7702702702702703,1.0,1.0,53.00000000000001,0
org.apache.xpath.objects.XStringForChars,0.04416403785488959,0.9558359621451105,2.0,2.0,41.665333311999305,0
org.apache.xpath.axes.WalkingIteratorSorted,0.044444444444444446,0.9555555555555556,2.0,3.0,41.665333311999305,0
org.apache.xml.utils.res.XResources_fr,0.8732057416267942,0.12679425837320574,2.0,5.0,27.27636339397172,1
org.apache.xalan.xsltc.compiler.util.ErrorMsg,0.34375,0.65625,4.0,6.0,20.345921445239302,2
org.apache.xalan.xsltc.trax.TrAXFilter,0.3434343434343434,0.6565656565656566,2.0,2.0,38.52272056851645,1
org.apache.xalan.res.XSLTErrorResources_zh_TW,0.8724152724152724,0.12758472758472758,2.0,4.0,1.7320508075688774,1
org.apache.xml.res.XMLMessages,0.21212121212121213,0.7878787878787878,1.0,2.0,62.00000000000001,2
org.apache.xalan.xsltc.dom.SingletonIterator,0.22972972972972974,0.7702702702702703,1.0,1.0,53.00000000000001,0
org.apache.xml.dtm.DTMAxisIterator,0.203125,0.796875,1.0,1.0,53.00000000000001,0
org.apache.xalan.lib.sql.QueryParameter,0.04627249357326478,0.9537275064267352,2.0,3.0,36.74234614174768,0
org.apache.xalan.xsltc.compiler.If,0.23684210526315788,0.7631578947368421,1.0,1.0,53.00000000000001,0
org.apache.xalan.processor.WhitespaceInfoPaths,0.0718232044198895,0.9281767955801105,2.0,2.0,36.74234614174768,0
org.apache.xml.utils.res.XResources_he,0.21212121212121213,0.7878787878787878,1.0,2.0,62.00000000000001,1
org.apache.xalan.xsltc.compiler.CastExpr,0.27380952380952384,0.7261904761904762,2.0,3.0,29.120439557122072,1
org.apache.xml.res.XMLErrorResources,0.36585365853658536,0.6341463414634146,1.0,5.0,62.00000000000001,2
org.apache.xml.utils.res.XResources_ja_JP_I,0.21212121212121213,0.7878787878787878,1.0,2.0,62.00000000000001,1
org.apache.xpath.functions.FuncContains,0.08860759493670886,0.9113924050632911,2.0,3.0,41.665333311999305,0
org.apache.xalan.xsltc.compiler.util.MethodType,0.22972972972972974,0.7702702702702703,1.0,1.0,53.00000000000001,0
org.apache.xalan.res.XSLTErrorResources_fr,0.8787414444784962,0.12125855552150373,3.0,5.0,21.208801376967465,1
org.apache.xalan.templates.ElemFallback,0.08035714285714286,0.9196428571428571,2.0,4.0,38.52272056851645,2
org.apache.xalan.xsltc.compiler.ForEach,0.23863636363636365,0.7613636363636364,2.0,3.0,29.120439557122072,0
org.apache.xalan.xsltc.compiler.util.ErrorMessages_ko,0.834319526627219,0.16568047337278108,2.0,2.0,28.195744359743372,1
org.apache.xpath.axes.ReverseAxesWalker,0.03757225433526012,0.9624277456647399,2.0,2.0,41.665333311999305,0
org.apache.xalan.serialize.SerializerUtils,0.5,0.5,1.0,1.0,26.000000000000004,3
org.apache.xpath.axes.BasicTestIterator,0.040123456790123455,0.9598765432098766,2.0,2.0,41.665333311999305,0
org.apache.xalan.xsltc.compiler.UnsupportedElement,0.5210084033613446,0.4789915966386555,2.0,3.0,28.195744359743372,0
org.apache.xalan.xsltc.compiler.Closure,0.2222222222222222,0.7777777777777778,1.0,1.0,53.00000000000001,0
org.apache.xml.utils.Hashtree2Node,0.21212121212121213,0.7878787878787878,1.0,2.0,62.00000000000001,0
org.apache.xalan.processor.ProcessorStylesheetElement,0.05603448275862069,0.9439655172413793,2.0,2.0,36.74234614174768,2
org.apache.xalan.res.XSLTErrorResources_hu,0.9802248933695231,0.019775106630476928,2.0,2.0,28.195744359743372,1
org.apache.xalan.xsltc.dom.CurrentNodeListFilter,0.23684210526315788,0.7631578947368421,1.0,1.0,53.00000000000001,0
org.apache.xpath.operations.Minus,0.07784431137724551,0.9221556886227545,2.0,2.0,41.665333311999305,0
org.apache.xalan.xsltc.compiler.util.MatchGenerator,0.22972972972972974,0.7702702702702703,1.0,1.0,53.00000000000001,0
org.apache.xpath.compiler.OpMap,0.03350970017636684,0.9664902998236331,3.0,5.0,27.515473385643215,0
org.apache.xalan.trace.TraceManager,0.203125,0.796875,1.0,1.0,53.00000000000001,2
org.apache.xalan.xsltc.dom.SAXImpl,0.5863539445628998,0.4136460554371002,4.0,9.0,21.86311542029793,1
org.apache.xml.utils.res.XResources_de,0.8732057416267942,0.12679425837320574,2.0,5.0,27.27636339397172,1
org.apache.xalan.res.XSLTErrorResources_ko,0.873961937716263,0.126038062283737,3.0,5.0,21.208801376967465,1
org.apache.xml.utils.res.XResources_cy,0.21212121212121213,0.7878787878787878,1.0,2.0,62.00000000000001,1
org.apache.xml.utils.StopParseException,0.5,0.5,1.0,1.0,2.0,0
org.apache.xml.serializer.OutputPropertyUtils,0.203125,0.796875,1.0,1.0,62.00000000000001,1
org.apache.xalan.processor.XSLTElementProcessor,0.10845588235294118,0.8915441176470589,4.0,5.0,15.243982444638448,1
org.apache.xalan.templates.ElemPI,0.04776119402985075,0.9522388059701492,2.0,4.0,43.63484845854285,3
org.apache.xml.dtm.ref.DTMDefaultBaseTraversers,0.24285714285714285,0.7571428571428571,2.0,2.0,28.195744359743372,2
org.apache.xalan.xsltc.compiler.Import,0.3793103448275862,0.6206896551724138,3.0,4.0,19.688507129128695,0
org.apache.xml.utils.NodeVector,0.21212121212121213,0.7878787878787878,1.0,2.0,62.00000000000001,1
org.apache.xml.dtm.DTMWSFilter,0.21212121212121213,0.7878787878787878,1.0,1.0,53.00000000000001,0
org.apache.xml.dtm.ref.ExpandedNameTable,0.203125,0.796875,1.0,1.0,53.00000000000001,1
org.apache.xalan.processor.ProcessorStripSpace,0.07344632768361582,0.9265536723163842,2.0,2.0,36.74234614174768,0
org.apache.xalan.xsltc.compiler.XSLTC,0.4861111111111111,0.5138888888888888,5.0,9.0,13.732944570282568,2
org.apache.xpath.axes.FilterExprWalker,0.028824833702882482,0.9711751662971175,2.0,2.0,41.665333311999305,1
org.apache.xalan.xsltc.compiler.Include,0.3027027027027027,0.6972972972972973,2.0,3.0,29.120439557122072,0
org.apache.xalan.xsltc.runtime.ErrorMessages_it,0.834319526627219,0.16568047337278108,2.0,2.0,28.195744359743372,1
org.apache.xalan.lib.sql.PooledConnection,0.08080808080808081,0.9191919191919192,2.0,3.0,36.74234614174768,0
org.apache.xalan.transformer.ResultNameSpace,0.09032258064516129,0.9096774193548387,2.0,3.0,38.52272056851645,0
org.apache.xpath.operations.Gte,0.087248322147651,0.912751677852349,2.0,2.0,41.665333311999305,0
org.apache.xml.dtm.ref.EmptyIterator,0.203125,0.796875,1.0,1.0,53.00000000000001,0
org.apache.xalan.xsltc.cmdline.Transform,0.43636363636363634,0.5636363636363636,4.0,9.0,11.606018521606016,1
org.apache.xalan.templates.VarNameCollector,0.07222222222222222,0.9277777777777778,2.0,2.0,38.52272056851645,0
org.apache.xml.serializer.CharInfo,0.5574963609898108,0.44250363901018924,5.0,13.0,14.58931950896473,2
org.apache.xml.utils.MutableAttrListImpl,0.21212121212121213,0.7878787878787878,1.0,2.0,62.00000000000001,0
org.apache.xalan.xsltc.dom.ClonedNodeListIterator,0.19402985074626866,0.8059701492537313,1.0,1.0,53.00000000000001,0
org.apache.xalan.xsltc.compiler.AttributeSet,0.42990654205607476,0.5700934579439252,3.0,4.0,26.70272898738243,1
org.apache.xalan.xsltc.runtime.ErrorMessages_ja,0.834319526627219,0.16568047337278108,2.0,2.0,28.195744359743372,1
org.apache.xalan.templates.ElemUse,0.04590163934426229,0.9540983606557377,2.0,3.0,38.52272056851645,1
org.apache.xpath.functions.Function3Args,0.04929577464788732,0.9507042253521126,2.0,3.0,41.665333311999305,1
org.apache.xpath.objects.XObjectFactory,0.053231939163498096,0.9467680608365019,2.0,2.0,41.665333311999305,0
org.apache.xml.utils.URI,0.203125,0.796875,1.0,1.0,62.00000000000001,1
org.apache.xalan.xsltc.compiler.util.ErrorMessages_ru,0.834319526627219,0.16568047337278108,2.0,2.0,28.195744359743372,1
org.apache.xpath.operations.Mult,0.07878787878787878,0.9212121212121213,2.0,2.0,41.665333311999305,0
org.apache.xml.serializer.ToStream,0.5046511627906977,0.49534883720930234,2.0,23.0,16.248076809271918,9
org.apache.xalan.transformer.QueuedEvents,0.048507462686567165,0.9514925373134329,2.0,2.0,38.52272056851645,0
org.apache.xalan.xsltc.dom.DOMWSFilter,0.3333333333333333,0.6666666666666666,2.0,5.0,38.52272056851645,1
org.apache.xpath.functions.FuncNormalizeSpace,0.0748663101604278,0.9251336898395722,2.0,3.0,41.665333311999305,0
org.apache.xalan.xsltc.dom.NthIterator,0.22972972972972974,0.7702702702702703,1.0,1.0,53.00000000000001,0
org.apache.xalan.templates.StylesheetComposed,0.029017857142857144,0.9709821428571429,2.0,2.0,38.52272056851645,0
org.apache.xml.utils.res.XResources_zh_CN,0.2564102564102564,0.7435897435897436,2.0,5.0,27.27636339397172,1
org.apache.xpath.operations.And,0.07471264367816093,0.9252873563218391,2.0,2.0,41.665333311999305,0
org.apache.xalan.templates.ElemApplyImport,0.06334841628959276,0.9366515837104072,2.0,3.0,38.52272056851645,2
org.apache.xpath.XPathContext,0.017278617710583154,0.9827213822894169,2.0,4.0,41.665333311999305,2
org.apache.xalan.extensions.ExtensionNamespacesManager,0.03608247422680412,0.9639175257731959,2.0,2.0,36.74234614174768,0
org.apache.xalan.xsltc.dom.ExtendedSAX,0.2222222222222222,0.7777777777777778,1.0,1.0,53.00000000000001,0
org.apache.xalan.processor.XSLTSchema,0.0,1.0,1.0,1.0,7.999999999999998,0
org.apache.xalan.processor.ProcessorExsltFuncResult,0.08670520231213873,0.9132947976878613,2.0,3.0,36.74234614174768,0
org.apache.xalan.processor.ProcessorTemplateElem,0.0603448275862069,0.9396551724137931,3.0,3.0,17.5441064292772,1
org.apache.xalan.lib.sql.DefaultConnectionPool,0.05100671140939597,0.9489932885906041,5.0,8.0,16.52906889971813,0
org.apache.xalan.xsltc.runtime.ErrorMessages_zh_CN,0.834319526627219,0.16568047337278108,2.0,2.0,28.195744359743372,1
org.apache.xalan.xsltc.compiler.util.TypeCheckError,0.22972972972972974,0.7702702702702703,1.0,1.0,53.00000000000001,0
org.apache.xalan.xsltc.compiler.NameCall,0.23684210526315788,0.7631578947368421,1.0,1.0,53.00000000000001,0
org.apache.xalan.xsltc.dom.NodeSortRecordFactory,0.5145631067961165,0.4854368932038835,6.0,8.0,16.67033097023029,0
org.apache.xalan.xsltc.runtime.ErrorMessages_pl,0.834319526627219,0.16568047337278108,2.0,2.0,28.195744359743372,1
org.apache.xml.dtm.ref.DTMDefaultBaseIterators,0.24285714285714285,0.7571428571428571,2.0,2.0,28.195744359743372,2
org.apache.xalan.xsltc.compiler.StringLengthCall,0.22972972972972974,0.7702702702702703,1.0,1.0,53.00000000000001,0
org.apache.xalan.xsltc.runtime.AttributeList,0.2222222222222222,0.7777777777777778,1.0,1.0,53.00000000000001,0
org.apache.xalan.processor.XSLTAttributeDef,0.04044943820224719,0.9595505617977528,5.0,7.0,16.47840814959177,2
org.apache.xalan.xsltc.compiler.LiteralExpr,0.22972972972972974,0.7702702702702703,1.0,1.0,53.00000000000001,0
org.apache.xalan.xsltc.compiler.Text,0.5761589403973509,0.423841059602649,3.0,3.0,28.13034466328843,1
org.apache.xml.utils.BoolStack,0.21212121212121213,0.7878787878787878,1.0,2.0,62.00000000000001,0
org.apache.xpath.functions.FuncDoclocation,0.08139534883720931,0.9186046511627907,2.0,3.0,41.665333311999305,0
org.apache.xalan.processor.ProcessorImport,0.10062893081761007,0.89937106918239,3.0,5.0,23.811015779523,0
org.apache.xalan.xsltc.dom.BitArray,0.2222222222222222,0.7777777777777778,1.0,1.0,53.00000000000001,0
org.apache.xalan.xsltc.runtime.MessageHandler,0.2222222222222222,0.7777777777777778,1.0,1.0,53.00000000000001,0
org.apache.xalan.xsltc.runtime.output.WriterOutputBuffer,0.2222222222222222,0.7777777777777778,1.0,1.0,53.00000000000001,0
org.apache.xml.dtm.ref.DTMAxisIterNodeList,0.203125,0.796875,1.0,1.0,53.00000000000001,1
org.apache.xml.serializer.EmptySerializer,0.3333333333333333,0.6666666666666666,1.0,6.0,62.00000000000001,4
org.apache.xml.dtm.ref.DTMAxisIteratorBase,0.22388059701492538,0.7761194029850746,2.0,2.0,38.52272056851645,0
org.apache.xalan.xsltc.compiler.LangCall,0.2222222222222222,0.7777777777777778,1.0,1.0,53.00000000000001,0
org.apache.xalan.xsltc.dom.FilterIterator,0.20833333333333334,0.7916666666666666,1.0,1.0,53.00000000000001,0
org.apache.xalan.xsltc.compiler.RelativePathPattern,0.22972972972972974,0.7702702702702703,1.0,1.0,53.00000000000001,0
org.apache.xpath.axes.AxesWalker,0.018867924528301886,0.9811320754716981,2.0,2.0,41.665333311999305,0
org.apache.xalan.templates.TemplateList,0.013779527559055118,0.9862204724409449,2.0,3.0,38.52272056851645,2
org.apache.xml.dtm.DTMConfigurationException,0.21212121212121213,0.7878787878787878,1.0,1.0,53.00000000000001,1
org.apache.xml.utils.synthetic.reflection.EntryPoint,0.21212121212121213,0.7878787878787878,1.0,2.0,62.00000000000001,0
org.apache.xpath.operations.NotEquals,0.08783783783783784,0.9121621621621622,2.0,2.0,41.665333311999305,0
org.apache.xpath.axes.UnionChildIterator,0.055776892430278883,0.9442231075697212,2.0,2.0,41.665333311999305,0
org.apache.xpath.patterns.UnionPattern,0.0438871473354232,0.9561128526645768,2.0,3.0,41.665333311999305,1
org.apache.xalan.transformer.KeyTable,0.038781163434903045,0.961218836565097,2.0,3.0,38.52272056851645,1
org.apache.xalan.xsltc.compiler.util.ErrorMessages_zh_TW,0.834319526627219,0.16568047337278108,2.0,2.0,28.195744359743372,1
org.apache.xalan.xsltc.compiler.LocalNameCall,0.2222222222222222,0.7777777777777778,1.0,1.0,53.00000000000001,0
org.apache.xalan.xsltc.compiler.Key,0.34782608695652173,0.6521739130434783,3.0,4.0,31.23170128711883,2
org.apache.xalan.xsltc.runtime.AbstractTranslet,0.7432432432432432,0.25675675675675674,4.0,7.0,24.429314784698004,2
org.apache.xpath.functions.FuncGenerateId,0.08588957055214724,0.9141104294478528,2.0,3.0,41.665333311999305,0
org.apache.xml.dtm.DTMAxisTraverser,0.203125,0.796875,1.0,1.0,53.00000000000001,1
org.apache.xpath.axes.AttributeIterator,0.08426966292134831,0.9157303370786517,2.0,4.0,41.665333311999305,0
org.apache.xpath.objects.XBooleanStatic,0.0,1.0,1.0,1.0,68.00000000000001,1
org.apache.xalan.transformer.TransformerClient,0.09090909090909091,0.9090909090909091,2.0,2.0,38.52272056851645,0
org.apache.xpath.functions.FuncStartsWith,0.09395973154362416,0.9060402684563759,2.0,3.0,41.665333311999305,0
org.apache.xalan.lib.sql.DTMDocument,0.055900621118012424,0.9440993788819876,2.0,3.0,36.74234614174768,2
org.apache.xpath.operations.String,0.08904109589041095,0.910958904109589,2.0,2.0,41.665333311999305,0
org.apache.xalan.xsltc.compiler.Predicate,0.5013333333333333,0.49866666666666665,3.0,6.0,31.23170128711883,1
org.apache.xml.dtm.DTMIterator,0.203125,0.796875,1.0,1.0,53.00000000000001,0
org.apache.xpath.Arg,0.03888888888888889,0.9611111111111111,2.0,3.0,41.665333311999305,0
org.apache.xalan.templates.AVTPartSimple,0.06930693069306931,0.9306930693069307,2.0,3.0,38.52272056851645,1
org.apache.xalan.trace.GenerateEvent,0.22058823529411764,0.7794117647058824,1.0,3.0,53.00000000000001,1
org.apache.xml.dtm.ref.DTMNamedNodeMap,0.2361111111111111,0.7638888888888888,1.0,3.0,53.00000000000001,2
org.apache.xml.utils.NSInfo,0.21212121212121213,0.7878787878787878,1.0,2.0,62.00000000000001,1
org.apache.xalan.xsltc.compiler.FunctionCall,0.546031746031746,0.45396825396825397,5.0,11.0,14.778854730846728,2
org.apache.xalan.xsltc.compiler.ElementAvailableCall,0.22972972972972974,0.7702702702702703,1.0,1.0,53.00000000000001,0
org.apache.xpath.axes.SelfIteratorNoPredicate,0.06722689075630252,0.9327731092436975,2.0,4.0,41.665333311999305,1
org.apache.xalan.xsltc.dom.XSLTCDTMManager,0.6867469879518072,0.3132530120481928,5.0,7.0,18.30704039855983,0
org.apache.xalan.xsltc.trax.SAX2DOM,0.22535211267605634,0.7746478873239436,1.0,1.0,53.00000000000001,0
org.apache.xpath.operations.Mod,0.0783132530120482,0.9216867469879518,2.0,2.0,41.665333311999305,0
org.apache.xalan.xsltc.runtime.ErrorMessages_sk,0.834319526627219,0.16568047337278108,2.0,2.0,28.195744359743372,1
org.apache.xalan.xsltc.compiler.Message,0.23684210526315788,0.7631578947368421,1.0,1.0,53.00000000000001,0
org.apache.xpath.functions.FuncNumber,0.0945945945945946,0.9054054054054054,2.0,3.0,41.665333311999305,0
org.apache.xalan.templates.AVT,0.019943019943019943,0.98005698005698,2.0,3.0,38.52272056851645,1
org.apache.xpath.functions.FuncFalse,0.08917197452229299,0.910828025477707,2.0,3.0,41.665333311999305,0
org.apache.xalan.xsltc.compiler.LiteralElement,0.7510373443983402,0.24896265560165975,3.0,4.0,30.56699418689837,0
org.apache.xpath.NodeSetDTM,0.010332103321033211,0.9896678966789668,2.0,3.0,41.665333311999305,1
org.apache.xpath.compiler.Lexer,0.017173051519154558,0.9828269484808454,2.0,2.0,41.665333311999305,2
org.apache.xalan.templates.ElemExsltFunction,0.054313099041533544,0.9456869009584664,3.0,4.0,23.726051575214193,2
org.apache.xalan.xsltc.compiler.QName,0.21212121212121213,0.7878787878787878,1.0,2.0,62.00000000000001,0
org.apache.xml.res.XMLErrorResources_pl,0.916256157635468,0.08374384236453201,2.0,2.0,30.495901363953806,1
org.apache.xalan.extensions.ExtensionsTable,0.04871060171919771,0.9512893982808023,2.0,3.0,36.74234614174768,0
org.apache.xml.utils.synthetic.JavaUtils,0.208955223880597,0.7910447761194029,1.0,2.0,62.00000000000001,0
org.apache.xml.utils.StringToStringTable,0.21212121212121213,0.7878787878787878,1.0,2.0,62.00000000000001,0
org.apache.xalan.Version,0.5094339622641509,0.49056603773584906,3.0,5.0,27.907432405350693,4
org.apache.xalan.xsltc.compiler.UnparsedEntityUriCall,0.23684210526315788,0.7631578947368421,1.0,1.0,53.00000000000001,0
org.apache.xalan.xsltc.Translet,0.2692307692307692,0.7307692307692307,2.0,3.0,38.52272056851645,0
org.apache.xalan.trace.TraceListenerEx3,0.6490066225165563,0.3509933774834437,2.0,4.0,14.560219778561036,1
org.apache.xpath.operations.VariableSafeAbsRef,0.07514450867052024,0.9248554913294798,2.0,2.0,41.665333311999305,0
org.apache.xalan.xsltc.compiler.Copy,0.32142857142857145,0.6785714285714286,2.0,3.0,43.63484845854285,0
org.apache.xalan.xsltc.dom.StripWhitespaceFilter,0.22972972972972974,0.7702702702702703,1.0,1.0,53.00000000000001,0
org.apache.xalan.templates.ElemAttributeSet,0.07216494845360824,0.9278350515463918,3.0,4.0,18.10636610513507,2
org.apache.xalan.xsltc.trax.TransformerFactoryImpl,0.30833333333333335,0.6916666666666667,7.0,13.0,12.893022514164109,5
org.apache.xml.utils.StringComparable,0.21212121212121213,0.7878787878787878,1.0,1.0,62.00000000000001,0
org.apache.xml.res.XMLErrorResources_sk,0.916256157635468,0.08374384236453201,2.0,2.0,30.495901363953806,1
org.apache.xpath.ExpressionOwner,0.0896551724137931,0.9103448275862069,2.0,2.0,41.665333311999305,0
org.apache.xalan.transformer.CountersTable,0.045307443365695796,0.9546925566343042,2.0,3.0,38.52272056851645,0
org.apache.xml.dtm.ref.sax2dtm.SAX2DTM,0.4375,0.5625,2.0,2.0,30.495901363953806,3
org.apache.xalan.xsltc.compiler.CallTemplate,0.5948103792415169,0.405189620758483,4.0,6.0,25.999772413944005,2
org.apache.xpath.operations.Div,0.0783132530120482,0.9216867469879518,2.0,2.0,41.665333311999305,0
org.apache.xalan.xsltc.NodeIterator,0.22972972972972974,0.7702702702702703,1.0,1.0,53.00000000000001,0
org.apache.xalan.xsltc.runtime.output.StringOutputBuffer,0.2222222222222222,0.7777777777777778,1.0,1.0,53.00000000000001,0
org.apache.xalan.xsltc.compiler.NameBase,0.23684210526315788,0.7631578947368421,2.0,2.0,29.120439557122072,0
org.apache.xpath.functions.FuncString,0.0945945945945946,0.9054054054054054,2.0,3.0,41.665333311999305,0
org.apache.xml.res.XMLErrorResources_ru,0.916256157635468,0.08374384236453201,2.0,2.0,30.495901363953806,1
org.apache.xalan.transformer.SerializerSwitcher,0.04560260586319218,0.9543973941368078,3.0,3.0,28.13034466328843,0
org.apache.xpath.res.XPATHErrorResources_zh_TW,0.7441567781373607,0.25584322186263936,3.0,6.0,27.515473385643215,2
org.apache.xalan.lib.sql.ObjectArray,0.05341246290801187,0.9465875370919882,2.0,3.0,36.74234614174768,0
org.apache.xml.serializer.Method,0.203125,0.796875,1.0,1.0,62.00000000000001,1
org.apache.xalan.templates.RedundentExprEliminator,0.011003236245954692,0.9889967637540453,2.0,4.0,38.52272056851645,2
org.apache.xalan.xslt.EnvironmentCheck,0.3953488372093023,0.6046511627906976,5.0,9.0,14.58931950896473,1
org.apache.xml.utils.TreeWalker,0.0,1.0,1.0,1.0,68.00000000000001,0
org.apache.xalan.lib.sql.SQLErrorDocument,0.040229885057471264,0.9597701149425287,2.0,2.0,36.74234614174768,0
org.apache.xml.dtm.ref.DTMDefaultBase,0.38461538461538464,0.6153846153846154,2.0,4.0,28.195744359743372,3
org.apache.xml.res.XMLErrorResources_sv,0.21212121212121213,0.7878787878787878,1.0,1.0,62.00000000000001,1
org.apache.xml.res.XMLErrorResources_zh_TW,0.41386782231852653,0.5861321776814734,2.0,2.0,30.495901363953806,1
org.apache.xalan.xsltc.compiler.ProcessingInstruction,0.6323529411764706,0.36764705882352944,2.0,3.0,43.63484845854285,1
org.apache.xalan.templates.FuncFormatNumb,0.0664451827242525,0.9335548172757475,3.0,6.0,26.113898734959683,0
org.apache.xml.utils.StringToIntTable,0.21212121212121213,0.7878787878787878,1.0,2.0,62.00000000000001,0
org.apache.xalan.lib.sql.SQLDocument,0.011265164644714038,0.988734835355286,2.0,2.0,36.74234614174768,1
org.apache.xpath.operations.Equals,0.07514450867052024,0.9248554913294798,2.0,2.0,41.665333311999305,0
org.apache.xml.utils.ObjectVector,0.21212121212121213,0.7878787878787878,1.0,2.0,62.00000000000001,0
org.apache.xml.res.XMLErrorResources_tr,0.916256157635468,0.08374384236453201,2.0,2.0,30.495901363953806,1
org.apache.xpath.functions.FuncSubstring,0.06222222222222222,0.9377777777777778,2.0,3.0,41.665333311999305,0
org.apache.xalan.lib.sql.ConnectionPool,0.09473684210526316,0.9052631578947369,2.0,3.0,36.74234614174768,0
org.apache.xalan.xsltc.compiler.AttributeValueTemplate,0.26744186046511625,0.7325581395348837,2.0,3.0,28.195744359743372,0
org.apache.xalan.xsltc.compiler.util.NodeSortRecordFactGenerator,0.2,0.8,1.0,1.0,53.00000000000001,0
org.apache.xpath.NodeSet,0.009472259810554804,0.9905277401894452,2.0,3.0,41.665333311999305,1
org.apache.xml.dtm.ref.DTMNodeList,0.203125,0.796875,1.0,1.0,53.00000000000001,1
org.apache.xalan.xsltc.compiler.Parser,0.43373493975903615,0.5662650602409639,6.0,13.0,14.815484554023199,3
org.apache.xml.utils.NamespaceSupport2,0.203125,0.796875,1.0,1.0,62.00000000000001,0
org.apache.xalan.xsltc.compiler.Mode,0.3937007874015748,0.6062992125984252,2.0,2.0,28.195744359743372,3
org.apache.xml.serializer.XSLOutputAttributes,0.20634920634920634,0.7936507936507936,1.0,1.0,62.00000000000001,0
org.apache.xalan.lib.ExsltDynamic,0.020891364902506964,0.979108635097493,2.0,3.0,36.74234614174768,0
org.apache.xalan.xsltc.compiler.AlternativePattern,0.22972972972972974,0.7702702702702703,1.0,1.0,53.00000000000001,0
org.apache.xalan.lib.ExsltBase,0.07526881720430108,0.9247311827956989,2.0,2.0,36.74234614174768,0
org.apache.xalan.lib.ExsltMath,0.030425963488843813,0.9695740365111561,2.0,3.0,36.74234614174768,0
org.apache.xalan.transformer.KeyManager,0.06046511627906977,0.9395348837209302,2.0,2.0,38.52272056851645,0
org.apache.xalan.xsltc.DOMEnhancedForDTM,0.7757847533632287,0.2242152466367713,3.0,3.0,26.113898734959683,0
org.apache.xalan.xsltc.compiler.Param,0.5275229357798165,0.4724770642201835,5.0,6.0,20.53967817305565,0
org.apache.xml.serializer.SerializerConstants,0.20833333333333334,0.7916666666666666,1.0,1.0,62.00000000000001,2
org.apache.xml.utils.synthetic.reflection.Field,0.21212121212121213,0.7878787878787878,1.0,2.0,62.00000000000001,0
org.apache.xpath.functions.FuncLocalPart,0.08860759493670886,0.9113924050632911,2.0,3.0,41.665333311999305,0
org.apache.xml.res.XMLErrorResources_pt_BR,0.916256157635468,0.08374384236453201,2.0,2.0,30.495901363953806,1
org.apache.xpath.res.XPATHErrorResources_pt_BR,0.4932336182336182,0.5067663817663818,3.0,4.0,29.640145187339392,2
org.apache.xalan.res.XSLTErrorResources_pt_BR,0.9802248933695231,0.019775106630476928,2.0,2.0,28.195744359743372,1
org.apache.xalan.transformer.KeyIterator,0.05426356589147287,0.9457364341085271,2.0,3.0,38.52272056851645,1
org.apache.xalan.xsltc.compiler.AbsoluteLocationPath,0.22972972972972974,0.7702702702702703,1.0,1.0,53.00000000000001,1
org.apache.xpath.operations.Neg,0.07926829268292683,0.9207317073170732,2.0,2.0,41.665333311999305,0
org.apache.xpath.res.XPATHErrorResources_ja,0.7008410092110533,0.29915899078894675,4.0,7.0,23.643161919356334,2
org.apache.xml.dtm.ref.DTMNodeIterator,0.2361111111111111,0.7638888888888888,1.0,3.0,53.00000000000001,0
org.apache.xalan.transformer.StackGuard,0.04513888888888889,0.9548611111111112,2.0,2.0,38.52272056851645,2
org.apache.xpath.functions.FuncFloor,0.0945945945945946,0.9054054054054054,2.0,3.0,41.665333311999305,0
org.apache.xml.utils.DOMOrder,0.203125,0.796875,1.0,1.0,62.00000000000001,0
org.apache.xalan.res.XSLTErrorResources_de,0.8914630276102824,0.10853697238971755,3.0,5.0,21.208801376967465,1
org.apache.xml.serializer.EncodingInfo,0.203125,0.796875,1.0,1.0,62.00000000000001,2
org.apache.xalan.xsltc.dom.EmptyFilter,0.22972972972972974,0.7702702702702703,1.0,1.0,53.00000000000001,0
org.apache.xpath.functions.FuncCeiling,0.0945945945945946,0.9054054054054054,2.0,3.0,41.665333311999305,0
org.apache.xpath.VariableStack,0.022653721682847898,0.9773462783171522,2.0,3.0,41.665333311999305,1
org.apache.xalan.templates.AVTPart,0.07142857142857142,0.9285714285714286,2.0,3.0,38.52272056851645,1
org.apache.xpath.axes.OneStepIterator,0.03355704697986577,0.9664429530201343,2.0,4.0,41.665333311999305,1
org.apache.xalan.xsltc.runtime.Attributes,0.22972972972972974,0.7702702702702703,1.0,1.0,53.00000000000001,0
org.apache.xml.serializer.Encodings,0.34782608695652173,0.6521739130434783,5.0,8.0,16.52906889971813,3
org.apache.xpath.compiler.XPathDumper,0.09923664122137404,0.9007633587786259,2.0,2.0,41.665333311999305,0
org.apache.xml.dtm.ref.DTMManagerDefault,0.38509316770186336,0.6149068322981367,3.0,7.0,26.113898734959683,0
org.apache.xalan.processor.ProcessorUnknown,0.07960199004975124,0.9203980099502488,2.0,4.0,36.74234614174768,0
org.apache.xml.dtm.DTMException,0.21212121212121213,0.7878787878787878,1.0,1.0,53.00000000000001,0
org.apache.xml.serializer.WriterToUTF8Buffered,0.203125,0.796875,1.0,1.0,62.00000000000001,1
org.apache.xalan.xsltc.runtime.Node,0.20833333333333334,0.7916666666666666,1.0,1.0,53.00000000000001,0
org.apache.xalan.templates.ElemVariable,0.056162246489859596,0.9438377535101404,2.0,4.0,38.52272056851645,2
org.apache.xml.serializer.ExtendedContentHandler,0.43820224719101125,0.5617977528089888,1.0,2.0,62.00000000000001,2
org.apache.xalan.templates.StylesheetRoot,0.0,1.0,1.0,1.0,68.00000000000001,3
org.apache.xalan.transformer.DecimalToRoman,0.08536585365853659,0.9146341463414634,2.0,3.0,38.52272056851645,0
org.apache.xpath.domapi.XPathResultImpl,0.024179620034542316,0.9758203799654577,2.0,3.0,41.665333311999305,1
org.apache.xml.utils.res.XResources_ja_JP_HA,0.21212121212121213,0.7878787878787878,1.0,2.0,62.00000000000001,1
org.apache.xpath.res.XPATHErrorResources_cs,0.4932336182336182,0.5067663817663818,3.0,4.0,29.640145187339392,2
org.apache.xalan.templates.ElemUnknown,0.0945945945945946,0.9054054054054054,2.0,3.0,38.52272056851645,2
org.apache.xalan.xsltc.compiler.BooleanExpr,0.20833333333333334,0.7916666666666666,1.0,1.0,53.00000000000001,0
org.apache.xml.utils.res.XResources_ja_JP_HI,0.21212121212121213,0.7878787878787878,1.0,2.0,62.00000000000001,1
org.apache.xalan.templates.AbsPathChecker,0.0718232044198895,0.9281767955801105,2.0,2.0,38.52272056851645,0
org.apache.xpath.XPathAPI,0.033766233766233764,0.9662337662337662,2.0,2.0,41.665333311999305,1
org.apache.xalan.xsltc.compiler.SymbolTable,0.23684210526315788,0.7631578947368421,1.0,1.0,53.00000000000001,0
org.apache.xalan.xsltc.compiler.util.Util,0.5833333333333334,0.4166666666666667,3.0,4.0,17.875686641268075,1
org.apache.xpath.compiler.FuncLoader,0.11244979919678715,0.8875502008032129,5.0,8.0,16.52906889971813,1
org.apache.xalan.xsltc.compiler.util.NodeSortRecordGenerator,0.21621621621621623,0.7837837837837838,1.0,1.0,53.00000000000001,0
org.apache.xalan.res.XSLMessages,0.18457300275482094,0.8154269972451791,2.0,5.0,25.219040425836987,1
org.apache.xpath.axes.OneStepIteratorForward,0.057971014492753624,0.9420289855072463,2.0,4.0,41.665333311999305,1
org.apache.xalan.xsltc.compiler.GenerateIdCall,0.22972972972972974,0.7702702702702703,1.0,1.0,53.00000000000001,0
org.apache.xpath.objects.XNull,0.0,1.0,1.0,1.0,68.00000000000001,0
org.apache.xalan.xsltc.compiler.CastCall,0.7311320754716981,0.2688679245283019,2.0,3.0,29.120439557122072,0
org.apache.xalan.xsltc.compiler.When,0.23684210526315788,0.7631578947368421,1.0,1.0,53.00000000000001,0
org.apache.xml.utils.ObjectStack,0.21212121212121213,0.7878787878787878,1.0,2.0,62.00000000000001,0
org.apache.xalan.templates.ElemWithParam,0.04057971014492753,0.9594202898550724,2.0,3.0,38.52272056851645,2
org.apache.xpath.functions.FuncTrue,0.08917197452229299,0.910828025477707,2.0,3.0,41.665333311999305,0
org.apache.xml.res.XMLErrorResources_fr,0.46979038224414305,0.530209617755857,2.0,2.0,30.495901363953806,1
org.apache.xalan.templates.ElemForEach,0.024793388429752067,0.9752066115702479,2.0,3.0,38.52272056851645,2
org.apache.xalan.xsltc.compiler.LogicalExpr,0.35555555555555557,0.6444444444444445,1.0,3.0,53.00000000000001,0
org.apache.xalan.extensions.ExtensionHandlerJavaClass,0.15353260869565216,0.8464673913043478,3.0,4.0,17.5441064292772,3
org.apache.xpath.functions.FunctionOneArg,0.05090909090909091,0.9490909090909091,2.0,3.0,41.665333311999305,1
org.apache.xml.utils.XMLReaderManager,0.806949806949807,0.19305019305019305,2.0,2.0,27.27636339397172,2
org.apache.xpath.res.XPATHErrorResources_pl,0.4932336182336182,0.5067663817663818,3.0,4.0,29.640145187339392,2
org.apache.xpath.res.XPATHErrorResources_es,0.6975038781554083,0.30249612184459174,4.0,7.0,23.643161919356334,2
org.apache.xpath.compiler.Compiler,0.019650655021834062,0.980349344978166,3.0,6.0,27.515473385643215,4
org.apache.xpath.res.XPATHErrorResources_en,0.6437125748502994,0.3562874251497006,3.0,6.0,27.515473385643215,0
org.apache.xml.utils.XMLStringDefault,0.203125,0.796875,1.0,1.0,62.00000000000001,1
org.apache.xalan.xsltc.dom.KeyIndex,0.35833333333333334,0.6416666666666667,2.0,3.0,38.52272056851645,1
org.apache.xalan.xsltc.runtime.ErrorMessages_es,0.834319526627219,0.16568047337278108,2.0,2.0,28.195744359743372,1
org.apache.xalan.transformer.TreeWalker2Result,0.054474708171206226,0.9455252918287937,2.0,3.0,38.52272056851645,0
org.apache.xalan.xsltc.dom.StepIterator,0.2236842105263158,0.7763157894736842,1.0,1.0,53.00000000000001,0
org.apache.xalan.xsltc.compiler.IntExpr,0.22972972972972974,0.7702702702702703,1.0,1.0,53.00000000000001,0
org.apache.xalan.processor.ProcessorExsltFunction,0.04794520547945205,0.952054794520548,2.0,3.0,36.74234614174768,0
org.apache.xpath.domapi.XPathEvaluatorImpl,0.03825136612021858,0.9617486338797814,2.0,3.0,41.665333311999305,1
org.apache.xalan.templates.ElemChoose,0.046511627906976744,0.9534883720930233,2.0,3.0,38.52272056851645,2
org.apache.xalan.xsltc.compiler.NumberCall,0.23684210526315788,0.7631578947368421,2.0,2.0,29.120439557122072,0
org.apache.xalan.xsltc.CollatorFactory,0.22972972972972974,0.7702702702702703,1.0,1.0,53.00000000000001,0
org.apache.xalan.processor.ProcessorNamespaceAlias,0.06989247311827956,0.9301075268817204,2.0,2.0,36.74234614174768,0
org.apache.xpath.compiler.Keywords,0.029106029106029108,0.9708939708939709,2.0,3.0,41.665333311999305,2
org.apache.xpath.axes.PathComponent,0.09558823529411764,0.9044117647058824,2.0,2.0,41.665333311999305,0
org.apache.xml.res.XMLErrorResources_hu,0.916256157635468,0.08374384236453201,2.0,2.0,30.495901363953806,1
org.apache.xalan.lib.ExsltSets,0.043731778425655975,0.956268221574344,2.0,3.0,36.74234614174768,0
org.apache.xpath.res.XPATHErrorResources_sv,0.7556932045910002,0.24430679540899983,3.0,6.0,27.515473385643215,1
org.apache.xalan.xsltc.trax.OutputSettings,0.2222222222222222,0.7777777777777778,1.0,1.0,53.00000000000001,0
org.apache.xalan.xsltc.compiler.ApplyImports,0.2222222222222222,0.7777777777777778,1.0,1.0,53.00000000000001,1
org.apache.xml.utils.ListingErrorHandler,0.21212121212121213,0.7878787878787878,1.0,2.0,62.00000000000001,2
org.apache.xpath.functions.FunctionMultiArgs,0.04154302670623145,0.9584569732937686,2.0,3.0,41.665333311999305,1
org.apache.xpath.res.XPATHErrorResources_ru,0.4932336182336182,0.5067663817663818,3.0,4.0,29.640145187339392,2
org.apache.xpath.functions.FuncConcat,0.07329842931937172,0.9267015706806283,2.0,3.0,41.665333311999305,0
org.apache.xalan.xsltc.compiler.KeyCall,0.23684210526315788,0.7631578947368421,2.0,2.0,29.120439557122072,1
org.apache.xpath.functions.FuncId,0.05555555555555555,0.9444444444444444,2.0,3.0,41.665333311999305,0
org.apache.xalan.processor.ProcessorGlobalParamDecl,0.07386363636363637,0.9261363636363636,2.0,2.0,36.74234614174768,0
org.apache.xalan.processor.XSLProcessorVersion,0.10084033613445378,0.8991596638655462,4.0,7.0,15.979758986417787,0
org.apache.xml.dtm.ref.DTMStringPool,0.203125,0.796875,1.0,1.0,53.00000000000001,0
org.apache.xalan.templates.ElemSort,0.03111111111111111,0.9688888888888889,2.0,3.0,38.52272056851645,0
org.apache.xpath.functions.FuncNot,0.0945945945945946,0.9054054054054054,2.0,3.0,41.665333311999305,0
org.apache.xalan.templates.ElemExtensionDecl,0.029787234042553193,0.9702127659574468,2.0,3.0,38.52272056851645,0
org.apache.xalan.processor.ProcessorTemplate,0.08552631578947369,0.9144736842105263,2.0,2.0,36.74234614174768,0
org.apache.xalan.processor.ProcessorAttributeSet,0.06372549019607843,0.9362745098039216,2.0,2.0,36.74234614174768,0
org.apache.xpath.functions.FuncSubstringAfter,0.08974358974358974,0.9102564102564102,2.0,3.0,41.665333311999305,0
org.apache.xalan.templates.WhiteSpaceInfo,0.06806282722513089,0.9319371727748691,2.0,2.0,38.52272056851645,1
org.apache.xalan.xsltc.compiler.IdPattern,0.22972972972972974,0.7702702702702703,1.0,1.0,53.00000000000001,0
org.apache.xalan.xsltc.cmdline.getopt.GetOpt,0.2,0.8,1.0,1.0,53.00000000000001,1
org.apache.xalan.extensions.ExpressionContext,0.06735751295336788,0.9326424870466321,2.0,2.0,36.74234614174768,0
org.apache.xpath.res.XPATHErrorResources_tr,0.4932336182336182,0.5067663817663818,3.0,4.0,29.640145187339392,2
org.apache.xalan.templates.ElemWhen,0.06167400881057269,0.9383259911894273,2.0,3.0,38.52272056851645,0
org.apache.xml.serializer.ToTextSAXHandler,0.39823008849557523,0.6017699115044248,1.0,5.0,62.00000000000001,2
org.apache.xalan.xsltc.dom.NodeIteratorBase,0.23684210526315788,0.7631578947368421,1.0,1.0,53.00000000000001,0
org.apache.xml.utils.XMLChar,0.203125,0.796875,1.0,1.0,62.00000000000001,2
org.apache.xpath.XPath,0.04663923182441701,0.953360768175583,3.0,6.0,27.515473385643215,1
org.apache.xml.utils.SAXSourceLocator,0.203125,0.796875,1.0,1.0,62.00000000000001,0
org.apache.xalan.transformer.MsgMgr,0.12815533980582525,0.8718446601941747,3.0,6.0,26.113898734959683,0
org.apache.xalan.transformer.NumeratorFormatter,0.031746031746031744,0.9682539682539683,2.0,3.0,38.52272056851645,0
org.apache.xml.dtm.ref.sax2dtm.SAX2DTM2,0.203125,0.796875,1.0,1.0,62.00000000000001,3
org.apache.xalan.transformer.TransformerHandlerImpl,0.2,0.8,1.0,1.0,53.00000000000001,1
org.apache.xalan.templates.FuncKey,0.05555555555555555,0.9444444444444444,2.0,3.0,38.52272056851645,0
org.apache.xpath.compiler.OpMapVector,0.06422018348623854,0.9357798165137615,2.0,3.0,41.665333311999305,1
org.apache.xml.utils.DefaultErrorHandler,0.2328767123287671,0.7671232876712328,2.0,3.0,27.27636339397172,1
org.apache.xalan.trace.SelectionEvent,0.22058823529411764,0.7794117647058824,1.0,3.0,53.00000000000001,1
org.apache.xalan.xsltc.dom.CachedNodeListIterator,0.7534246575342466,0.2465753424657534,2.0,2.0,28.195744359743372,0
org.apache.xml.res.XMLErrorResources_ko,0.41368078175895767,0.5863192182410424,2.0,2.0,30.495901363953806,1
org.apache.xpath.XPathFactory,0.09210526315789473,0.9078947368421053,2.0,3.0,41.665333311999305,0
org.apache.xml.dtm.ref.ExtendedType,0.203125,0.796875,1.0,1.0,53.00000000000001,0
org.apache.xml.utils.res.XResourceBundle,0.21212121212121213,0.7878787878787878,1.0,2.0,62.00000000000001,1
org.apache.xalan.xsltc.compiler.util.FilterGenerator,0.20833333333333334,0.7916666666666666,1.0,1.0,53.00000000000001,0
org.apache.xalan.lib.PipeDocument,0.04878048780487805,0.9512195121951219,2.0,3.0,36.74234614174768,0
org.apache.xpath.objects.XNodeSet,0.0,1.0,1.0,1.0,68.00000000000001,1
org.apache.xalan.xsltc.compiler.SyntaxTreeNode,0.4672131147540984,0.5327868852459017,3.0,4.0,28.13034466328843,1
org.apache.xalan.xsltc.compiler.util.RealType,0.24,0.76,2.0,2.0,29.120439557122072,0
org.apache.xpath.operations.Or,0.07471264367816093,0.9252873563218391,2.0,2.0,41.665333311999305,0
org.apache.xalan.xsltc.runtime.Hashtable,0.2028985507246377,0.7971014492753623,1.0,1.0,53.00000000000001,0
org.apache.xml.utils.DOM2Helper,0.22058823529411764,0.7794117647058824,1.0,2.0,62.00000000000001,0
org.apache.xalan.templates.ElemIf,0.0498220640569395,0.9501779359430605,2.0,3.0,38.52272056851645,2
org.apache.xalan.xsltc.dom.DOMAdapter,0.5096153846153846,0.49038461538461536,4.0,8.0,20.54252322955712,0
org.apache.xml.utils.XMLCharacterRecognizer,0.21212121212121213,0.7878787878787878,1.0,2.0,62.00000000000001,1
org.apache.xml.dtm.ref.DTMTreeWalker,0.21212121212121213,0.7878787878787878,1.0,2.0,53.00000000000001,1
org.apache.xml.serializer.ElemContext,0.839622641509434,0.16037735849056603,1.0,2.0,62.00000000000001,0
org.apache.xml.utils.LocaleUtility,0.23529411764705882,0.7647058823529411,1.0,1.0,62.00000000000001,0
org.apache.xalan.xsltc.dom.MultipleNodeCounter,0.22972972972972974,0.7702702702702703,1.0,1.0,53.00000000000001,2
org.apache.xml.serializer.ToXMLStream,0.25,0.75,1.0,2.0,62.00000000000001,5
org.apache.xalan.trace.PrintTraceListener,0.22058823529411764,0.7794117647058824,1.0,3.0,53.00000000000001,0
org.apache.xalan.xsltc.compiler.VariableBase,0.5060240963855421,0.4939759036144578,4.0,6.0,25.999772413944005,1
org.apache.xalan.xsltc.compiler.Step,0.25925925925925924,0.7407407407407407,2.0,2.0,29.120439557122072,3
org.apache.xalan.xsltc.compiler.UnresolvedRef,0.2222222222222222,0.7777777777777778,1.0,1.0,53.00000000000001,0
org.apache.xpath.operations.Lt,0.08783783783783784,0.9121621621621622,2.0,2.0,41.665333311999305,0
org.apache.xml.serializer.Utils,0.20634920634920634,0.7936507936507936,1.0,1.0,62.00000000000001,0
org.apache.xalan.xsltc.compiler.FilterParentPath,0.22972972972972974,0.7702702702702703,1.0,1.0,53.00000000000001,1
org.apache.xml.serializer.ToHTMLSAXHandler,0.3473053892215569,0.6526946107784432,1.0,9.0,62.00000000000001,3
org.apache.xml.utils.AttList,0.21212121212121213,0.7878787878787878,1.0,2.0,62.00000000000001,1
org.apache.xalan.xsltc.trax.TemplatesHandlerImpl,0.6683006535947712,0.33169934640522875,2.0,4.0,25.219040425836987,1
org.apache.xml.serializer.NamespaceMappings,0.45081967213114754,0.5491803278688525,1.0,6.0,62.00000000000001,2
org.apache.xalan.xsltc.compiler.XslElement,0.4076923076923077,0.5923076923076923,2.0,3.0,43.63484845854285,1
org.apache.xml.dtm.ref.IncrementalSAXSource,0.203125,0.796875,1.0,1.0,53.00000000000001,0
org.apache.xml.utils.res.XResources_it,0.8732057416267942,0.12679425837320574,2.0,5.0,27.27636339397172,1
org.apache.xml.utils.res.XResources_ko,0.8747099767981439,0.12529002320185614,2.0,5.0,27.27636339397172,1
org.apache.xml.utils.res.XResources_ka,0.21212121212121213,0.7878787878787878,1.0,2.0,62.00000000000001,1
org.apache.xalan.xsltc.compiler.FunctionAvailableCall,0.2912621359223301,0.7087378640776699,4.0,6.0,14.488418416598511,0
org.apache.xalan.templates.DecimalFormatProperties,0.07100591715976332,0.9289940828402367,3.0,4.0,22.812591792962717,0
org.apache.xalan.transformer.TransformSnapshotImpl,0.039886039886039885,0.9601139601139601,2.0,2.0,38.52272056851645,0
org.apache.xalan.xsltc.compiler.FormatNumberCall,0.23684210526315788,0.7631578947368421,1.0,1.0,53.00000000000001,0
org.apache.xalan.xsltc.compiler.RelationalExpr,0.358695652173913,0.6413043478260869,2.0,4.0,29.120439557122072,1
org.apache.xpath.axes.IteratorPool,0.06637168141592921,0.9336283185840708,2.0,3.0,41.665333311999305,0
org.apache.xalan.res.XSLTErrorResources_tr,0.9802248933695231,0.019775106630476928,2.0,2.0,28.195744359743372,1
org.apache.xml.serializer.ToTextStream,0.5020080321285141,0.4979919678714859,2.0,11.0,15.748015748023624,4
org.apache.xalan.xsltc.DOMCache,0.2692307692307692,0.7307692307692307,2.0,3.0,21.84032966784156,0
org.apache.xpath.ExtensionsProvider,0.08125,0.91875,2.0,2.0,41.665333311999305,0
org.apache.xalan.xsltc.compiler.util.StringStack,0.22972972972972974,0.7702702702702703,1.0,1.0,53.00000000000001,0
org.apache.xalan.templates.XSLTVisitable,0.09285714285714286,0.9071428571428571,2.0,2.0,38.52272056851645,0
org.apache.xalan.processor.ProcessorDecimalFormat,0.10112359550561797,0.898876404494382,3.0,4.0,20.08298850246509,0
org.apache.xalan.xsltc.dom.SortingIterator,0.23684210526315788,0.7631578947368421,1.0,1.0,53.00000000000001,0
org.apache.xalan.trace.TraceListener,0.22058823529411764,0.7794117647058824,1.0,3.0,53.00000000000001,0
org.apache.xml.utils.res.XResources_en,0.21212121212121213,0.7878787878787878,1.0,2.0,62.00000000000001,1
org.apache.xml.dtm.DTMDOMException,0.21212121212121213,0.7878787878787878,1.0,2.0,53.00000000000001,0
org.apache.xml.utils.res.XResources_es,0.8732057416267942,0.12679425837320574,2.0,5.0,27.27636339397172,1
org.apache.xalan.res.XSLTErrorResources_es,0.8814776808619805,0.1185223191380195,3.0,5.0,21.208801376967465,1
org.apache.xpath.operations.Gt,0.08783783783783784,0.9121621621621622,2.0,2.0,41.665333311999305,0
org.apache.xalan.xsltc.compiler.util.NodeType,0.22972972972972974,0.7702702702702703,1.0,1.0,53.00000000000001,0
org.apache.xalan.xsltc.dom.ForwardPositionIterator,0.42,0.58,2.0,2.0,23.999999999999993,0
org.apache.xalan.xsltc.compiler.util.ClassGenerator,0.20833333333333334,0.7916666666666666,1.0,1.0,53.00000000000001,2
org.apache.xalan.res.XSLTErrorResources_en,0.8029739776951673,0.1970260223048327,2.0,6.0,25.219040425836987,0
org.apache.xalan.xsltc.util.JavaCupRedirect,0.20588235294117646,0.7941176470588235,1.0,1.0,53.00000000000001,1
org.apache.xalan.xsltc.compiler.KeyPattern,0.22972972972972974,0.7702702702702703,1.0,1.0,53.00000000000001,0
org.apache.xpath.axes.ChildTestIterator,0.05338078291814947,0.9466192170818505,2.0,4.0,41.665333311999305,1
org.apache.xml.utils.res.XResourceBundleBase,0.8395061728395061,0.16049382716049382,2.0,5.0,27.27636339397172,0
org.apache.xalan.xsltc.dom.DocumentCache,0.09787234042553192,0.902127659574468,3.0,7.0,23.726051575214193,1
org.apache.xpath.objects.XNumber,0.0,1.0,1.0,1.0,68.00000000000001,1
org.apache.xpath.axes.RTFIterator,0.09722222222222222,0.9027777777777778,2.0,3.0,41.665333311999305,0
org.apache.xalan.transformer.XalanTransformState,0.0106951871657754,0.9893048128342246,2.0,2.0,18.165902124584957,0
org.apache.xalan.xsltc.compiler.util.IntType,0.25925925925925924,0.7407407407407407,2.0,2.0,29.120439557122072,0
org.apache.xalan.xsltc.compiler.util.NodeSetType,0.18681318681318682,0.8131868131868132,2.0,2.0,29.120439557122072,0
org.apache.xml.utils.res.XResources_ja_JP_A,0.21212121212121213,0.7878787878787878,1.0,2.0,62.00000000000001,1
org.apache.xml.utils.res.XResources_hy,0.21212121212121213,0.7878787878787878,1.0,2.0,62.00000000000001,1
org.apache.xalan.templates.ElemValueOf,0.0319634703196347,0.9680365296803652,2.0,3.0,38.52272056851645,2
org.apache.xalan.xsltc.runtime.Parameter,0.23684210526315788,0.7631578947368421,1.0,1.0,53.00000000000001,0
org.apache.xalan.xsltc.compiler.FlowList,0.22972972972972974,0.7702702702702703,1.0,1.0,53.00000000000001,0
org.apache.xml.utils.FastStringBuffer,0.203125,0.796875,1.0,1.0,62.00000000000001,2
org.apache.xpath.functions.FuncSubstringBefore,0.09090909090909091,0.9090909090909091,2.0,3.0,41.665333311999305,0
org.apache.xalan.templates.OutputProperties,0.11457174638487208,0.8854282536151279,4.0,6.0,22.734039043174718,0
org.apache.xml.serializer.ToXMLSAXHandler,0.5178571428571429,0.48214285714285715,1.0,8.0,62.00000000000001,2
org.apache.xalan.templates.ElemAttribute,0.04177545691906005,0.95822454308094,2.0,4.0,43.63484845854285,2
org.apache.xml.utils.StringVector,0.21212121212121213,0.7878787878787878,1.0,2.0,62.00000000000001,0
org.apache.xalan.xsltc.dom.DupFilterIterator,0.2,0.8,1.0,1.0,53.00000000000001,0
org.apache.xalan.res.XSLTErrorResources_sv,0.994064936576283,0.005935063423716979,2.0,4.0,25.219040425836987,1
org.apache.xalan.res.XSLTErrorResources_it,0.8523577235772358,0.14764227642276423,3.0,5.0,21.208801376967465,1
org.apache.xalan.xsltc.compiler.ValueOf,0.23684210526315788,0.7631578947368421,1.0,1.0,53.00000000000001,0
org.apache.xalan.templates.ElemText,0.05622489959839357,0.9437751004016064,2.0,3.0,38.52272056851645,0
org.apache.xalan.xsltc.compiler.BooleanCall,0.23684210526315788,0.7631578947368421,2.0,2.0,29.120439557122072,0
org.apache.xpath.XPathProcessorException,0.09032258064516129,0.9096774193548387,2.0,3.0,41.665333311999305,0
org.apache.xalan.transformer.TransformerIdentityImpl,0.07624113475177305,0.9237588652482269,4.0,9.0,21.294756327898856,5
org.apache.xml.utils.DOMHelper,0.22058823529411764,0.7794117647058824,1.0,2.0,62.00000000000001,1
org.apache.xalan.xsltc.compiler.util.SlotAllocator,0.2222222222222222,0.7777777777777778,1.0,1.0,53.00000000000001,0
org.apache.xpath.domapi.XPathNamespaceImpl,0.03773584905660377,0.9622641509433962,2.0,3.0,41.665333311999305,1
org.apache.xalan.xsltc.compiler.util.AttributeSetMethodGenerator,0.22972972972972974,0.7702702702702703,1.0,1.0,53.00000000000001,0
org.apache.xalan.xsltc.compiler.FilteredAbsoluteLocationPath,0.2222222222222222,0.7777777777777778,1.0,1.0,53.00000000000001,1
org.apache.xpath.functions.FuncCurrent,0.07650273224043716,0.9234972677595629,2.0,3.0,41.665333311999305,0
org.apache.xalan.templates.ElemCopyOf,0.03954802259887006,0.96045197740113,2.0,3.0,38.52272056851645,2
org.apache.xalan.xsltc.compiler.UseAttributeSets,0.25316455696202533,0.7468354430379747,2.0,2.0,20.591260281974,0
org.apache.xpath.functions.Function2Args,0.04912280701754386,0.9508771929824561,2.0,3.0,41.665333311999305,1
org.apache.xpath.objects.XBoolean,0.0,1.0,1.0,1.0,68.00000000000001,1
org.apache.xpath.axes.UnionPathIterator,0.021834061135371178,0.9781659388646288,2.0,4.0,41.665333311999305,2
org.apache.xalan.xsltc.compiler.TestSeq,0.2236842105263158,0.7763157894736842,1.0,1.0,53.00000000000001,1
org.apache.xpath.operations.Quo,0.08609271523178808,0.9139072847682119,2.0,2.0,41.665333311999305,1
org.apache.xpath.FoundIndex,0.10144927536231885,0.8985507246376812,2.0,3.0,41.665333311999305,0
org.apache.xml.utils.synthetic.reflection.Constructor,0.21212121212121213,0.7878787878787878,1.0,2.0,62.00000000000001,0
org.apache.xalan.xsltc.trax.DOM2SAX,0.2222222222222222,0.7777777777777778,1.0,1.0,53.00000000000001,0
org.apache.xalan.processor.StylesheetHandler,0.0,1.0,1.0,1.0,68.00000000000001,4
org.apache.xalan.xsltc.compiler.RoundCall,0.21782178217821782,0.7821782178217822,2.0,3.0,10.295630140986999,0
org.apache.xalan.trace.EndSelectionEvent,0.22857142857142856,0.7714285714285715,1.0,3.0,53.00000000000001,1
org.apache.xalan.xsltc.compiler.util.ReferenceType,0.5588235294117647,0.4411764705882353,3.0,3.0,18.689314913421047,0
org.apache.xalan.xsltc.trax.XSLTCSource,0.23684210526315788,0.7631578947368421,2.0,2.0,28.195744359743372,0
org.apache.xalan.templates.XUnresolvedVariable,0.045454545454545456,0.9545454545454546,2.0,2.0,38.52272056851645,1
org.apache.xml.dtm.ref.DTMNodeListBase,0.203125,0.796875,1.0,1.0,53.00000000000001,1
org.apache.xalan.xsltc.compiler.StartsWithCall,0.23684210526315788,0.7631578947368421,1.0,1.0,53.00000000000001,0
org.apache.xalan.transformer.Counter,0.05405405405405406,0.9459459459459459,2.0,3.0,38.52272056851645,0
org.apache.xalan.xsltc.compiler.NotCall,0.22972972972972974,0.7702702702702703,1.0,1.0,53.00000000000001,0
org.apache.xalan.extensions.ExpressionVisitor,0.08139534883720931,0.9186046511627907,2.0,2.0,36.74234614174768,1
org.apache.xalan.xsltc.compiler.CompilerException,0.2222222222222222,0.7777777777777778,1.0,1.0,53.00000000000001,0
org.apache.xalan.xsltc.compiler.Choose,0.23684210526315788,0.7631578947368421,1.0,1.0,53.00000000000001,0
org.apache.xalan.transformer.TransformState,0.05701754385964912,0.9429824561403509,2.0,2.0,38.52272056851645,0
org.apache.xalan.templates.ElemEmpty,0.10071942446043165,0.8992805755395683,2.0,3.0,38.52272056851645,0
org.apache.xalan.res.XSLTErrorResources_ja,0.8655714398546718,0.13442856014532817,3.0,5.0,21.208801376967465,1
org.apache.xalan.res.XSLTErrorResources,0.7340163934426229,0.2659836065573771,4.0,8.0,21.294756327898856,6
org.apache.xml.serializer.ToSAXHandler,0.6214285714285714,0.37857142857142856,1.0,11.0,62.00000000000001,3
org.apache.xpath.functions.FuncExtFunction,0.03333333333333333,0.9666666666666667,2.0,3.0,41.665333311999305,2
org.apache.xpath.functions.FuncSum,0.08433734939759036,0.9156626506024096,2.0,3.0,41.665333311999305,0
org.apache.xalan.xsltc.compiler.FloorCall,0.22972972972972974,0.7702702702702703,1.0,1.0,53.00000000000001,0
org.apache.xalan.templates.KeyDeclaration,0.05054151624548736,0.9494584837545126,2.0,3.0,38.52272056851645,0
org.apache.xpath.domapi.XPathNSResolverImpl,0.08588957055214724,0.9141104294478528,2.0,3.0,41.665333311999305,1
org.apache.xpath.functions.FuncTranslate,0.07407407407407407,0.9259259259259259,2.0,3.0,41.665333311999305,0
org.apache.xalan.xsltc.compiler.util.NumberType,0.22972972972972974,0.7702702702702703,1.0,1.0,53.00000000000001,0
org.apache.xalan.processor.ProcessorCharacters,0.046263345195729534,0.9537366548042705,2.0,2.0,36.74234614174768,1
org.apache.xalan.lib.sql.ConnectionPoolManager,0.08130081300813008,0.9186991869918699,2.0,3.0,36.74234614174768,1
org.apache.xalan.extensions.ExtensionNamespaceSupport,0.0673076923076923,0.9326923076923077,2.0,2.0,36.74234614174768,0
org.apache.xalan.xsltc.compiler.AncestorPattern,0.23684210526315788,0.7631578947368421,1.0,1.0,53.00000000000001,0
org.apache.xpath.patterns.ContextMatchStepPattern,0.04659498207885305,0.953405017921147,2.0,2.0,41.665333311999305,1
org.apache.xalan.templates.ElemExsltFuncResult,0.1016260162601626,0.8983739837398373,2.0,4.0,38.52272056851645,1
org.apache.xml.utils.WrappedRuntimeException,0.203125,0.796875,1.0,1.0,62.00000000000001,0
org.apache.xalan.templates.ElemParam,0.06060606060606061,0.9393939393939394,2.0,3.0,38.52272056851645,2
org.apache.xpath.patterns.FunctionPattern,0.03977272727272727,0.9602272727272727,2.0,3.0,41.665333311999305,1
org.apache.xpath.objects.XRTreeFrag,0.0,1.0,1.0,1.0,68.00000000000001,1
org.apache.xalan.xsltc.dom.CurrentNodeListIterator,0.21621621621621623,0.7837837837837838,1.0,1.0,53.00000000000001,0
org.apache.xpath.functions.FuncLang,0.07650273224043716,0.9234972677595629,2.0,3.0,41.665333311999305,0
org.apache.xpath.functions.FuncUnparsedEntityURI,0.08974358974358974,0.9102564102564102,2.0,3.0,41.665333311999305,0
org.apache.xalan.templates.ElemApplyTemplates,0.02697841726618705,0.9730215827338129,2.0,3.0,38.52272056851645,2
org.apache.xalan.xsltc.dom.UnionIterator,0.20833333333333334,0.7916666666666666,1.0,1.0,53.00000000000001,0
org.apache.xml.dtm.ref.dom2dtm.DOM2DTM,0.203125,0.796875,1.0,1.0,53.00000000000001,1
org.apache.xml.dtm.ref.DTMDocumentImpl,0.32051282051282054,0.6794871794871795,2.0,4.0,28.195744359743372,3
org.apache.xalan.xsltc.compiler.EqualityExpr,0.26744186046511625,0.7325581395348837,2.0,2.0,29.120439557122072,1
org.apache.xalan.xsltc.compiler.ParentPattern,0.22972972972972974,0.7702702702702703,1.0,1.0,53.00000000000001,0
org.apache.xalan.xsltc.compiler.util.StringType,0.26582278481012656,0.7341772151898734,2.0,3.0,29.120439557122072,0
org.apache.xml.utils.synthetic.reflection.Member,0.21212121212121213,0.7878787878787878,1.0,2.0,62.00000000000001,0
org.apache.xalan.templates.ElemMessage,0.060085836909871244,0.9399141630901288,2.0,3.0,38.52272056851645,2
org.apache.xalan.xsltc.compiler.util.MethodGenerator,0.3522727272727273,0.6477272727272727,2.0,2.0,28.195744359743372,1
org.apache.xml.serializer.SerializationHandler,0.22388059701492538,0.7761194029850746,1.0,3.0,62.00000000000001,3
org.apache.xpath.functions.FuncBoolean,0.09395973154362416,0.9060402684563759,2.0,3.0,41.665333311999305,0
org.apache.xpath.patterns.NodeTestFilter,0.09352517985611511,0.9064748201438849,2.0,2.0,41.665333311999305,0
org.apache.xml.dtm.ref.CustomStringPool,0.203125,0.796875,1.0,1.0,53.00000000000001,0
org.apache.xpath.SourceTreeManager,0.026422764227642278,0.9735772357723578,2.0,2.0,41.665333311999305,1
org.apache.xalan.xsltc.compiler.IllegalCharException,0.22972972972972974,0.7702702702702703,1.0,1.0,53.00000000000001,0
org.apache.xml.dtm.ref.DTMNodeProxy,0.22058823529411764,0.7794117647058824,1.0,3.0,53.00000000000001,2
org.apache.xalan.xsltc.compiler.ProcessingInstructionPattern,0.2222222222222222,0.7777777777777778,1.0,1.0,53.00000000000001,1
org.apache.xalan.xsltc.compiler.util.ErrorMessages_tr,0.834319526627219,0.16568047337278108,2.0,2.0,28.195744359743372,1
org.apache.xpath.functions.FuncLast,0.06763285024154589,0.9323671497584541,2.0,3.0,41.665333311999305,0
org.apache.xalan.xsltc.dom.SimpleResultTreeImpl,0.2638888888888889,0.7361111111111112,3.0,4.0,28.13034466328843,1
org.apache.xalan.extensions.XSLProcessorContext,0.0,1.0,1.0,1.0,68.00000000000001,1
org.apache.xpath.XPathVisitor,0.0429042904290429,0.9570957095709571,2.0,2.0,41.665333311999305,0
org.apache.xml.serializer.WriterToASCI,0.203125,0.796875,1.0,1.0,62.00000000000001,1
org.apache.xalan.xsltc.trax.TemplatesImpl,0.2916666666666667,0.7083333333333334,5.0,7.0,14.58931950896473,1
org.apache.xalan.xsltc.cmdline.getopt.GetOptsException,0.22535211267605634,0.7746478873239436,1.0,1.0,53.00000000000001,0
org.apache.xalan.xsltc.dom.NodeCounter,0.23684210526315788,0.7631578947368421,1.0,1.0,53.00000000000001,2
org.apache.xpath.functions.FuncExtElementAvailable,0.07142857142857142,0.9285714285714286,2.0,3.0,41.665333311999305,0
org.apache.xml.dtm.DTMManager,0.33653846153846156,0.6634615384615384,4.0,6.0,14.488418416598511,2
org.apache.xalan.xsltc.ProcessorVersion,0.2028985507246377,0.7971014492753623,1.0,1.0,53.00000000000001,0
org.apache.xalan.xsltc.compiler.CopyOf,0.23684210526315788,0.7631578947368421,2.0,2.0,29.120439557122072,0
org.apache.xalan.xsltc.compiler.Output,0.45901639344262296,0.5409836065573771,3.0,4.0,30.56699418689837,1
org.apache.xpath.SourceTree,0.09090909090909091,0.9090909090909091,2.0,3.0,41.665333311999305,0
org.apache.xalan.xsltc.compiler.util.CompareGenerator,0.22972972972972974,0.7702702702702703,1.0,1.0,53.00000000000001,0
org.apache.xpath.axes.ChildIterator,0.06818181818181818,0.9318181818181818,2.0,4.0,41.665333311999305,0
org.apache.xml.utils.Trie,0.22058823529411764,0.7794117647058824,1.0,2.0,62.00000000000001,1
org.apache.xml.utils.StringBufferPool,0.21212121212121213,0.7878787878787878,1.0,2.0,62.00000000000001,0
org.apache.xalan.xsltc.compiler.RealExpr,0.22972972972972974,0.7702702702702703,1.0,1.0,53.00000000000001,0
org.apache.xml.utils.SuballocatedIntVector,0.21212121212121213,0.7878787878787878,1.0,2.0,62.00000000000001,1
org.apache.xml.serializer.SerializerBase,0.46691176470588236,0.5330882352941176,1.0,8.0,62.00000000000001,5
org.apache.xml.serializer.OutputPropertiesFactory,0.28270042194092826,0.7172995780590717,2.0,5.0,24.372115213907886,2
org.apache.xpath.ExpressionNode,0.08552631578947369,0.9144736842105263,2.0,2.0,41.665333311999305,0
org.apache.xpath.axes.LocPathIterator,0.01737619461337967,0.9826238053866203,2.0,4.0,41.665333311999305,1
org.apache.xml.utils.SerializableLocatorImpl,0.203125,0.796875,1.0,1.0,62.00000000000001,0
org.apache.xalan.xsltc.compiler.SimpleAttributeValue,0.22972972972972974,0.7702702702702703,1.0,1.0,53.00000000000001,0
org.apache.xalan.xsltc.compiler.VariableRef,0.24358974358974358,0.7564102564102564,1.0,1.0,53.00000000000001,0
org.apache.xml.serializer.AttributesImplSerializer,0.23943661971830985,0.7605633802816901,1.0,3.0,62.00000000000001,1
org.apache.xpath.objects.XNodeSetForDOM,0.0611353711790393,0.9388646288209607,2.0,2.0,41.665333311999305,0
org.apache.xpath.compiler.PsuedoNames,0.08176100628930817,0.9182389937106918,2.0,2.0,41.665333311999305,0
